EESchema Schematic File Version 4
EELAYER 30 0
EELAYER END
$Descr A4 11693 8268
encoding utf-8
Sheet 1 1
Title "CorePill"
Date "2021-03-07"
Rev "1.0.0"
Comp "Mithat Konar"
Comment1 "https://gitlab.com/stm32-pills/corepill"
Comment2 "    Creative Commons License CC-BY-SA 4.0"
Comment3 "    https://github.com/profdc9/STM32surface"
Comment4 "Derived from STM32surface by Daniel Marks (March 11, 2020 version)"
$EndDescr
$Comp
L stm32f103c8t6:STM32F103C8T6 U2
U 1 1 5B1EE617
P 6650 2550
F 0 "U2" H 6650 2650 60  0000 C CNN
F 1 "STM32F103C8T6" H 6650 2550 60  0000 C CNN
F 2 "Housings_QFP:LQFP-48_7x7mm_Pitch0.5mm" H 6850 2550 60  0001 C CNN
F 3 "" H 6850 2550 60  0001 C CNN
F 4 "C8304" H 6650 2550 60  0001 C CNN "LCSC"
	1    6650 2550
	1    0    0    -1  
$EndComp
Text GLabel 5650 1850 0    60   Input ~ 0
PA0
Text GLabel 5650 1950 0    60   Input ~ 0
PA1
Text GLabel 5650 2050 0    60   Input ~ 0
PA2
Text GLabel 5650 2150 0    60   Input ~ 0
PA3
Text GLabel 5650 2250 0    60   Input ~ 0
PA4
Text GLabel 5650 2350 0    60   Input ~ 0
PA5
Text GLabel 5650 2450 0    60   Input ~ 0
PA6
Text GLabel 5650 2550 0    60   Input ~ 0
PA7
Text GLabel 5650 2650 0    60   Input ~ 0
PA8
Text GLabel 5650 2750 0    60   Input ~ 0
PA9
Text GLabel 5650 2850 0    60   Input ~ 0
PA10
Text GLabel 5650 2950 0    60   Input ~ 0
PA11
Text GLabel 5650 3050 0    60   Input ~ 0
PA12
Text GLabel 5650 3150 0    60   Input ~ 0
PA13
Text GLabel 5650 3250 0    60   Input ~ 0
PA14
Text GLabel 5650 3350 0    60   Input ~ 0
PA15
Text GLabel 7650 1850 2    60   Input ~ 0
PB0
Text GLabel 7650 1950 2    60   Input ~ 0
PB1
Text GLabel 7650 2050 2    60   Input ~ 0
PB2
Text GLabel 7650 2150 2    60   Input ~ 0
PB3
Text GLabel 7650 2250 2    60   Input ~ 0
PB4
Text GLabel 7650 2350 2    60   Input ~ 0
PB5
Text GLabel 7650 2450 2    60   Input ~ 0
PB6
Text GLabel 7650 2550 2    60   Input ~ 0
PB7
Text GLabel 7650 2650 2    60   Input ~ 0
PB8
Text GLabel 7650 2750 2    60   Input ~ 0
PB9
Text GLabel 7650 2850 2    60   Input ~ 0
PB10
Text GLabel 7650 2950 2    60   Input ~ 0
PB11
Text GLabel 7650 3050 2    60   Input ~ 0
PB12
Text GLabel 7650 3150 2    60   Input ~ 0
PB13
Text GLabel 7650 3250 2    60   Input ~ 0
PB14
Text GLabel 7650 3350 2    60   Input ~ 0
PB15
Text GLabel 7650 1350 2    60   Input ~ 0
PC13
Text GLabel 7650 1450 2    60   Input ~ 0
OSC32IN
Text GLabel 7650 1550 2    60   Output ~ 0
OSC32OUT
Text GLabel 7650 1650 2    60   Input ~ 0
BOOT0
Text GLabel 5600 1650 0    60   Input ~ 0
NRST
Text GLabel 5600 1450 0    60   Input ~ 0
OSCIN
Text GLabel 5600 1550 0    60   Output ~ 0
OSCOUT
Text GLabel 5600 1350 0    60   Input ~ 0
VBAT
Text GLabel 5650 3550 0    60   Input ~ 0
VDDA
Text GLabel 5650 3650 0    60   Input ~ 0
VDD_1
Text GLabel 5650 3750 0    60   Input ~ 0
VDD_2
Text GLabel 5650 3850 0    60   Input ~ 0
VDD_3
Text GLabel 3150 7200 2    60   Output ~ 0
VSSA
Text GLabel 3150 7300 2    60   Output ~ 0
VSS_1
Text GLabel 3150 7400 2    60   Output ~ 0
VSS_2
Text GLabel 3150 7500 2    60   Output ~ 0
VSS_3
Text GLabel 1750 2050 0    60   Input ~ 0
VBAT
Text GLabel 1750 2150 0    60   Input ~ 0
PC13
Text GLabel 1750 2250 0    60   Input ~ 0
OSC32IN
Text GLabel 1750 2350 0    60   Input ~ 0
OSC32OUT
Text GLabel 1700 2450 0    60   Input ~ 0
PA0
Text GLabel 1700 2550 0    60   Input ~ 0
PA1
Text GLabel 1700 2650 0    60   Input ~ 0
PA2
Text GLabel 1700 2750 0    60   Input ~ 0
PA3
Text GLabel 1700 2850 0    60   Input ~ 0
PA4
Text GLabel 1700 2950 0    60   Input ~ 0
PA5
Text GLabel 1700 3050 0    60   Input ~ 0
PA6
Text GLabel 1700 3150 0    60   Input ~ 0
PA7
Text GLabel 2700 3550 2    60   Input ~ 0
PA8
Text GLabel 2700 3450 2    60   Input ~ 0
PA9
Text GLabel 2700 3350 2    60   Input ~ 0
PA10
Text GLabel 2700 3150 2    60   Input ~ 0
PA12
Text GLabel 2700 3050 2    60   Input ~ 0
PA15
Text GLabel 1700 3250 0    60   Input ~ 0
PB0
Text GLabel 1700 3350 0    60   Input ~ 0
PB1
Text GLabel 1700 3450 0    60   Input ~ 0
PB10
Text GLabel 1700 3550 0    60   Input ~ 0
PB11
Text GLabel 1700 3750 0    60   Input ~ 0
3V3B
Text GLabel 1700 3650 0    60   Input ~ 0
NRST
Text GLabel 2700 3950 2    60   Input ~ 0
PB12
Text GLabel 2700 3850 2    60   Input ~ 0
PB13
Text GLabel 2700 3750 2    60   Input ~ 0
PB14
Text GLabel 2700 3650 2    60   Input ~ 0
PB15
Text GLabel 2700 2950 2    60   Input ~ 0
PB3
Text GLabel 2700 2850 2    60   Input ~ 0
PB4
Text GLabel 2700 2750 2    60   Input ~ 0
PB5
Text GLabel 2700 2650 2    60   Input ~ 0
PB6
Text GLabel 2700 2550 2    60   Input ~ 0
PB7
Text GLabel 2700 2450 2    60   Input ~ 0
PB8
Text GLabel 2700 2350 2    60   Input ~ 0
PB9
Text GLabel 2700 3250 2    60   Input ~ 0
PA11
Text GLabel 2700 2050 2    60   Input ~ 0
3V3B
$Comp
L Connector_Generic:Conn_01x04 J4
U 1 1 5B1FAA53
P 2200 950
F 0 "J4" H 2200 1150 50  0000 C CNN
F 1 "Conn_01x04" H 2200 650 50  0000 C CNN
F 2 "Connector_PinHeader_2.54mm:PinHeader_1x04_P2.54mm_Vertical" H 2200 950 50  0001 C CNN
F 3 "" H 2200 950 50  0001 C CNN
F 4 "n/a" H 2200 950 50  0001 C CNN "LCSC"
	1    2200 950 
	0    -1   -1   0   
$EndComp
Text GLabel 2100 1250 3    60   Input ~ 0
3V3B
Text GLabel 2200 1250 3    60   Input ~ 0
PA13
Text GLabel 2300 1250 3    60   Input ~ 0
PA14
$Comp
L Device:Crystal Y1
U 1 1 5B1FFA43
P 5650 4800
F 0 "Y1" H 5650 4950 50  0000 C CNN
F 1 "8 MHz" H 5650 4650 50  0000 C CNN
F 2 "Crystal:Crystal_SMD_5032-2Pin_5.0x3.2mm" H 5650 4800 50  0001 C CNN
F 3 "" H 5650 4800 50  0001 C CNN
F 4 "C115962" H 5650 4800 60  0001 C CNN "LCSC"
	1    5650 4800
	0    -1   1    0   
$EndComp
Text GLabel 5950 4550 2    60   Output ~ 0
OSCIN
Text GLabel 5950 5050 2    60   Input ~ 0
OSCOUT
$Comp
L Device:C C12
U 1 1 5B200D89
P 5300 4550
F 0 "C12" H 5325 4650 50  0000 L CNN
F 1 "20p" H 5325 4450 50  0000 L CNN
F 2 "Capacitor_SMD:C_0805_2012Metric_Pad1.18x1.45mm_HandSolder" H 5338 4400 50  0001 C CNN
F 3 "" H 5300 4550 50  0001 C CNN
F 4 "C1804" H 5300 4550 60  0001 C CNN "LCSC"
	1    5300 4550
	0    1    -1   0   
$EndComp
$Comp
L Device:C C14
U 1 1 5B200F11
P 5300 5050
F 0 "C14" H 5325 5150 50  0000 L CNN
F 1 "20p" H 5325 4950 50  0000 L CNN
F 2 "Capacitor_SMD:C_0805_2012Metric_Pad1.18x1.45mm_HandSolder" H 5338 4900 50  0001 C CNN
F 3 "" H 5300 5050 50  0001 C CNN
F 4 "C1804" H 5300 5050 60  0001 C CNN "LCSC"
	1    5300 5050
	0    1    -1   0   
$EndComp
Text GLabel 3150 4950 2    60   Output ~ 0
VDDA
Text GLabel 3150 5500 2    60   Output ~ 0
VDD_1
Text GLabel 3150 6050 2    60   Output ~ 0
VDD_2
Text GLabel 3150 6600 2    60   Output ~ 0
VDD_3
Text GLabel 1350 6600 0    60   Input ~ 0
3V3B
$Comp
L Device:C C8
U 1 1 5B209468
P 2800 5100
F 0 "C8" H 2825 5200 50  0000 L CNN
F 1 "0.1u" H 2825 5000 50  0000 L CNN
F 2 "Capacitor_SMD:C_0805_2012Metric_Pad1.18x1.45mm_HandSolder" H 2838 4950 50  0001 C CNN
F 3 "" H 2800 5100 50  0001 C CNN
F 4 "C49678" H 2800 5100 60  0001 C CNN "LCSC"
	1    2800 5100
	-1   0    0    1   
$EndComp
$Comp
L Connector_Generic:Conn_02x03_Odd_Even J6
U 1 1 5B20DAE2
P 9100 1850
F 0 "J6" H 9150 2050 50  0000 C CNN
F 1 "boot" H 9150 1650 50  0000 C CNN
F 2 "Connector_PinHeader_2.54mm:PinHeader_2x03_P2.54mm_Vertical" H 9100 1850 50  0001 C CNN
F 3 "" H 9100 1850 50  0001 C CNN
F 4 "n/a" H 9100 1850 50  0001 C CNN "LCSC"
	1    9100 1850
	1    0    0    -1  
$EndComp
Text GLabel 9750 1100 1    60   Input ~ 0
VDD_1
Text GLabel 8750 1850 0    60   Output ~ 0
BOOT0
Text GLabel 9550 1850 2    60   Input ~ 0
PB2
$Comp
L Device:R R11
U 1 1 5B211206
P 9450 1200
F 0 "R11" V 9550 1200 50  0000 C CNN
F 1 "680" V 9450 1200 50  0000 C CNN
F 2 "Resistor_SMD:R_0805_2012Metric_Pad1.20x1.40mm_HandSolder" V 9380 1200 50  0001 C CNN
F 3 "" H 9450 1200 50  0001 C CNN
F 4 "C17798" V 9450 1200 60  0001 C CNN "LCSC"
	1    9450 1200
	0    -1   1    0   
$EndComp
$Comp
L Device:Crystal Y2
U 1 1 5B213EF2
P 7650 4800
F 0 "Y2" H 7650 4950 50  0000 C CNN
F 1 "32.768KHz" H 7650 4650 50  0000 C CNN
F 2 "Crystal:Crystal_SMD_3215-2Pin_3.2x1.5mm" H 7650 4800 50  0001 C CNN
F 3 "" H 7650 4800 50  0001 C CNN
F 4 "C32346" H 7650 4800 60  0001 C CNN "LCSC"
	1    7650 4800
	0    -1   -1   0   
$EndComp
Text GLabel 7350 4550 0    60   Output ~ 0
OSC32IN
Text GLabel 7350 5050 0    60   Input ~ 0
OSC32OUT
$Comp
L Device:C C15
U 1 1 5B218586
P 8000 4550
F 0 "C15" V 8150 4500 50  0000 L CNN
F 1 "20p" H 8025 4450 50  0000 L CNN
F 2 "Capacitor_SMD:C_0805_2012Metric_Pad1.18x1.45mm_HandSolder" H 8038 4400 50  0001 C CNN
F 3 "" H 8000 4550 50  0001 C CNN
F 4 "C1804" H 8000 4550 60  0001 C CNN "LCSC"
	1    8000 4550
	0    -1   -1   0   
$EndComp
$Comp
L Device:C C16
U 1 1 5B218D1E
P 8000 5050
F 0 "C16" V 7850 5000 50  0000 L CNN
F 1 "20p" H 8025 4950 50  0000 L CNN
F 2 "Capacitor_SMD:C_0805_2012Metric_Pad1.18x1.45mm_HandSolder" H 8038 4900 50  0001 C CNN
F 3 "" H 8000 5050 50  0001 C CNN
F 4 "C1804" H 8000 5050 60  0001 C CNN "LCSC"
	1    8000 5050
	0    -1   -1   0   
$EndComp
Text GLabel 7650 3550 2    60   Input ~ 0
VSSA
Text GLabel 7650 3650 2    60   Input ~ 0
VSS_1
Text GLabel 7650 3750 2    60   Input ~ 0
VSS_2
Text GLabel 7650 3850 2    60   Input ~ 0
VSS_3
Text GLabel 4600 1650 2    60   Output ~ 0
NRST
$Comp
L Switch:SW_Push SW1
U 1 1 5B2200F6
P 3850 1900
F 0 "SW1" H 3850 2000 50  0000 C CNN
F 1 "rst" H 3850 1850 50  0000 C CNN
F 2 "mfk-misc:SW_SPST_SMD_6.1x3.6" H 3850 1900 50  0001 C CNN
F 3 "" H 3850 1900 50  0001 C CNN
F 4 "C520860; C556660?; C354943; " H 3850 1900 50  0001 C CNN "Comments"
F 5 "C118141" H 3850 1900 50  0001 C CNN "LCSC"
	1    3850 1900
	0    -1   1    0   
$EndComp
$Comp
L Device:C C17
U 1 1 5B22090F
P 4200 1900
F 0 "C17" H 3950 1900 50  0000 L CNN
F 1 "1u" H 4000 1800 50  0000 L CNN
F 2 "Capacitor_SMD:C_0805_2012Metric_Pad1.18x1.45mm_HandSolder" H 4238 1750 50  0001 C CNN
F 3 "" H 4200 1900 50  0001 C CNN
F 4 "C28323" H 4200 1900 60  0001 C CNN "LCSC"
F 5 "Was 10nF C1710" H 4200 1900 50  0001 C CNN "Comments"
	1    4200 1900
	-1   0    0    -1  
$EndComp
$Comp
L Device:R R9
U 1 1 5B221F86
P 3850 1400
F 0 "R9" V 3950 1400 50  0000 C CNN
F 1 "10K" V 3850 1400 50  0000 C CNN
F 2 "Resistor_SMD:R_0805_2012Metric_Pad1.20x1.40mm_HandSolder" V 3780 1400 50  0001 C CNN
F 3 "" H 3850 1400 50  0001 C CNN
F 4 "C17414" V 3850 1400 60  0001 C CNN "LCSC"
F 5 "Was 1.5k, C4310" V 3850 1400 50  0001 C CNN "Comments"
	1    3850 1400
	1    0    0    -1  
$EndComp
Text GLabel 3850 1100 1    60   Input ~ 0
VDD_1
$Comp
L Connector_Generic:Conn_01x20 J5
U 1 1 5B2284E4
P 2050 2950
F 0 "J5" H 2050 3950 50  0000 C CNN
F 1 "Conn_01x20" H 2050 1850 50  0000 C CNN
F 2 "Connector_PinHeader_2.54mm:PinHeader_1x20_P2.54mm_Vertical" H 2050 2950 50  0001 C CNN
F 3 "" H 2050 2950 50  0001 C CNN
F 4 "n/a" H 2050 2950 50  0001 C CNN "LCSC"
	1    2050 2950
	1    0    0    -1  
$EndComp
$Comp
L Connector_Generic:Conn_01x20 J9
U 1 1 5B2285C2
P 2400 2950
F 0 "J9" H 2400 3950 50  0000 C CNN
F 1 "Conn_01x20" H 2400 1800 50  0000 C CNN
F 2 "Connector_PinHeader_2.54mm:PinHeader_1x20_P2.54mm_Vertical" H 2400 2950 50  0001 C CNN
F 3 "" H 2400 2950 50  0001 C CNN
F 4 "n/a" H 2400 2950 50  0001 C CNN "LCSC"
	1    2400 2950
	-1   0    0    -1  
$EndComp
Wire Wire Line
	5000 5050 5150 5050
Wire Wire Line
	5150 4550 5000 4550
Connection ~ 5650 4550
Wire Wire Line
	5450 5050 5650 5050
Wire Wire Line
	5650 4550 5650 4650
Wire Wire Line
	5450 4550 5650 4550
Wire Wire Line
	2100 1250 2100 1150
Wire Wire Line
	2200 1250 2200 1150
Wire Wire Line
	2300 1250 2300 1150
Wire Wire Line
	2400 1250 2400 1150
Wire Wire Line
	2700 2050 2600 2050
Wire Wire Line
	2700 2350 2600 2350
Wire Wire Line
	2700 2450 2600 2450
Wire Wire Line
	2700 2650 2600 2650
Wire Wire Line
	2700 2550 2600 2550
Wire Wire Line
	2600 2750 2700 2750
Wire Wire Line
	2700 2850 2600 2850
Wire Wire Line
	2700 2950 2600 2950
Wire Wire Line
	2700 3050 2600 3050
Wire Wire Line
	2700 3650 2600 3650
Wire Wire Line
	2700 3750 2600 3750
Wire Wire Line
	2700 3850 2600 3850
Wire Wire Line
	2700 3950 2600 3950
Wire Wire Line
	1700 3750 1850 3750
Wire Wire Line
	1700 3650 1850 3650
Wire Wire Line
	1700 3550 1850 3550
Wire Wire Line
	1700 3450 1850 3450
Wire Wire Line
	2700 3150 2600 3150
Wire Wire Line
	2700 3250 2600 3250
Wire Wire Line
	2700 3350 2600 3350
Wire Wire Line
	2600 3450 2700 3450
Wire Wire Line
	2700 3550 2600 3550
Wire Wire Line
	1700 3350 1850 3350
Wire Wire Line
	1850 3250 1700 3250
Wire Wire Line
	1700 3150 1850 3150
Wire Wire Line
	1850 3050 1700 3050
Wire Wire Line
	1700 2950 1850 2950
Wire Wire Line
	1700 2850 1850 2850
Wire Wire Line
	1850 2750 1700 2750
Wire Wire Line
	1700 2650 1850 2650
Wire Wire Line
	1700 2550 1850 2550
Wire Wire Line
	1700 2450 1850 2450
Wire Wire Line
	1850 2350 1750 2350
Wire Wire Line
	1750 2250 1850 2250
Wire Wire Line
	1750 2150 1850 2150
Wire Wire Line
	1750 2050 1850 2050
Wire Wire Line
	7650 3850 7550 3850
Wire Wire Line
	7650 3750 7550 3750
Wire Wire Line
	7650 3650 7550 3650
Wire Wire Line
	5650 2950 5750 2950
Wire Wire Line
	7650 3550 7550 3550
Wire Wire Line
	5650 3850 5750 3850
Wire Wire Line
	5650 3750 5750 3750
Wire Wire Line
	5750 3650 5650 3650
Wire Wire Line
	5650 3550 5750 3550
Wire Wire Line
	7650 1650 7550 1650
Wire Wire Line
	7650 1550 7550 1550
Wire Wire Line
	7650 1450 7550 1450
Wire Wire Line
	7550 1350 7650 1350
Wire Wire Line
	7650 3350 7550 3350
Wire Wire Line
	7650 3250 7550 3250
Wire Wire Line
	7650 3150 7550 3150
Wire Wire Line
	7650 3050 7550 3050
Wire Wire Line
	7650 2950 7550 2950
Wire Wire Line
	7650 2850 7550 2850
Wire Wire Line
	7650 2750 7550 2750
Wire Wire Line
	7650 2650 7550 2650
Wire Wire Line
	7650 2550 7550 2550
Wire Wire Line
	7550 2450 7650 2450
Wire Wire Line
	7550 2350 7650 2350
Wire Wire Line
	7550 2250 7650 2250
Wire Wire Line
	7550 2150 7650 2150
Wire Wire Line
	7550 2050 7650 2050
Wire Wire Line
	7550 1950 7650 1950
Wire Wire Line
	7550 1850 7650 1850
Wire Wire Line
	5750 3350 5650 3350
Wire Wire Line
	5750 3250 5650 3250
Wire Wire Line
	5750 3150 5650 3150
Wire Wire Line
	5750 3050 5650 3050
Wire Wire Line
	5750 2850 5650 2850
Wire Wire Line
	5750 2750 5650 2750
Wire Wire Line
	5750 2650 5650 2650
Wire Wire Line
	5750 2550 5650 2550
Wire Wire Line
	5750 2450 5650 2450
Wire Wire Line
	5750 2350 5650 2350
Wire Wire Line
	5750 2250 5650 2250
Wire Wire Line
	5750 2150 5650 2150
Wire Wire Line
	5750 2050 5650 2050
Wire Wire Line
	5600 1650 5750 1650
Wire Wire Line
	5600 1550 5750 1550
Wire Wire Line
	5600 1450 5750 1450
Wire Wire Line
	5600 1350 5700 1350
Wire Wire Line
	5650 1950 5750 1950
Wire Wire Line
	5650 1850 5750 1850
Wire Wire Line
	1650 7200 1650 7500
Wire Wire Line
	1650 6600 1650 6900
Wire Wire Line
	8900 1750 8850 1750
Wire Wire Line
	8850 1750 8850 1550
Wire Wire Line
	8850 1550 9450 1550
Wire Wire Line
	9450 1750 9400 1750
Wire Wire Line
	9750 1100 9750 1200
Wire Wire Line
	8900 1950 8850 1950
Wire Wire Line
	8850 1950 8850 2150
Wire Wire Line
	8850 2150 9150 2150
Wire Wire Line
	9450 2150 9450 1950
Wire Wire Line
	9450 1950 9400 1950
Wire Wire Line
	9150 2200 9150 2150
Connection ~ 9150 2150
Wire Wire Line
	8750 1850 8900 1850
Wire Wire Line
	9550 1850 9400 1850
Wire Wire Line
	7350 5050 7650 5050
Wire Wire Line
	7650 5050 7650 4950
Wire Wire Line
	7350 4550 7650 4550
Wire Wire Line
	7650 4550 7650 4650
Connection ~ 7650 5050
Connection ~ 7650 4550
Wire Wire Line
	3150 7300 3000 7300
Wire Wire Line
	3150 7500 3000 7500
Wire Wire Line
	1650 7500 2050 7500
Connection ~ 3000 7500
Connection ~ 1650 7500
Wire Wire Line
	5650 5050 5650 4950
Connection ~ 5650 5050
Wire Wire Line
	5650 4550 5950 4550
Wire Wire Line
	9150 2150 9450 2150
Wire Wire Line
	7650 5050 7850 5050
Wire Wire Line
	7650 4550 7850 4550
Wire Wire Line
	3000 7400 3150 7400
Wire Wire Line
	1650 7500 1650 7550
Wire Wire Line
	5650 5050 5950 5050
$Comp
L power:PWR_FLAG #FLG0101
U 1 1 6045501B
P 5700 1300
F 0 "#FLG0101" H 5700 1375 50  0001 C CNN
F 1 "PWR_FLAG" H 5700 1473 50  0000 C CNN
F 2 "" H 5700 1300 50  0001 C CNN
F 3 "~" H 5700 1300 50  0001 C CNN
	1    5700 1300
	1    0    0    -1  
$EndComp
Wire Wire Line
	5700 1300 5700 1350
Connection ~ 5700 1350
Wire Wire Line
	5700 1350 5750 1350
$Comp
L power:GNDD #PWR0103
U 1 1 60455643
P 1650 7550
F 0 "#PWR0103" H 1650 7300 50  0001 C CNN
F 1 "GNDD" H 1654 7395 50  0000 C CNN
F 2 "" H 1650 7550 50  0001 C CNN
F 3 "" H 1650 7550 50  0001 C CNN
	1    1650 7550
	1    0    0    -1  
$EndComp
$Comp
L power:GNDD #PWR0104
U 1 1 60462F07
P 2800 5250
F 0 "#PWR0104" H 2800 5000 50  0001 C CNN
F 1 "GNDD" H 2804 5095 50  0000 C CNN
F 2 "" H 2800 5250 50  0001 C CNN
F 3 "" H 2800 5250 50  0001 C CNN
	1    2800 5250
	1    0    0    -1  
$EndComp
$Comp
L power:GNDD #PWR0105
U 1 1 6049962D
P 3850 2200
F 0 "#PWR0105" H 3850 1950 50  0001 C CNN
F 1 "GNDD" H 3854 2045 50  0000 C CNN
F 2 "" H 3850 2200 50  0001 C CNN
F 3 "" H 3850 2200 50  0001 C CNN
	1    3850 2200
	-1   0    0    -1  
$EndComp
Wire Wire Line
	1550 3850 1550 3950
Wire Wire Line
	1550 3850 1850 3850
Wire Wire Line
	1550 3950 1850 3950
Connection ~ 1550 3950
Wire Wire Line
	1550 3950 1550 4000
$Comp
L power:GNDD #PWR0106
U 1 1 60547486
P 1550 4000
F 0 "#PWR0106" H 1550 3750 50  0001 C CNN
F 1 "GNDD" H 1554 3845 50  0000 C CNN
F 2 "" H 1550 4000 50  0001 C CNN
F 3 "" H 1550 4000 50  0001 C CNN
	1    1550 4000
	1    0    0    -1  
$EndComp
$Comp
L power:GNDD #PWR0107
U 1 1 605605F5
P 9150 2200
F 0 "#PWR0107" H 9150 1950 50  0001 C CNN
F 1 "GNDD" H 9154 2045 50  0000 C CNN
F 2 "" H 9150 2200 50  0001 C CNN
F 3 "" H 9150 2200 50  0001 C CNN
	1    9150 2200
	1    0    0    -1  
$EndComp
Wire Wire Line
	8300 4800 8300 4550
Connection ~ 8300 4800
Wire Wire Line
	8300 4800 8500 4800
Wire Wire Line
	8150 5050 8300 5050
Wire Wire Line
	8300 5050 8300 4800
Wire Wire Line
	8150 4550 8300 4550
Wire Wire Line
	8500 4900 8500 4800
$Comp
L power:GNDD #PWR0108
U 1 1 605F1C45
P 8500 4900
F 0 "#PWR0108" H 8500 4650 50  0001 C CNN
F 1 "GNDD" H 8504 4745 50  0000 C CNN
F 2 "" H 8500 4900 50  0001 C CNN
F 3 "" H 8500 4900 50  0001 C CNN
	1    8500 4900
	1    0    0    -1  
$EndComp
Wire Wire Line
	9750 1550 9450 1550
Wire Wire Line
	9450 1550 9450 1750
Connection ~ 1650 6600
Wire Wire Line
	2400 6600 2050 6600
Wire Wire Line
	2400 4950 2800 4950
Wire Wire Line
	3150 5500 2800 5500
Connection ~ 2400 5500
Wire Wire Line
	2400 5500 2400 4950
Wire Wire Line
	3150 6050 2800 6050
Connection ~ 2400 6050
Wire Wire Line
	2400 6050 2400 5500
Wire Wire Line
	3150 7200 3000 7200
Wire Wire Line
	3000 7300 3000 7400
Connection ~ 3000 7400
Wire Wire Line
	3000 7400 3000 7500
Wire Wire Line
	3000 7300 3000 7200
Connection ~ 3000 7300
$Comp
L power:GNDD #PWR0110
U 1 1 60462C01
P 2800 5800
F 0 "#PWR0110" H 2800 5550 50  0001 C CNN
F 1 "GNDD" H 2804 5645 50  0000 C CNN
F 2 "" H 2800 5800 50  0001 C CNN
F 3 "" H 2800 5800 50  0001 C CNN
	1    2800 5800
	1    0    0    -1  
$EndComp
$Comp
L Device:C C9
U 1 1 5B209C53
P 2800 5650
F 0 "C9" H 2825 5750 50  0000 L CNN
F 1 "0.1u" H 2825 5550 50  0000 L CNN
F 2 "Capacitor_SMD:C_0805_2012Metric_Pad1.18x1.45mm_HandSolder" H 2838 5500 50  0001 C CNN
F 3 "" H 2800 5650 50  0001 C CNN
F 4 "C49678" H 2800 5650 60  0001 C CNN "LCSC"
	1    2800 5650
	-1   0    0    1   
$EndComp
$Comp
L power:GNDD #PWR0111
U 1 1 60A44277
P 3200 2150
F 0 "#PWR0111" H 3200 1900 50  0001 C CNN
F 1 "GNDD" H 3204 1995 50  0000 C CNN
F 2 "" H 3200 2150 50  0001 C CNN
F 3 "" H 3200 2150 50  0001 C CNN
	1    3200 2150
	1    0    0    -1  
$EndComp
$Comp
L power:GNDD #PWR0112
U 1 1 60A511C1
P 2500 1350
F 0 "#PWR0112" H 2500 1100 50  0001 C CNN
F 1 "GNDD" H 2504 1195 50  0000 C CNN
F 2 "" H 2500 1350 50  0001 C CNN
F 3 "" H 2500 1350 50  0001 C CNN
	1    2500 1350
	1    0    0    -1  
$EndComp
Wire Wire Line
	2400 1250 2500 1250
Wire Wire Line
	2500 1250 2500 1350
$Comp
L power:GNDD #PWR0113
U 1 1 60A7ABDC
P 4800 4900
F 0 "#PWR0113" H 4800 4650 50  0001 C CNN
F 1 "GNDD" H 4804 4745 50  0000 C CNN
F 2 "" H 4800 4900 50  0001 C CNN
F 3 "" H 4800 4900 50  0001 C CNN
	1    4800 4900
	-1   0    0    -1  
$EndComp
Wire Wire Line
	5000 4550 5000 4800
Wire Wire Line
	4800 4900 4800 4800
Wire Wire Line
	4800 4800 5000 4800
Connection ~ 5000 4800
Wire Wire Line
	5000 4800 5000 5050
Wire Wire Line
	3850 1100 3850 1250
Wire Wire Line
	9200 1200 9300 1200
Connection ~ 9450 1550
Connection ~ 9750 1200
Wire Wire Line
	9750 1200 9750 1550
Wire Wire Line
	9600 1200 9750 1200
Wire Wire Line
	4600 1650 4200 1650
Wire Wire Line
	4200 1750 4200 1650
$Comp
L power:PWR_FLAG #FLG0103
U 1 1 604C6652
P 3100 1900
F 0 "#FLG0103" H 3100 1975 50  0001 C CNN
F 1 "PWR_FLAG" H 3100 2073 50  0000 C CNN
F 2 "" H 3100 1900 50  0001 C CNN
F 3 "~" H 3100 1900 50  0001 C CNN
	1    3100 1900
	1    0    0    -1  
$EndComp
Wire Wire Line
	3200 2150 3100 2150
Wire Wire Line
	2600 2150 3100 2150
Wire Wire Line
	3850 2200 3850 2150
Wire Wire Line
	3850 2150 4200 2150
Wire Wire Line
	4200 2050 4200 2150
Connection ~ 3850 2150
Wire Wire Line
	3850 2150 3850 2100
Wire Wire Line
	3850 1550 3850 1650
Wire Wire Line
	4200 1650 3850 1650
Connection ~ 4200 1650
Connection ~ 3850 1650
Wire Wire Line
	3850 1650 3850 1700
NoConn ~ 2600 2250
$Comp
L power:PWR_FLAG #FLG0102
U 1 1 604B8D29
P 2600 1900
F 0 "#FLG0102" H 2600 1975 50  0001 C CNN
F 1 "PWR_FLAG" H 2600 2073 50  0000 C CNN
F 2 "" H 2600 1900 50  0001 C CNN
F 3 "~" H 2600 1900 50  0001 C CNN
	1    2600 1900
	1    0    0    -1  
$EndComp
Connection ~ 2800 4950
Wire Wire Line
	2800 4950 3150 4950
Connection ~ 2800 5500
Wire Wire Line
	2800 5500 2400 5500
Wire Wire Line
	1350 6600 1650 6600
Wire Wire Line
	2600 1900 2600 2050
Connection ~ 2600 2050
Wire Wire Line
	3100 1900 3100 2150
Connection ~ 3100 2150
$Comp
L Device:LED D4
U 1 1 5B210CCF
P 9050 1200
F 0 "D4" H 9050 1300 50  0000 C CNN
F 1 "PC13" H 9050 1100 50  0000 C CNN
F 2 "LED_SMD:LED_0805_2012Metric_Pad1.15x1.40mm_HandSolder" H 9050 1200 50  0001 C CNN
F 3 "" H 9050 1200 50  0001 C CNN
F 4 "C2297" H 9050 1200 60  0001 C CNN "LCSC"
F 5 "green" H 9050 1000 50  0000 C CNN "Comments"
	1    9050 1200
	1    0    0    -1  
$EndComp
$Comp
L Device:R R1
U 1 1 605F0FFD
P 2050 6850
F 0 "R1" V 2150 6850 50  0000 C CNN
F 1 "680" V 2050 6850 50  0000 C CNN
F 2 "Resistor_SMD:R_0805_2012Metric_Pad1.20x1.40mm_HandSolder" V 1980 6850 50  0001 C CNN
F 3 "" H 2050 6850 50  0001 C CNN
F 4 "C17798" V 2050 6850 60  0001 C CNN "LCSC"
	1    2050 6850
	1    0    0    1   
$EndComp
$Comp
L Device:LED D1
U 1 1 605F1338
P 2050 7150
F 0 "D1" H 2050 7250 50  0000 C CNN
F 1 "PWR" H 2050 7050 50  0000 C CNN
F 2 "LED_SMD:LED_0805_2012Metric_Pad1.15x1.40mm_HandSolder" H 2050 7150 50  0001 C CNN
F 3 "" H 2050 7150 50  0001 C CNN
F 4 "C84256" H 2050 7150 60  0001 C CNN "LCSC"
F 5 "red" H 2050 6950 50  0000 C CNN "Comments"
	1    2050 7150
	0    -1   -1   0   
$EndComp
Wire Wire Line
	2050 6700 2050 6600
Connection ~ 2050 6600
Wire Wire Line
	2050 6600 1650 6600
Wire Wire Line
	2050 7300 2050 7500
Connection ~ 2050 7500
Wire Wire Line
	2050 7500 3000 7500
Wire Wire Line
	7550 1200 7550 1350
Wire Wire Line
	7550 1200 8900 1200
Connection ~ 7550 1350
Wire Wire Line
	3150 6600 2800 6600
$Comp
L power:GNDD #PWR01
U 1 1 60467470
P 2800 6900
F 0 "#PWR01" H 2800 6650 50  0001 C CNN
F 1 "GNDD" H 2804 6745 50  0000 C CNN
F 2 "" H 2800 6900 50  0001 C CNN
F 3 "" H 2800 6900 50  0001 C CNN
	1    2800 6900
	1    0    0    -1  
$EndComp
$Comp
L Device:C C1
U 1 1 6046747B
P 2800 6750
F 0 "C1" H 2825 6850 50  0000 L CNN
F 1 "0.1u" H 2825 6650 50  0000 L CNN
F 2 "Capacitor_SMD:C_0805_2012Metric_Pad1.18x1.45mm_HandSolder" H 2838 6600 50  0001 C CNN
F 3 "" H 2800 6750 50  0001 C CNN
F 4 "C49678" H 2800 6750 60  0001 C CNN "LCSC"
	1    2800 6750
	-1   0    0    1   
$EndComp
Connection ~ 2800 6600
Wire Wire Line
	2800 6600 2400 6600
Connection ~ 2400 6600
Wire Wire Line
	2400 6050 2400 6600
$Comp
L Device:C C13
U 1 1 5EF169B4
P 1650 7050
F 0 "C13" H 1675 7150 50  0000 L CNN
F 1 "10u" H 1675 6950 50  0000 L CNN
F 2 "Capacitor_SMD:C_0805_2012Metric_Pad1.18x1.45mm_HandSolder" H 1688 6900 50  0001 C CNN
F 3 "" H 1650 7050 50  0001 C CNN
F 4 "C15850" H 1650 7050 60  0001 C CNN "LCSC"
	1    1650 7050
	-1   0    0    1   
$EndComp
$Comp
L power:GNDD #PWR0101
U 1 1 605F5AAD
P 2800 6350
F 0 "#PWR0101" H 2800 6100 50  0001 C CNN
F 1 "GNDD" H 2804 6195 50  0000 C CNN
F 2 "" H 2800 6350 50  0001 C CNN
F 3 "" H 2800 6350 50  0001 C CNN
	1    2800 6350
	1    0    0    -1  
$EndComp
$Comp
L Device:C C2
U 1 1 605F5AB4
P 2800 6200
F 0 "C2" H 2825 6300 50  0000 L CNN
F 1 "0.1u" H 2825 6100 50  0000 L CNN
F 2 "Capacitor_SMD:C_0805_2012Metric_Pad1.18x1.45mm_HandSolder" H 2838 6050 50  0001 C CNN
F 3 "" H 2800 6200 50  0001 C CNN
F 4 "C49678" H 2800 6200 60  0001 C CNN "LCSC"
	1    2800 6200
	-1   0    0    1   
$EndComp
Connection ~ 2800 6050
Wire Wire Line
	2800 6050 2400 6050
$EndSCHEMATC
