G04 #@! TF.GenerationSoftware,KiCad,Pcbnew,5.1.9+dfsg1-1*
G04 #@! TF.CreationDate,2021-04-12T20:51:15-05:00*
G04 #@! TF.ProjectId,CorePill,436f7265-5069-46c6-9c2e-6b696361645f,1.0.1*
G04 #@! TF.SameCoordinates,Original*
G04 #@! TF.FileFunction,Legend,Top*
G04 #@! TF.FilePolarity,Positive*
%FSLAX46Y46*%
G04 Gerber Fmt 4.6, Leading zero omitted, Abs format (unit mm)*
G04 Created by KiCad (PCBNEW 5.1.9+dfsg1-1) date 2021-04-12 20:51:15*
%MOMM*%
%LPD*%
G01*
G04 APERTURE LIST*
%ADD10C,0.150000*%
%ADD11C,0.120000*%
G04 APERTURE END LIST*
D10*
X64567014Y-84589880D02*
X64567014Y-83589880D01*
X64947966Y-83589880D01*
X65043204Y-83637500D01*
X65090823Y-83685119D01*
X65138442Y-83780357D01*
X65138442Y-83923214D01*
X65090823Y-84018452D01*
X65043204Y-84066071D01*
X64947966Y-84113690D01*
X64567014Y-84113690D01*
X66138442Y-84494642D02*
X66090823Y-84542261D01*
X65947966Y-84589880D01*
X65852728Y-84589880D01*
X65709871Y-84542261D01*
X65614633Y-84447023D01*
X65567014Y-84351785D01*
X65519395Y-84161309D01*
X65519395Y-84018452D01*
X65567014Y-83827976D01*
X65614633Y-83732738D01*
X65709871Y-83637500D01*
X65852728Y-83589880D01*
X65947966Y-83589880D01*
X66090823Y-83637500D01*
X66138442Y-83685119D01*
X67090823Y-84589880D02*
X66519395Y-84589880D01*
X66805109Y-84589880D02*
X66805109Y-83589880D01*
X66709871Y-83732738D01*
X66614633Y-83827976D01*
X66519395Y-83875595D01*
X67424157Y-83589880D02*
X68043204Y-83589880D01*
X67709871Y-83970833D01*
X67852728Y-83970833D01*
X67947966Y-84018452D01*
X67995585Y-84066071D01*
X68043204Y-84161309D01*
X68043204Y-84399404D01*
X67995585Y-84494642D01*
X67947966Y-84542261D01*
X67852728Y-84589880D01*
X67567014Y-84589880D01*
X67471776Y-84542261D01*
X67424157Y-84494642D01*
X69773966Y-84589880D02*
X69773966Y-83589880D01*
X70154919Y-83589880D01*
X70250157Y-83637500D01*
X70297776Y-83685119D01*
X70345395Y-83780357D01*
X70345395Y-83923214D01*
X70297776Y-84018452D01*
X70250157Y-84066071D01*
X70154919Y-84113690D01*
X69773966Y-84113690D01*
X70678728Y-83589880D02*
X70916823Y-84589880D01*
X71107300Y-83875595D01*
X71297776Y-84589880D01*
X71535871Y-83589880D01*
X72488252Y-84589880D02*
X72154919Y-84113690D01*
X71916823Y-84589880D02*
X71916823Y-83589880D01*
X72297776Y-83589880D01*
X72393014Y-83637500D01*
X72440633Y-83685119D01*
X72488252Y-83780357D01*
X72488252Y-83923214D01*
X72440633Y-84018452D01*
X72393014Y-84066071D01*
X72297776Y-84113690D01*
X71916823Y-84113690D01*
X59335642Y-39699742D02*
X59383261Y-39735457D01*
X59430880Y-39842600D01*
X59430880Y-39914028D01*
X59383261Y-40021171D01*
X59288023Y-40092600D01*
X59192785Y-40128314D01*
X59002309Y-40164028D01*
X58859452Y-40164028D01*
X58668976Y-40128314D01*
X58573738Y-40092600D01*
X58478500Y-40021171D01*
X58430880Y-39914028D01*
X58430880Y-39842600D01*
X58478500Y-39735457D01*
X58526119Y-39699742D01*
X59430880Y-38985457D02*
X59430880Y-39414028D01*
X59430880Y-39199742D02*
X58430880Y-39199742D01*
X58573738Y-39271171D01*
X58668976Y-39342600D01*
X58716595Y-39414028D01*
X58764214Y-38342600D02*
X59430880Y-38342600D01*
X58383261Y-38521171D02*
X59097547Y-38699742D01*
X59097547Y-38235457D01*
X59335642Y-42341342D02*
X59383261Y-42377057D01*
X59430880Y-42484200D01*
X59430880Y-42555628D01*
X59383261Y-42662771D01*
X59288023Y-42734200D01*
X59192785Y-42769914D01*
X59002309Y-42805628D01*
X58859452Y-42805628D01*
X58668976Y-42769914D01*
X58573738Y-42734200D01*
X58478500Y-42662771D01*
X58430880Y-42555628D01*
X58430880Y-42484200D01*
X58478500Y-42377057D01*
X58526119Y-42341342D01*
X59430880Y-41627057D02*
X59430880Y-42055628D01*
X59430880Y-41841342D02*
X58430880Y-41841342D01*
X58573738Y-41912771D01*
X58668976Y-41984200D01*
X58716595Y-42055628D01*
X58430880Y-40948485D02*
X58430880Y-41305628D01*
X58907071Y-41341342D01*
X58859452Y-41305628D01*
X58811833Y-41234200D01*
X58811833Y-41055628D01*
X58859452Y-40984200D01*
X58907071Y-40948485D01*
X59002309Y-40912771D01*
X59240404Y-40912771D01*
X59335642Y-40948485D01*
X59383261Y-40984200D01*
X59430880Y-41055628D01*
X59430880Y-41234200D01*
X59383261Y-41305628D01*
X59335642Y-41341342D01*
X72693238Y-64604571D02*
X72836095Y-64652190D01*
X72883714Y-64699809D01*
X72931333Y-64795047D01*
X72931333Y-64937904D01*
X72883714Y-65033142D01*
X72836095Y-65080761D01*
X72740857Y-65128380D01*
X72359904Y-65128380D01*
X72359904Y-64128380D01*
X72693238Y-64128380D01*
X72788476Y-64176000D01*
X72836095Y-64223619D01*
X72883714Y-64318857D01*
X72883714Y-64414095D01*
X72836095Y-64509333D01*
X72788476Y-64556952D01*
X72693238Y-64604571D01*
X72359904Y-64604571D01*
X73883714Y-65128380D02*
X73312285Y-65128380D01*
X73598000Y-65128380D02*
X73598000Y-64128380D01*
X73502761Y-64271238D01*
X73407523Y-64366476D01*
X73312285Y-64414095D01*
X72693238Y-67404571D02*
X72836095Y-67452190D01*
X72883714Y-67499809D01*
X72931333Y-67595047D01*
X72931333Y-67737904D01*
X72883714Y-67833142D01*
X72836095Y-67880761D01*
X72740857Y-67928380D01*
X72359904Y-67928380D01*
X72359904Y-66928380D01*
X72693238Y-66928380D01*
X72788476Y-66976000D01*
X72836095Y-67023619D01*
X72883714Y-67118857D01*
X72883714Y-67214095D01*
X72836095Y-67309333D01*
X72788476Y-67356952D01*
X72693238Y-67404571D01*
X72359904Y-67404571D01*
X73550380Y-66928380D02*
X73645619Y-66928380D01*
X73740857Y-66976000D01*
X73788476Y-67023619D01*
X73836095Y-67118857D01*
X73883714Y-67309333D01*
X73883714Y-67547428D01*
X73836095Y-67737904D01*
X73788476Y-67833142D01*
X73740857Y-67880761D01*
X73645619Y-67928380D01*
X73550380Y-67928380D01*
X73455142Y-67880761D01*
X73407523Y-67833142D01*
X73359904Y-67737904D01*
X73312285Y-67547428D01*
X73312285Y-67309333D01*
X73359904Y-67118857D01*
X73407523Y-67023619D01*
X73455142Y-66976000D01*
X73550380Y-66928380D01*
X70507523Y-63003380D02*
X70031333Y-63003380D01*
X70031333Y-62003380D01*
X64787285Y-62978380D02*
X64787285Y-61978380D01*
X64787285Y-62454571D02*
X65358714Y-62454571D01*
X65358714Y-62978380D02*
X65358714Y-61978380D01*
X66774285Y-32107142D02*
X66731428Y-32154761D01*
X66602857Y-32202380D01*
X66517142Y-32202380D01*
X66388571Y-32154761D01*
X66302857Y-32059523D01*
X66260000Y-31964285D01*
X66217142Y-31773809D01*
X66217142Y-31630952D01*
X66260000Y-31440476D01*
X66302857Y-31345238D01*
X66388571Y-31250000D01*
X66517142Y-31202380D01*
X66602857Y-31202380D01*
X66731428Y-31250000D01*
X66774285Y-31297619D01*
X67588571Y-32202380D02*
X67160000Y-32202380D01*
X67160000Y-31202380D01*
X67888571Y-32202380D02*
X67888571Y-31202380D01*
X68402857Y-32202380D02*
X68017142Y-31630952D01*
X68402857Y-31202380D02*
X67888571Y-31773809D01*
X69436571Y-32202380D02*
X69436571Y-31202380D01*
X69650857Y-31202380D01*
X69779428Y-31250000D01*
X69865142Y-31345238D01*
X69908000Y-31440476D01*
X69950857Y-31630952D01*
X69950857Y-31773809D01*
X69908000Y-31964285D01*
X69865142Y-32059523D01*
X69779428Y-32154761D01*
X69650857Y-32202380D01*
X69436571Y-32202380D01*
X70336571Y-32202380D02*
X70336571Y-31202380D01*
X70936571Y-31202380D02*
X71108000Y-31202380D01*
X71193714Y-31250000D01*
X71279428Y-31345238D01*
X71322285Y-31535714D01*
X71322285Y-31869047D01*
X71279428Y-32059523D01*
X71193714Y-32154761D01*
X71108000Y-32202380D01*
X70936571Y-32202380D01*
X70850857Y-32154761D01*
X70765142Y-32059523D01*
X70722285Y-31869047D01*
X70722285Y-31535714D01*
X70765142Y-31345238D01*
X70850857Y-31250000D01*
X70936571Y-31202380D01*
X63576285Y-31250000D02*
X63490571Y-31202380D01*
X63362000Y-31202380D01*
X63233428Y-31250000D01*
X63147714Y-31345238D01*
X63104857Y-31440476D01*
X63062000Y-31630952D01*
X63062000Y-31773809D01*
X63104857Y-31964285D01*
X63147714Y-32059523D01*
X63233428Y-32154761D01*
X63362000Y-32202380D01*
X63447714Y-32202380D01*
X63576285Y-32154761D01*
X63619142Y-32107142D01*
X63619142Y-31773809D01*
X63447714Y-31773809D01*
X64004857Y-32202380D02*
X64004857Y-31202380D01*
X64519142Y-32202380D01*
X64519142Y-31202380D01*
X64947714Y-32202380D02*
X64947714Y-31202380D01*
X65162000Y-31202380D01*
X65290571Y-31250000D01*
X65376285Y-31345238D01*
X65419142Y-31440476D01*
X65462000Y-31630952D01*
X65462000Y-31773809D01*
X65419142Y-31964285D01*
X65376285Y-32059523D01*
X65290571Y-32154761D01*
X65162000Y-32202380D01*
X64947714Y-32202380D01*
X72108071Y-31265880D02*
X72665214Y-31265880D01*
X72365214Y-31646833D01*
X72493785Y-31646833D01*
X72579500Y-31694452D01*
X72622357Y-31742071D01*
X72665214Y-31837309D01*
X72665214Y-32075404D01*
X72622357Y-32170642D01*
X72579500Y-32218261D01*
X72493785Y-32265880D01*
X72236642Y-32265880D01*
X72150928Y-32218261D01*
X72108071Y-32170642D01*
X72922357Y-31265880D02*
X73222357Y-32265880D01*
X73522357Y-31265880D01*
X73736642Y-31265880D02*
X74293785Y-31265880D01*
X73993785Y-31646833D01*
X74122357Y-31646833D01*
X74208071Y-31694452D01*
X74250928Y-31742071D01*
X74293785Y-31837309D01*
X74293785Y-32075404D01*
X74250928Y-32170642D01*
X74208071Y-32218261D01*
X74122357Y-32265880D01*
X73865214Y-32265880D01*
X73779500Y-32218261D01*
X73736642Y-32170642D01*
X79033619Y-33234428D02*
X79033619Y-33698714D01*
X78652666Y-33448714D01*
X78652666Y-33555857D01*
X78605047Y-33627285D01*
X78557428Y-33663000D01*
X78462190Y-33698714D01*
X78224095Y-33698714D01*
X78128857Y-33663000D01*
X78081238Y-33627285D01*
X78033619Y-33555857D01*
X78033619Y-33341571D01*
X78081238Y-33270142D01*
X78128857Y-33234428D01*
X79033619Y-33913000D02*
X78033619Y-34163000D01*
X79033619Y-34413000D01*
X79033619Y-34591571D02*
X79033619Y-35055857D01*
X78652666Y-34805857D01*
X78652666Y-34913000D01*
X78605047Y-34984428D01*
X78557428Y-35020142D01*
X78462190Y-35055857D01*
X78224095Y-35055857D01*
X78128857Y-35020142D01*
X78081238Y-34984428D01*
X78033619Y-34913000D01*
X78033619Y-34698714D01*
X78081238Y-34627285D01*
X78128857Y-34591571D01*
X78986000Y-36131571D02*
X79033619Y-36060142D01*
X79033619Y-35953000D01*
X78986000Y-35845857D01*
X78890761Y-35774428D01*
X78795523Y-35738714D01*
X78605047Y-35703000D01*
X78462190Y-35703000D01*
X78271714Y-35738714D01*
X78176476Y-35774428D01*
X78081238Y-35845857D01*
X78033619Y-35953000D01*
X78033619Y-36024428D01*
X78081238Y-36131571D01*
X78128857Y-36167285D01*
X78462190Y-36167285D01*
X78462190Y-36024428D01*
X78033619Y-36488714D02*
X79033619Y-36488714D01*
X78033619Y-36917285D01*
X79033619Y-36917285D01*
X78033619Y-37274428D02*
X79033619Y-37274428D01*
X79033619Y-37453000D01*
X78986000Y-37560142D01*
X78890761Y-37631571D01*
X78795523Y-37667285D01*
X78605047Y-37703000D01*
X78462190Y-37703000D01*
X78271714Y-37667285D01*
X78176476Y-37631571D01*
X78081238Y-37560142D01*
X78033619Y-37453000D01*
X78033619Y-37274428D01*
X78700285Y-38760857D02*
X78033619Y-38760857D01*
X78605047Y-38760857D02*
X78652666Y-38796571D01*
X78700285Y-38868000D01*
X78700285Y-38975142D01*
X78652666Y-39046571D01*
X78557428Y-39082285D01*
X78033619Y-39082285D01*
X78081238Y-39760857D02*
X78033619Y-39689428D01*
X78033619Y-39546571D01*
X78081238Y-39475142D01*
X78128857Y-39439428D01*
X78224095Y-39403714D01*
X78509809Y-39403714D01*
X78605047Y-39439428D01*
X78652666Y-39475142D01*
X78700285Y-39546571D01*
X78700285Y-39689428D01*
X78652666Y-39760857D01*
X78033619Y-40854428D02*
X79033619Y-40854428D01*
X79033619Y-41140142D01*
X78986000Y-41211571D01*
X78938380Y-41247285D01*
X78843142Y-41283000D01*
X78700285Y-41283000D01*
X78605047Y-41247285D01*
X78557428Y-41211571D01*
X78509809Y-41140142D01*
X78509809Y-40854428D01*
X78557428Y-41854428D02*
X78509809Y-41961571D01*
X78462190Y-41997285D01*
X78366952Y-42033000D01*
X78224095Y-42033000D01*
X78128857Y-41997285D01*
X78081238Y-41961571D01*
X78033619Y-41890142D01*
X78033619Y-41604428D01*
X79033619Y-41604428D01*
X79033619Y-41854428D01*
X78986000Y-41925857D01*
X78938380Y-41961571D01*
X78843142Y-41997285D01*
X78747904Y-41997285D01*
X78652666Y-41961571D01*
X78605047Y-41925857D01*
X78557428Y-41854428D01*
X78557428Y-41604428D01*
X78033619Y-42390142D02*
X78033619Y-42533000D01*
X78081238Y-42604428D01*
X78128857Y-42640142D01*
X78271714Y-42711571D01*
X78462190Y-42747285D01*
X78843142Y-42747285D01*
X78938380Y-42711571D01*
X78986000Y-42675857D01*
X79033619Y-42604428D01*
X79033619Y-42461571D01*
X78986000Y-42390142D01*
X78938380Y-42354428D01*
X78843142Y-42318714D01*
X78605047Y-42318714D01*
X78509809Y-42354428D01*
X78462190Y-42390142D01*
X78414571Y-42461571D01*
X78414571Y-42604428D01*
X78462190Y-42675857D01*
X78509809Y-42711571D01*
X78605047Y-42747285D01*
X78033619Y-43394428D02*
X79033619Y-43394428D01*
X79033619Y-43680142D01*
X78986000Y-43751571D01*
X78938380Y-43787285D01*
X78843142Y-43823000D01*
X78700285Y-43823000D01*
X78605047Y-43787285D01*
X78557428Y-43751571D01*
X78509809Y-43680142D01*
X78509809Y-43394428D01*
X78557428Y-44394428D02*
X78509809Y-44501571D01*
X78462190Y-44537285D01*
X78366952Y-44573000D01*
X78224095Y-44573000D01*
X78128857Y-44537285D01*
X78081238Y-44501571D01*
X78033619Y-44430142D01*
X78033619Y-44144428D01*
X79033619Y-44144428D01*
X79033619Y-44394428D01*
X78986000Y-44465857D01*
X78938380Y-44501571D01*
X78843142Y-44537285D01*
X78747904Y-44537285D01*
X78652666Y-44501571D01*
X78605047Y-44465857D01*
X78557428Y-44394428D01*
X78557428Y-44144428D01*
X78605047Y-45001571D02*
X78652666Y-44930142D01*
X78700285Y-44894428D01*
X78795523Y-44858714D01*
X78843142Y-44858714D01*
X78938380Y-44894428D01*
X78986000Y-44930142D01*
X79033619Y-45001571D01*
X79033619Y-45144428D01*
X78986000Y-45215857D01*
X78938380Y-45251571D01*
X78843142Y-45287285D01*
X78795523Y-45287285D01*
X78700285Y-45251571D01*
X78652666Y-45215857D01*
X78605047Y-45144428D01*
X78605047Y-45001571D01*
X78557428Y-44930142D01*
X78509809Y-44894428D01*
X78414571Y-44858714D01*
X78224095Y-44858714D01*
X78128857Y-44894428D01*
X78081238Y-44930142D01*
X78033619Y-45001571D01*
X78033619Y-45144428D01*
X78081238Y-45215857D01*
X78128857Y-45251571D01*
X78224095Y-45287285D01*
X78414571Y-45287285D01*
X78509809Y-45251571D01*
X78557428Y-45215857D01*
X78605047Y-45144428D01*
X78033619Y-45934428D02*
X79033619Y-45934428D01*
X79033619Y-46220142D01*
X78986000Y-46291571D01*
X78938380Y-46327285D01*
X78843142Y-46363000D01*
X78700285Y-46363000D01*
X78605047Y-46327285D01*
X78557428Y-46291571D01*
X78509809Y-46220142D01*
X78509809Y-45934428D01*
X78557428Y-46934428D02*
X78509809Y-47041571D01*
X78462190Y-47077285D01*
X78366952Y-47113000D01*
X78224095Y-47113000D01*
X78128857Y-47077285D01*
X78081238Y-47041571D01*
X78033619Y-46970142D01*
X78033619Y-46684428D01*
X79033619Y-46684428D01*
X79033619Y-46934428D01*
X78986000Y-47005857D01*
X78938380Y-47041571D01*
X78843142Y-47077285D01*
X78747904Y-47077285D01*
X78652666Y-47041571D01*
X78605047Y-47005857D01*
X78557428Y-46934428D01*
X78557428Y-46684428D01*
X79033619Y-47363000D02*
X79033619Y-47863000D01*
X78033619Y-47541571D01*
X78033619Y-48474428D02*
X79033619Y-48474428D01*
X79033619Y-48760142D01*
X78986000Y-48831571D01*
X78938380Y-48867285D01*
X78843142Y-48903000D01*
X78700285Y-48903000D01*
X78605047Y-48867285D01*
X78557428Y-48831571D01*
X78509809Y-48760142D01*
X78509809Y-48474428D01*
X78557428Y-49474428D02*
X78509809Y-49581571D01*
X78462190Y-49617285D01*
X78366952Y-49653000D01*
X78224095Y-49653000D01*
X78128857Y-49617285D01*
X78081238Y-49581571D01*
X78033619Y-49510142D01*
X78033619Y-49224428D01*
X79033619Y-49224428D01*
X79033619Y-49474428D01*
X78986000Y-49545857D01*
X78938380Y-49581571D01*
X78843142Y-49617285D01*
X78747904Y-49617285D01*
X78652666Y-49581571D01*
X78605047Y-49545857D01*
X78557428Y-49474428D01*
X78557428Y-49224428D01*
X79033619Y-50295857D02*
X79033619Y-50153000D01*
X78986000Y-50081571D01*
X78938380Y-50045857D01*
X78795523Y-49974428D01*
X78605047Y-49938714D01*
X78224095Y-49938714D01*
X78128857Y-49974428D01*
X78081238Y-50010142D01*
X78033619Y-50081571D01*
X78033619Y-50224428D01*
X78081238Y-50295857D01*
X78128857Y-50331571D01*
X78224095Y-50367285D01*
X78462190Y-50367285D01*
X78557428Y-50331571D01*
X78605047Y-50295857D01*
X78652666Y-50224428D01*
X78652666Y-50081571D01*
X78605047Y-50010142D01*
X78557428Y-49974428D01*
X78462190Y-49938714D01*
X78033619Y-50997428D02*
X79033619Y-50997428D01*
X79033619Y-51283142D01*
X78986000Y-51354571D01*
X78938380Y-51390285D01*
X78843142Y-51426000D01*
X78700285Y-51426000D01*
X78605047Y-51390285D01*
X78557428Y-51354571D01*
X78509809Y-51283142D01*
X78509809Y-50997428D01*
X78557428Y-51997428D02*
X78509809Y-52104571D01*
X78462190Y-52140285D01*
X78366952Y-52176000D01*
X78224095Y-52176000D01*
X78128857Y-52140285D01*
X78081238Y-52104571D01*
X78033619Y-52033142D01*
X78033619Y-51747428D01*
X79033619Y-51747428D01*
X79033619Y-51997428D01*
X78986000Y-52068857D01*
X78938380Y-52104571D01*
X78843142Y-52140285D01*
X78747904Y-52140285D01*
X78652666Y-52104571D01*
X78605047Y-52068857D01*
X78557428Y-51997428D01*
X78557428Y-51747428D01*
X79033619Y-52854571D02*
X79033619Y-52497428D01*
X78557428Y-52461714D01*
X78605047Y-52497428D01*
X78652666Y-52568857D01*
X78652666Y-52747428D01*
X78605047Y-52818857D01*
X78557428Y-52854571D01*
X78462190Y-52890285D01*
X78224095Y-52890285D01*
X78128857Y-52854571D01*
X78081238Y-52818857D01*
X78033619Y-52747428D01*
X78033619Y-52568857D01*
X78081238Y-52497428D01*
X78128857Y-52461714D01*
X78033619Y-53537428D02*
X79033619Y-53537428D01*
X79033619Y-53823142D01*
X78986000Y-53894571D01*
X78938380Y-53930285D01*
X78843142Y-53966000D01*
X78700285Y-53966000D01*
X78605047Y-53930285D01*
X78557428Y-53894571D01*
X78509809Y-53823142D01*
X78509809Y-53537428D01*
X78557428Y-54537428D02*
X78509809Y-54644571D01*
X78462190Y-54680285D01*
X78366952Y-54716000D01*
X78224095Y-54716000D01*
X78128857Y-54680285D01*
X78081238Y-54644571D01*
X78033619Y-54573142D01*
X78033619Y-54287428D01*
X79033619Y-54287428D01*
X79033619Y-54537428D01*
X78986000Y-54608857D01*
X78938380Y-54644571D01*
X78843142Y-54680285D01*
X78747904Y-54680285D01*
X78652666Y-54644571D01*
X78605047Y-54608857D01*
X78557428Y-54537428D01*
X78557428Y-54287428D01*
X78700285Y-55358857D02*
X78033619Y-55358857D01*
X79081238Y-55180285D02*
X78366952Y-55001714D01*
X78366952Y-55466000D01*
X78033619Y-56094428D02*
X79033619Y-56094428D01*
X79033619Y-56380142D01*
X78986000Y-56451571D01*
X78938380Y-56487285D01*
X78843142Y-56523000D01*
X78700285Y-56523000D01*
X78605047Y-56487285D01*
X78557428Y-56451571D01*
X78509809Y-56380142D01*
X78509809Y-56094428D01*
X78557428Y-57094428D02*
X78509809Y-57201571D01*
X78462190Y-57237285D01*
X78366952Y-57273000D01*
X78224095Y-57273000D01*
X78128857Y-57237285D01*
X78081238Y-57201571D01*
X78033619Y-57130142D01*
X78033619Y-56844428D01*
X79033619Y-56844428D01*
X79033619Y-57094428D01*
X78986000Y-57165857D01*
X78938380Y-57201571D01*
X78843142Y-57237285D01*
X78747904Y-57237285D01*
X78652666Y-57201571D01*
X78605047Y-57165857D01*
X78557428Y-57094428D01*
X78557428Y-56844428D01*
X79033619Y-57523000D02*
X79033619Y-57987285D01*
X78652666Y-57737285D01*
X78652666Y-57844428D01*
X78605047Y-57915857D01*
X78557428Y-57951571D01*
X78462190Y-57987285D01*
X78224095Y-57987285D01*
X78128857Y-57951571D01*
X78081238Y-57915857D01*
X78033619Y-57844428D01*
X78033619Y-57630142D01*
X78081238Y-57558714D01*
X78128857Y-57523000D01*
X78319333Y-58670142D02*
X78319333Y-59027285D01*
X78033619Y-58598714D02*
X79033619Y-58848714D01*
X78033619Y-59098714D01*
X78033619Y-59741571D02*
X78033619Y-59313000D01*
X78033619Y-59527285D02*
X79033619Y-59527285D01*
X78890761Y-59455857D01*
X78795523Y-59384428D01*
X78747904Y-59313000D01*
X79033619Y-60420142D02*
X79033619Y-60063000D01*
X78557428Y-60027285D01*
X78605047Y-60063000D01*
X78652666Y-60134428D01*
X78652666Y-60313000D01*
X78605047Y-60384428D01*
X78557428Y-60420142D01*
X78462190Y-60455857D01*
X78224095Y-60455857D01*
X78128857Y-60420142D01*
X78081238Y-60384428D01*
X78033619Y-60313000D01*
X78033619Y-60134428D01*
X78081238Y-60063000D01*
X78128857Y-60027285D01*
X78319333Y-61210142D02*
X78319333Y-61567285D01*
X78033619Y-61138714D02*
X79033619Y-61388714D01*
X78033619Y-61638714D01*
X78033619Y-62281571D02*
X78033619Y-61853000D01*
X78033619Y-62067285D02*
X79033619Y-62067285D01*
X78890761Y-61995857D01*
X78795523Y-61924428D01*
X78747904Y-61853000D01*
X78938380Y-62567285D02*
X78986000Y-62603000D01*
X79033619Y-62674428D01*
X79033619Y-62853000D01*
X78986000Y-62924428D01*
X78938380Y-62960142D01*
X78843142Y-62995857D01*
X78747904Y-62995857D01*
X78605047Y-62960142D01*
X78033619Y-62531571D01*
X78033619Y-62995857D01*
X78319333Y-63750142D02*
X78319333Y-64107285D01*
X78033619Y-63678714D02*
X79033619Y-63928714D01*
X78033619Y-64178714D01*
X78033619Y-64821571D02*
X78033619Y-64393000D01*
X78033619Y-64607285D02*
X79033619Y-64607285D01*
X78890761Y-64535857D01*
X78795523Y-64464428D01*
X78747904Y-64393000D01*
X78033619Y-65535857D02*
X78033619Y-65107285D01*
X78033619Y-65321571D02*
X79033619Y-65321571D01*
X78890761Y-65250142D01*
X78795523Y-65178714D01*
X78747904Y-65107285D01*
X78319333Y-66290142D02*
X78319333Y-66647285D01*
X78033619Y-66218714D02*
X79033619Y-66468714D01*
X78033619Y-66718714D01*
X78033619Y-67361571D02*
X78033619Y-66933000D01*
X78033619Y-67147285D02*
X79033619Y-67147285D01*
X78890761Y-67075857D01*
X78795523Y-67004428D01*
X78747904Y-66933000D01*
X79033619Y-67825857D02*
X79033619Y-67897285D01*
X78986000Y-67968714D01*
X78938380Y-68004428D01*
X78843142Y-68040142D01*
X78652666Y-68075857D01*
X78414571Y-68075857D01*
X78224095Y-68040142D01*
X78128857Y-68004428D01*
X78081238Y-67968714D01*
X78033619Y-67897285D01*
X78033619Y-67825857D01*
X78081238Y-67754428D01*
X78128857Y-67718714D01*
X78224095Y-67683000D01*
X78414571Y-67647285D01*
X78652666Y-67647285D01*
X78843142Y-67683000D01*
X78938380Y-67718714D01*
X78986000Y-67754428D01*
X79033619Y-67825857D01*
X78319333Y-69187285D02*
X78319333Y-69544428D01*
X78033619Y-69115857D02*
X79033619Y-69365857D01*
X78033619Y-69615857D01*
X78033619Y-69901571D02*
X78033619Y-70044428D01*
X78081238Y-70115857D01*
X78128857Y-70151571D01*
X78271714Y-70223000D01*
X78462190Y-70258714D01*
X78843142Y-70258714D01*
X78938380Y-70223000D01*
X78986000Y-70187285D01*
X79033619Y-70115857D01*
X79033619Y-69973000D01*
X78986000Y-69901571D01*
X78938380Y-69865857D01*
X78843142Y-69830142D01*
X78605047Y-69830142D01*
X78509809Y-69865857D01*
X78462190Y-69901571D01*
X78414571Y-69973000D01*
X78414571Y-70115857D01*
X78462190Y-70187285D01*
X78509809Y-70223000D01*
X78605047Y-70258714D01*
X78319333Y-71727285D02*
X78319333Y-72084428D01*
X78033619Y-71655857D02*
X79033619Y-71905857D01*
X78033619Y-72155857D01*
X78605047Y-72513000D02*
X78652666Y-72441571D01*
X78700285Y-72405857D01*
X78795523Y-72370142D01*
X78843142Y-72370142D01*
X78938380Y-72405857D01*
X78986000Y-72441571D01*
X79033619Y-72513000D01*
X79033619Y-72655857D01*
X78986000Y-72727285D01*
X78938380Y-72763000D01*
X78843142Y-72798714D01*
X78795523Y-72798714D01*
X78700285Y-72763000D01*
X78652666Y-72727285D01*
X78605047Y-72655857D01*
X78605047Y-72513000D01*
X78557428Y-72441571D01*
X78509809Y-72405857D01*
X78414571Y-72370142D01*
X78224095Y-72370142D01*
X78128857Y-72405857D01*
X78081238Y-72441571D01*
X78033619Y-72513000D01*
X78033619Y-72655857D01*
X78081238Y-72727285D01*
X78128857Y-72763000D01*
X78224095Y-72798714D01*
X78414571Y-72798714D01*
X78509809Y-72763000D01*
X78557428Y-72727285D01*
X78605047Y-72655857D01*
X78557428Y-74142285D02*
X78509809Y-74249428D01*
X78462190Y-74285142D01*
X78366952Y-74320857D01*
X78224095Y-74320857D01*
X78128857Y-74285142D01*
X78081238Y-74249428D01*
X78033619Y-74178000D01*
X78033619Y-73892285D01*
X79033619Y-73892285D01*
X79033619Y-74142285D01*
X78986000Y-74213714D01*
X78938380Y-74249428D01*
X78843142Y-74285142D01*
X78747904Y-74285142D01*
X78652666Y-74249428D01*
X78605047Y-74213714D01*
X78557428Y-74142285D01*
X78557428Y-73892285D01*
X78033619Y-75035142D02*
X78033619Y-74606571D01*
X78033619Y-74820857D02*
X79033619Y-74820857D01*
X78890761Y-74749428D01*
X78795523Y-74678000D01*
X78747904Y-74606571D01*
X79033619Y-75713714D02*
X79033619Y-75356571D01*
X78557428Y-75320857D01*
X78605047Y-75356571D01*
X78652666Y-75428000D01*
X78652666Y-75606571D01*
X78605047Y-75678000D01*
X78557428Y-75713714D01*
X78462190Y-75749428D01*
X78224095Y-75749428D01*
X78128857Y-75713714D01*
X78081238Y-75678000D01*
X78033619Y-75606571D01*
X78033619Y-75428000D01*
X78081238Y-75356571D01*
X78128857Y-75320857D01*
X78557428Y-76682285D02*
X78509809Y-76789428D01*
X78462190Y-76825142D01*
X78366952Y-76860857D01*
X78224095Y-76860857D01*
X78128857Y-76825142D01*
X78081238Y-76789428D01*
X78033619Y-76718000D01*
X78033619Y-76432285D01*
X79033619Y-76432285D01*
X79033619Y-76682285D01*
X78986000Y-76753714D01*
X78938380Y-76789428D01*
X78843142Y-76825142D01*
X78747904Y-76825142D01*
X78652666Y-76789428D01*
X78605047Y-76753714D01*
X78557428Y-76682285D01*
X78557428Y-76432285D01*
X78033619Y-77575142D02*
X78033619Y-77146571D01*
X78033619Y-77360857D02*
X79033619Y-77360857D01*
X78890761Y-77289428D01*
X78795523Y-77218000D01*
X78747904Y-77146571D01*
X78700285Y-78218000D02*
X78033619Y-78218000D01*
X79081238Y-78039428D02*
X78366952Y-77860857D01*
X78366952Y-78325142D01*
X78557428Y-79222285D02*
X78509809Y-79329428D01*
X78462190Y-79365142D01*
X78366952Y-79400857D01*
X78224095Y-79400857D01*
X78128857Y-79365142D01*
X78081238Y-79329428D01*
X78033619Y-79258000D01*
X78033619Y-78972285D01*
X79033619Y-78972285D01*
X79033619Y-79222285D01*
X78986000Y-79293714D01*
X78938380Y-79329428D01*
X78843142Y-79365142D01*
X78747904Y-79365142D01*
X78652666Y-79329428D01*
X78605047Y-79293714D01*
X78557428Y-79222285D01*
X78557428Y-78972285D01*
X78033619Y-80115142D02*
X78033619Y-79686571D01*
X78033619Y-79900857D02*
X79033619Y-79900857D01*
X78890761Y-79829428D01*
X78795523Y-79758000D01*
X78747904Y-79686571D01*
X79033619Y-80365142D02*
X79033619Y-80829428D01*
X78652666Y-80579428D01*
X78652666Y-80686571D01*
X78605047Y-80758000D01*
X78557428Y-80793714D01*
X78462190Y-80829428D01*
X78224095Y-80829428D01*
X78128857Y-80793714D01*
X78081238Y-80758000D01*
X78033619Y-80686571D01*
X78033619Y-80472285D01*
X78081238Y-80400857D01*
X78128857Y-80365142D01*
X78557428Y-81762285D02*
X78509809Y-81869428D01*
X78462190Y-81905142D01*
X78366952Y-81940857D01*
X78224095Y-81940857D01*
X78128857Y-81905142D01*
X78081238Y-81869428D01*
X78033619Y-81798000D01*
X78033619Y-81512285D01*
X79033619Y-81512285D01*
X79033619Y-81762285D01*
X78986000Y-81833714D01*
X78938380Y-81869428D01*
X78843142Y-81905142D01*
X78747904Y-81905142D01*
X78652666Y-81869428D01*
X78605047Y-81833714D01*
X78557428Y-81762285D01*
X78557428Y-81512285D01*
X78033619Y-82655142D02*
X78033619Y-82226571D01*
X78033619Y-82440857D02*
X79033619Y-82440857D01*
X78890761Y-82369428D01*
X78795523Y-82298000D01*
X78747904Y-82226571D01*
X78938380Y-82940857D02*
X78986000Y-82976571D01*
X79033619Y-83048000D01*
X79033619Y-83226571D01*
X78986000Y-83298000D01*
X78938380Y-83333714D01*
X78843142Y-83369428D01*
X78747904Y-83369428D01*
X78605047Y-83333714D01*
X78033619Y-82905142D01*
X78033619Y-83369428D01*
X58491500Y-82994428D02*
X58443880Y-83065857D01*
X58443880Y-83173000D01*
X58491500Y-83280142D01*
X58586738Y-83351571D01*
X58681976Y-83387285D01*
X58872452Y-83423000D01*
X59015309Y-83423000D01*
X59205785Y-83387285D01*
X59301023Y-83351571D01*
X59396261Y-83280142D01*
X59443880Y-83173000D01*
X59443880Y-83101571D01*
X59396261Y-82994428D01*
X59348642Y-82958714D01*
X59015309Y-82958714D01*
X59015309Y-83101571D01*
X59443880Y-82637285D02*
X58443880Y-82637285D01*
X59443880Y-82208714D01*
X58443880Y-82208714D01*
X59443880Y-81851571D02*
X58443880Y-81851571D01*
X58443880Y-81673000D01*
X58491500Y-81565857D01*
X58586738Y-81494428D01*
X58681976Y-81458714D01*
X58872452Y-81423000D01*
X59015309Y-81423000D01*
X59205785Y-81458714D01*
X59301023Y-81494428D01*
X59396261Y-81565857D01*
X59443880Y-81673000D01*
X59443880Y-81851571D01*
X58478500Y-80454428D02*
X58430880Y-80525857D01*
X58430880Y-80633000D01*
X58478500Y-80740142D01*
X58573738Y-80811571D01*
X58668976Y-80847285D01*
X58859452Y-80883000D01*
X59002309Y-80883000D01*
X59192785Y-80847285D01*
X59288023Y-80811571D01*
X59383261Y-80740142D01*
X59430880Y-80633000D01*
X59430880Y-80561571D01*
X59383261Y-80454428D01*
X59335642Y-80418714D01*
X59002309Y-80418714D01*
X59002309Y-80561571D01*
X59430880Y-80097285D02*
X58430880Y-80097285D01*
X59430880Y-79668714D01*
X58430880Y-79668714D01*
X59430880Y-79311571D02*
X58430880Y-79311571D01*
X58430880Y-79133000D01*
X58478500Y-79025857D01*
X58573738Y-78954428D01*
X58668976Y-78918714D01*
X58859452Y-78883000D01*
X59002309Y-78883000D01*
X59192785Y-78918714D01*
X59288023Y-78954428D01*
X59383261Y-79025857D01*
X59430880Y-79133000D01*
X59430880Y-79311571D01*
X58430880Y-78271571D02*
X58430880Y-77807285D01*
X58811833Y-78057285D01*
X58811833Y-77950142D01*
X58859452Y-77878714D01*
X58907071Y-77843000D01*
X59002309Y-77807285D01*
X59240404Y-77807285D01*
X59335642Y-77843000D01*
X59383261Y-77878714D01*
X59430880Y-77950142D01*
X59430880Y-78164428D01*
X59383261Y-78235857D01*
X59335642Y-78271571D01*
X58430880Y-77593000D02*
X59430880Y-77343000D01*
X58430880Y-77093000D01*
X58430880Y-76914428D02*
X58430880Y-76450142D01*
X58811833Y-76700142D01*
X58811833Y-76593000D01*
X58859452Y-76521571D01*
X58907071Y-76485857D01*
X59002309Y-76450142D01*
X59240404Y-76450142D01*
X59335642Y-76485857D01*
X59383261Y-76521571D01*
X59430880Y-76593000D01*
X59430880Y-76807285D01*
X59383261Y-76878714D01*
X59335642Y-76914428D01*
X58063500Y-75820857D02*
X58063500Y-75070857D01*
X59430880Y-75213714D02*
X58954690Y-75463714D01*
X59430880Y-75642285D02*
X58430880Y-75642285D01*
X58430880Y-75356571D01*
X58478500Y-75285142D01*
X58526119Y-75249428D01*
X58621357Y-75213714D01*
X58764214Y-75213714D01*
X58859452Y-75249428D01*
X58907071Y-75285142D01*
X58954690Y-75356571D01*
X58954690Y-75642285D01*
X58063500Y-75070857D02*
X58063500Y-74356571D01*
X59383261Y-74928000D02*
X59430880Y-74820857D01*
X59430880Y-74642285D01*
X59383261Y-74570857D01*
X59335642Y-74535142D01*
X59240404Y-74499428D01*
X59145166Y-74499428D01*
X59049928Y-74535142D01*
X59002309Y-74570857D01*
X58954690Y-74642285D01*
X58907071Y-74785142D01*
X58859452Y-74856571D01*
X58811833Y-74892285D01*
X58716595Y-74928000D01*
X58621357Y-74928000D01*
X58526119Y-74892285D01*
X58478500Y-74856571D01*
X58430880Y-74785142D01*
X58430880Y-74606571D01*
X58478500Y-74499428D01*
X58063500Y-74356571D02*
X58063500Y-73785142D01*
X58430880Y-74285142D02*
X58430880Y-73856571D01*
X59430880Y-74070857D02*
X58430880Y-74070857D01*
X58907071Y-72923714D02*
X58954690Y-72816571D01*
X59002309Y-72780857D01*
X59097547Y-72745142D01*
X59240404Y-72745142D01*
X59335642Y-72780857D01*
X59383261Y-72816571D01*
X59430880Y-72888000D01*
X59430880Y-73173714D01*
X58430880Y-73173714D01*
X58430880Y-72923714D01*
X58478500Y-72852285D01*
X58526119Y-72816571D01*
X58621357Y-72780857D01*
X58716595Y-72780857D01*
X58811833Y-72816571D01*
X58859452Y-72852285D01*
X58907071Y-72923714D01*
X58907071Y-73173714D01*
X59430880Y-72030857D02*
X59430880Y-72459428D01*
X59430880Y-72245142D02*
X58430880Y-72245142D01*
X58573738Y-72316571D01*
X58668976Y-72388000D01*
X58716595Y-72459428D01*
X59430880Y-71316571D02*
X59430880Y-71745142D01*
X59430880Y-71530857D02*
X58430880Y-71530857D01*
X58573738Y-71602285D01*
X58668976Y-71673714D01*
X58716595Y-71745142D01*
X59430880Y-71008714D02*
X58430880Y-71008714D01*
X58430880Y-70723000D01*
X58478500Y-70651571D01*
X58526119Y-70615857D01*
X58621357Y-70580142D01*
X58764214Y-70580142D01*
X58859452Y-70615857D01*
X58907071Y-70651571D01*
X58954690Y-70723000D01*
X58954690Y-71008714D01*
X58907071Y-70008714D02*
X58954690Y-69901571D01*
X59002309Y-69865857D01*
X59097547Y-69830142D01*
X59240404Y-69830142D01*
X59335642Y-69865857D01*
X59383261Y-69901571D01*
X59430880Y-69973000D01*
X59430880Y-70258714D01*
X58430880Y-70258714D01*
X58430880Y-70008714D01*
X58478500Y-69937285D01*
X58526119Y-69901571D01*
X58621357Y-69865857D01*
X58716595Y-69865857D01*
X58811833Y-69901571D01*
X58859452Y-69937285D01*
X58907071Y-70008714D01*
X58907071Y-70258714D01*
X59430880Y-69115857D02*
X59430880Y-69544428D01*
X59430880Y-69330142D02*
X58430880Y-69330142D01*
X58573738Y-69401571D01*
X58668976Y-69473000D01*
X58716595Y-69544428D01*
X58430880Y-68651571D02*
X58430880Y-68580142D01*
X58478500Y-68508714D01*
X58526119Y-68473000D01*
X58621357Y-68437285D01*
X58811833Y-68401571D01*
X59049928Y-68401571D01*
X59240404Y-68437285D01*
X59335642Y-68473000D01*
X59383261Y-68508714D01*
X59430880Y-68580142D01*
X59430880Y-68651571D01*
X59383261Y-68723000D01*
X59335642Y-68758714D01*
X59240404Y-68794428D01*
X59049928Y-68830142D01*
X58811833Y-68830142D01*
X58621357Y-68794428D01*
X58526119Y-68758714D01*
X58478500Y-68723000D01*
X58430880Y-68651571D01*
X59430880Y-68111571D02*
X58430880Y-68111571D01*
X58430880Y-67825857D01*
X58478500Y-67754428D01*
X58526119Y-67718714D01*
X58621357Y-67683000D01*
X58764214Y-67683000D01*
X58859452Y-67718714D01*
X58907071Y-67754428D01*
X58954690Y-67825857D01*
X58954690Y-68111571D01*
X58907071Y-67111571D02*
X58954690Y-67004428D01*
X59002309Y-66968714D01*
X59097547Y-66933000D01*
X59240404Y-66933000D01*
X59335642Y-66968714D01*
X59383261Y-67004428D01*
X59430880Y-67075857D01*
X59430880Y-67361571D01*
X58430880Y-67361571D01*
X58430880Y-67111571D01*
X58478500Y-67040142D01*
X58526119Y-67004428D01*
X58621357Y-66968714D01*
X58716595Y-66968714D01*
X58811833Y-67004428D01*
X58859452Y-67040142D01*
X58907071Y-67111571D01*
X58907071Y-67361571D01*
X59430880Y-66218714D02*
X59430880Y-66647285D01*
X59430880Y-66433000D02*
X58430880Y-66433000D01*
X58573738Y-66504428D01*
X58668976Y-66575857D01*
X58716595Y-66647285D01*
X59430880Y-65571571D02*
X58430880Y-65571571D01*
X58430880Y-65285857D01*
X58478500Y-65214428D01*
X58526119Y-65178714D01*
X58621357Y-65143000D01*
X58764214Y-65143000D01*
X58859452Y-65178714D01*
X58907071Y-65214428D01*
X58954690Y-65285857D01*
X58954690Y-65571571D01*
X58907071Y-64571571D02*
X58954690Y-64464428D01*
X59002309Y-64428714D01*
X59097547Y-64393000D01*
X59240404Y-64393000D01*
X59335642Y-64428714D01*
X59383261Y-64464428D01*
X59430880Y-64535857D01*
X59430880Y-64821571D01*
X58430880Y-64821571D01*
X58430880Y-64571571D01*
X58478500Y-64500142D01*
X58526119Y-64464428D01*
X58621357Y-64428714D01*
X58716595Y-64428714D01*
X58811833Y-64464428D01*
X58859452Y-64500142D01*
X58907071Y-64571571D01*
X58907071Y-64821571D01*
X58430880Y-63928714D02*
X58430880Y-63857285D01*
X58478500Y-63785857D01*
X58526119Y-63750142D01*
X58621357Y-63714428D01*
X58811833Y-63678714D01*
X59049928Y-63678714D01*
X59240404Y-63714428D01*
X59335642Y-63750142D01*
X59383261Y-63785857D01*
X59430880Y-63857285D01*
X59430880Y-63928714D01*
X59383261Y-64000142D01*
X59335642Y-64035857D01*
X59240404Y-64071571D01*
X59049928Y-64107285D01*
X58811833Y-64107285D01*
X58621357Y-64071571D01*
X58526119Y-64035857D01*
X58478500Y-64000142D01*
X58430880Y-63928714D01*
X59145166Y-62638714D02*
X59145166Y-62281571D01*
X59430880Y-62710142D02*
X58430880Y-62460142D01*
X59430880Y-62210142D01*
X58430880Y-62031571D02*
X58430880Y-61531571D01*
X59430880Y-61853000D01*
X59145166Y-60098714D02*
X59145166Y-59741571D01*
X59430880Y-60170142D02*
X58430880Y-59920142D01*
X59430880Y-59670142D01*
X58430880Y-59098714D02*
X58430880Y-59241571D01*
X58478500Y-59313000D01*
X58526119Y-59348714D01*
X58668976Y-59420142D01*
X58859452Y-59455857D01*
X59240404Y-59455857D01*
X59335642Y-59420142D01*
X59383261Y-59384428D01*
X59430880Y-59313000D01*
X59430880Y-59170142D01*
X59383261Y-59098714D01*
X59335642Y-59063000D01*
X59240404Y-59027285D01*
X59002309Y-59027285D01*
X58907071Y-59063000D01*
X58859452Y-59098714D01*
X58811833Y-59170142D01*
X58811833Y-59313000D01*
X58859452Y-59384428D01*
X58907071Y-59420142D01*
X59002309Y-59455857D01*
X59145166Y-57558714D02*
X59145166Y-57201571D01*
X59430880Y-57630142D02*
X58430880Y-57380142D01*
X59430880Y-57130142D01*
X58430880Y-56523000D02*
X58430880Y-56880142D01*
X58907071Y-56915857D01*
X58859452Y-56880142D01*
X58811833Y-56808714D01*
X58811833Y-56630142D01*
X58859452Y-56558714D01*
X58907071Y-56523000D01*
X59002309Y-56487285D01*
X59240404Y-56487285D01*
X59335642Y-56523000D01*
X59383261Y-56558714D01*
X59430880Y-56630142D01*
X59430880Y-56808714D01*
X59383261Y-56880142D01*
X59335642Y-56915857D01*
X59145166Y-55018714D02*
X59145166Y-54661571D01*
X59430880Y-55090142D02*
X58430880Y-54840142D01*
X59430880Y-54590142D01*
X58764214Y-54018714D02*
X59430880Y-54018714D01*
X58383261Y-54197285D02*
X59097547Y-54375857D01*
X59097547Y-53911571D01*
X59145166Y-52478714D02*
X59145166Y-52121571D01*
X59430880Y-52550142D02*
X58430880Y-52300142D01*
X59430880Y-52050142D01*
X58430880Y-51871571D02*
X58430880Y-51407285D01*
X58811833Y-51657285D01*
X58811833Y-51550142D01*
X58859452Y-51478714D01*
X58907071Y-51443000D01*
X59002309Y-51407285D01*
X59240404Y-51407285D01*
X59335642Y-51443000D01*
X59383261Y-51478714D01*
X59430880Y-51550142D01*
X59430880Y-51764428D01*
X59383261Y-51835857D01*
X59335642Y-51871571D01*
X59145166Y-49938714D02*
X59145166Y-49581571D01*
X59430880Y-50010142D02*
X58430880Y-49760142D01*
X59430880Y-49510142D01*
X58526119Y-49295857D02*
X58478500Y-49260142D01*
X58430880Y-49188714D01*
X58430880Y-49010142D01*
X58478500Y-48938714D01*
X58526119Y-48903000D01*
X58621357Y-48867285D01*
X58716595Y-48867285D01*
X58859452Y-48903000D01*
X59430880Y-49331571D01*
X59430880Y-48867285D01*
X59145166Y-47398714D02*
X59145166Y-47041571D01*
X59430880Y-47470142D02*
X58430880Y-47220142D01*
X59430880Y-46970142D01*
X59430880Y-46327285D02*
X59430880Y-46755857D01*
X59430880Y-46541571D02*
X58430880Y-46541571D01*
X58573738Y-46613000D01*
X58668976Y-46684428D01*
X58716595Y-46755857D01*
X59145166Y-44858714D02*
X59145166Y-44501571D01*
X59430880Y-44930142D02*
X58430880Y-44680142D01*
X59430880Y-44430142D01*
X58430880Y-44037285D02*
X58430880Y-43965857D01*
X58478500Y-43894428D01*
X58526119Y-43858714D01*
X58621357Y-43823000D01*
X58811833Y-43787285D01*
X59049928Y-43787285D01*
X59240404Y-43823000D01*
X59335642Y-43858714D01*
X59383261Y-43894428D01*
X59430880Y-43965857D01*
X59430880Y-44037285D01*
X59383261Y-44108714D01*
X59335642Y-44144428D01*
X59240404Y-44180142D01*
X59049928Y-44215857D01*
X58811833Y-44215857D01*
X58621357Y-44180142D01*
X58526119Y-44144428D01*
X58478500Y-44108714D01*
X58430880Y-44037285D01*
X59335642Y-37185142D02*
X59383261Y-37220857D01*
X59430880Y-37328000D01*
X59430880Y-37399428D01*
X59383261Y-37506571D01*
X59288023Y-37578000D01*
X59192785Y-37613714D01*
X59002309Y-37649428D01*
X58859452Y-37649428D01*
X58668976Y-37613714D01*
X58573738Y-37578000D01*
X58478500Y-37506571D01*
X58430880Y-37399428D01*
X58430880Y-37328000D01*
X58478500Y-37220857D01*
X58526119Y-37185142D01*
X59430880Y-36470857D02*
X59430880Y-36899428D01*
X59430880Y-36685142D02*
X58430880Y-36685142D01*
X58573738Y-36756571D01*
X58668976Y-36828000D01*
X58716595Y-36899428D01*
X58430880Y-36220857D02*
X58430880Y-35756571D01*
X58811833Y-36006571D01*
X58811833Y-35899428D01*
X58859452Y-35828000D01*
X58907071Y-35792285D01*
X59002309Y-35756571D01*
X59240404Y-35756571D01*
X59335642Y-35792285D01*
X59383261Y-35828000D01*
X59430880Y-35899428D01*
X59430880Y-36113714D01*
X59383261Y-36185142D01*
X59335642Y-36220857D01*
X58443880Y-34801000D02*
X59443880Y-34551000D01*
X58443880Y-34301000D01*
X58920071Y-33801000D02*
X58967690Y-33693857D01*
X59015309Y-33658142D01*
X59110547Y-33622428D01*
X59253404Y-33622428D01*
X59348642Y-33658142D01*
X59396261Y-33693857D01*
X59443880Y-33765285D01*
X59443880Y-34051000D01*
X58443880Y-34051000D01*
X58443880Y-33801000D01*
X58491500Y-33729571D01*
X58539119Y-33693857D01*
X58634357Y-33658142D01*
X58729595Y-33658142D01*
X58824833Y-33693857D01*
X58872452Y-33729571D01*
X58920071Y-33801000D01*
X58920071Y-34051000D01*
D11*
X65429252Y-36011000D02*
X64906748Y-36011000D01*
X65429252Y-37481000D02*
X64906748Y-37481000D01*
X63798000Y-68416000D02*
X63798000Y-67086000D01*
X65128000Y-68416000D02*
X63798000Y-68416000D01*
X63798000Y-65816000D02*
X63798000Y-63216000D01*
X66398000Y-65816000D02*
X63798000Y-65816000D01*
X66398000Y-68416000D02*
X66398000Y-65816000D01*
X63798000Y-63216000D02*
X71538000Y-63216000D01*
X66398000Y-68416000D02*
X71538000Y-68416000D01*
X71538000Y-68416000D02*
X71538000Y-63216000D01*
X75020000Y-32828000D02*
X76350000Y-32828000D01*
X75020000Y-34158000D02*
X75020000Y-32828000D01*
X75020000Y-35428000D02*
X77680000Y-35428000D01*
X77680000Y-35428000D02*
X77680000Y-83748000D01*
X75020000Y-35428000D02*
X75020000Y-83748000D01*
X75020000Y-83748000D02*
X77680000Y-83748000D01*
X59780000Y-32828000D02*
X61110000Y-32828000D01*
X59780000Y-34158000D02*
X59780000Y-32828000D01*
X59780000Y-35428000D02*
X62440000Y-35428000D01*
X62440000Y-35428000D02*
X62440000Y-83748000D01*
X59780000Y-35428000D02*
X59780000Y-83748000D01*
X59780000Y-83748000D02*
X62440000Y-83748000D01*
X73870000Y-32477400D02*
X73870000Y-33807400D01*
X72540000Y-32477400D02*
X73870000Y-32477400D01*
X71270000Y-32477400D02*
X71270000Y-35137400D01*
X71270000Y-35137400D02*
X63590000Y-35137400D01*
X71270000Y-32477400D02*
X63590000Y-32477400D01*
X63590000Y-32477400D02*
X63590000Y-35137400D01*
X67855000Y-37231000D02*
X67855000Y-38581000D01*
X69605000Y-37231000D02*
X69605000Y-38581000D01*
X71780000Y-41253000D02*
X66030000Y-41253000D01*
X71780000Y-44853000D02*
X71780000Y-41253000D01*
X66030000Y-44853000D02*
X71780000Y-44853000D01*
X65294000Y-83378000D02*
X68154000Y-83378000D01*
X68154000Y-83378000D02*
X68154000Y-81458000D01*
X68154000Y-81458000D02*
X65294000Y-81458000D01*
X66066936Y-77217600D02*
X66521064Y-77217600D01*
X66066936Y-78687600D02*
X66521064Y-78687600D01*
X66066936Y-79402000D02*
X66521064Y-79402000D01*
X66066936Y-80872000D02*
X66521064Y-80872000D01*
D10*
X68249802Y-49127674D02*
X67277530Y-48155402D01*
X73694524Y-53936000D02*
X73323293Y-53564769D01*
X68568000Y-59062524D02*
X68196769Y-58691293D01*
X63441476Y-53936000D02*
X63812707Y-54307231D01*
X68568000Y-48809476D02*
X68939231Y-49180707D01*
X63441476Y-53936000D02*
X63812707Y-53564769D01*
X68568000Y-59062524D02*
X68939231Y-58691293D01*
X73694524Y-53936000D02*
X73323293Y-54307231D01*
X68568000Y-48809476D02*
X68249802Y-49127674D01*
D11*
X65158252Y-46128000D02*
X64635748Y-46128000D01*
X65158252Y-47598000D02*
X64635748Y-47598000D01*
X68991252Y-60288500D02*
X68468748Y-60288500D01*
X68991252Y-61758500D02*
X68468748Y-61758500D01*
X68991252Y-69496000D02*
X68468748Y-69496000D01*
X68991252Y-70966000D02*
X68468748Y-70966000D01*
X70858748Y-78687600D02*
X71381252Y-78687600D01*
X70858748Y-77217600D02*
X71381252Y-77217600D01*
X71856748Y-40661000D02*
X72379252Y-40661000D01*
X71856748Y-39191000D02*
X72379252Y-39191000D01*
X72076748Y-37481000D02*
X72599252Y-37481000D01*
X72076748Y-36011000D02*
X72599252Y-36011000D01*
X65329252Y-39271000D02*
X64806748Y-39271000D01*
X65329252Y-40741000D02*
X64806748Y-40741000D01*
X65670000Y-75891000D02*
X65670000Y-72191000D01*
X71790000Y-75891000D02*
X65670000Y-75891000D01*
X71790000Y-72191000D02*
X71790000Y-75891000D01*
X65670000Y-72191000D02*
X71790000Y-72191000D01*
X70120000Y-83378000D02*
X72980000Y-83378000D01*
X72980000Y-83378000D02*
X72980000Y-81458000D01*
X72980000Y-81458000D02*
X70120000Y-81458000D01*
X71347064Y-80872000D02*
X70892936Y-80872000D01*
X71347064Y-79402000D02*
X70892936Y-79402000D01*
X72143252Y-46128000D02*
X71620748Y-46128000D01*
X72143252Y-47598000D02*
X71620748Y-47598000D01*
D10*
X64317642Y-38711142D02*
X64270023Y-38758761D01*
X64127166Y-38806380D01*
X64031928Y-38806380D01*
X63889071Y-38758761D01*
X63793833Y-38663523D01*
X63746214Y-38568285D01*
X63698595Y-38377809D01*
X63698595Y-38234952D01*
X63746214Y-38044476D01*
X63793833Y-37949238D01*
X63889071Y-37854000D01*
X64031928Y-37806380D01*
X64127166Y-37806380D01*
X64270023Y-37854000D01*
X64317642Y-37901619D01*
X65270023Y-38806380D02*
X64698595Y-38806380D01*
X64984309Y-38806380D02*
X64984309Y-37806380D01*
X64889071Y-37949238D01*
X64793833Y-38044476D01*
X64698595Y-38092095D01*
X66127166Y-37806380D02*
X65936690Y-37806380D01*
X65841452Y-37854000D01*
X65793833Y-37901619D01*
X65698595Y-38044476D01*
X65650976Y-38234952D01*
X65650976Y-38615904D01*
X65698595Y-38711142D01*
X65746214Y-38758761D01*
X65841452Y-38806380D01*
X66031928Y-38806380D01*
X66127166Y-38758761D01*
X66174785Y-38711142D01*
X66222404Y-38615904D01*
X66222404Y-38377809D01*
X66174785Y-38282571D01*
X66127166Y-38234952D01*
X66031928Y-38187333D01*
X65841452Y-38187333D01*
X65746214Y-38234952D01*
X65698595Y-38282571D01*
X65650976Y-38377809D01*
X64794666Y-68794380D02*
X64794666Y-69508666D01*
X64747047Y-69651523D01*
X64651809Y-69746761D01*
X64508952Y-69794380D01*
X64413714Y-69794380D01*
X65699428Y-68794380D02*
X65508952Y-68794380D01*
X65413714Y-68842000D01*
X65366095Y-68889619D01*
X65270857Y-69032476D01*
X65223238Y-69222952D01*
X65223238Y-69603904D01*
X65270857Y-69699142D01*
X65318476Y-69746761D01*
X65413714Y-69794380D01*
X65604190Y-69794380D01*
X65699428Y-69746761D01*
X65747047Y-69699142D01*
X65794666Y-69603904D01*
X65794666Y-69365809D01*
X65747047Y-69270571D01*
X65699428Y-69222952D01*
X65604190Y-69175333D01*
X65413714Y-69175333D01*
X65318476Y-69222952D01*
X65270857Y-69270571D01*
X65223238Y-69365809D01*
X76057166Y-31519880D02*
X76057166Y-32234166D01*
X76009547Y-32377023D01*
X75914309Y-32472261D01*
X75771452Y-32519880D01*
X75676214Y-32519880D01*
X76580976Y-32519880D02*
X76771452Y-32519880D01*
X76866690Y-32472261D01*
X76914309Y-32424642D01*
X77009547Y-32281785D01*
X77057166Y-32091309D01*
X77057166Y-31710357D01*
X77009547Y-31615119D01*
X76961928Y-31567500D01*
X76866690Y-31519880D01*
X76676214Y-31519880D01*
X76580976Y-31567500D01*
X76533357Y-31615119D01*
X76485738Y-31710357D01*
X76485738Y-31948452D01*
X76533357Y-32043690D01*
X76580976Y-32091309D01*
X76676214Y-32138928D01*
X76866690Y-32138928D01*
X76961928Y-32091309D01*
X77009547Y-32043690D01*
X77057166Y-31948452D01*
X60817166Y-31519880D02*
X60817166Y-32234166D01*
X60769547Y-32377023D01*
X60674309Y-32472261D01*
X60531452Y-32519880D01*
X60436214Y-32519880D01*
X61769547Y-31519880D02*
X61293357Y-31519880D01*
X61245738Y-31996071D01*
X61293357Y-31948452D01*
X61388595Y-31900833D01*
X61626690Y-31900833D01*
X61721928Y-31948452D01*
X61769547Y-31996071D01*
X61817166Y-32091309D01*
X61817166Y-32329404D01*
X61769547Y-32424642D01*
X61721928Y-32472261D01*
X61626690Y-32519880D01*
X61388595Y-32519880D01*
X61293357Y-32472261D01*
X61245738Y-32424642D01*
X62416580Y-33937533D02*
X63130866Y-33937533D01*
X63273723Y-33985152D01*
X63368961Y-34080390D01*
X63416580Y-34223247D01*
X63416580Y-34318485D01*
X62749914Y-33032771D02*
X63416580Y-33032771D01*
X62368961Y-33270866D02*
X63083247Y-33508961D01*
X63083247Y-32889914D01*
X68333809Y-40442190D02*
X68333809Y-40918380D01*
X68000476Y-39918380D02*
X68333809Y-40442190D01*
X68667142Y-39918380D01*
X68952857Y-40013619D02*
X69000476Y-39966000D01*
X69095714Y-39918380D01*
X69333809Y-39918380D01*
X69429047Y-39966000D01*
X69476666Y-40013619D01*
X69524285Y-40108857D01*
X69524285Y-40204095D01*
X69476666Y-40346952D01*
X68905238Y-40918380D01*
X69524285Y-40918380D01*
X68289809Y-45632690D02*
X68289809Y-46108880D01*
X67956476Y-45108880D02*
X68289809Y-45632690D01*
X68623142Y-45108880D01*
X69480285Y-46108880D02*
X68908857Y-46108880D01*
X69194571Y-46108880D02*
X69194571Y-45108880D01*
X69099333Y-45251738D01*
X69004095Y-45346976D01*
X68908857Y-45394595D01*
X62634904Y-82875380D02*
X62634904Y-81875380D01*
X62873000Y-81875380D01*
X63015857Y-81923000D01*
X63111095Y-82018238D01*
X63158714Y-82113476D01*
X63206333Y-82303952D01*
X63206333Y-82446809D01*
X63158714Y-82637285D01*
X63111095Y-82732523D01*
X63015857Y-82827761D01*
X62873000Y-82875380D01*
X62634904Y-82875380D01*
X64063476Y-82208714D02*
X64063476Y-82875380D01*
X63825380Y-81827761D02*
X63587285Y-82542047D01*
X64206333Y-82542047D01*
X63358733Y-78430380D02*
X63025400Y-77954190D01*
X62787304Y-78430380D02*
X62787304Y-77430380D01*
X63168257Y-77430380D01*
X63263495Y-77478000D01*
X63311114Y-77525619D01*
X63358733Y-77620857D01*
X63358733Y-77763714D01*
X63311114Y-77858952D01*
X63263495Y-77906571D01*
X63168257Y-77954190D01*
X62787304Y-77954190D01*
X63834923Y-78430380D02*
X64025400Y-78430380D01*
X64120638Y-78382761D01*
X64168257Y-78335142D01*
X64263495Y-78192285D01*
X64311114Y-78001809D01*
X64311114Y-77620857D01*
X64263495Y-77525619D01*
X64215876Y-77478000D01*
X64120638Y-77430380D01*
X63930161Y-77430380D01*
X63834923Y-77478000D01*
X63787304Y-77525619D01*
X63739685Y-77620857D01*
X63739685Y-77858952D01*
X63787304Y-77954190D01*
X63834923Y-78001809D01*
X63930161Y-78049428D01*
X64120638Y-78049428D01*
X64215876Y-78001809D01*
X64263495Y-77954190D01*
X64311114Y-77858952D01*
X63050000Y-80589380D02*
X62816666Y-80113190D01*
X62650000Y-80589380D02*
X62650000Y-79589380D01*
X62916666Y-79589380D01*
X62983333Y-79637000D01*
X63016666Y-79684619D01*
X63050000Y-79779857D01*
X63050000Y-79922714D01*
X63016666Y-80017952D01*
X62983333Y-80065571D01*
X62916666Y-80113190D01*
X62650000Y-80113190D01*
X63716666Y-80589380D02*
X63316666Y-80589380D01*
X63516666Y-80589380D02*
X63516666Y-79589380D01*
X63450000Y-79732238D01*
X63383333Y-79827476D01*
X63316666Y-79875095D01*
X64383333Y-80589380D02*
X63983333Y-80589380D01*
X64183333Y-80589380D02*
X64183333Y-79589380D01*
X64116666Y-79732238D01*
X64050000Y-79827476D01*
X63983333Y-79875095D01*
X72555977Y-48858026D02*
X71983557Y-49430446D01*
X71949885Y-49531461D01*
X71949885Y-49598805D01*
X71983557Y-49699820D01*
X72118244Y-49834507D01*
X72219259Y-49868179D01*
X72286603Y-49868179D01*
X72387618Y-49834507D01*
X72960038Y-49262087D01*
X73195740Y-49632477D02*
X73263083Y-49632477D01*
X73364099Y-49666148D01*
X73532457Y-49834507D01*
X73566129Y-49935522D01*
X73566129Y-50002866D01*
X73532457Y-50103881D01*
X73465114Y-50171225D01*
X73330427Y-50238568D01*
X72522305Y-50238568D01*
X72960038Y-50676301D01*
X64476333Y-45696142D02*
X64428714Y-45743761D01*
X64285857Y-45791380D01*
X64190619Y-45791380D01*
X64047761Y-45743761D01*
X63952523Y-45648523D01*
X63904904Y-45553285D01*
X63857285Y-45362809D01*
X63857285Y-45219952D01*
X63904904Y-45029476D01*
X63952523Y-44934238D01*
X64047761Y-44839000D01*
X64190619Y-44791380D01*
X64285857Y-44791380D01*
X64428714Y-44839000D01*
X64476333Y-44886619D01*
X65047761Y-45219952D02*
X64952523Y-45172333D01*
X64904904Y-45124714D01*
X64857285Y-45029476D01*
X64857285Y-44981857D01*
X64904904Y-44886619D01*
X64952523Y-44839000D01*
X65047761Y-44791380D01*
X65238238Y-44791380D01*
X65333476Y-44839000D01*
X65381095Y-44886619D01*
X65428714Y-44981857D01*
X65428714Y-45029476D01*
X65381095Y-45124714D01*
X65333476Y-45172333D01*
X65238238Y-45219952D01*
X65047761Y-45219952D01*
X64952523Y-45267571D01*
X64904904Y-45315190D01*
X64857285Y-45410428D01*
X64857285Y-45600904D01*
X64904904Y-45696142D01*
X64952523Y-45743761D01*
X65047761Y-45791380D01*
X65238238Y-45791380D01*
X65333476Y-45743761D01*
X65381095Y-45696142D01*
X65428714Y-45600904D01*
X65428714Y-45410428D01*
X65381095Y-45315190D01*
X65333476Y-45267571D01*
X65238238Y-45219952D01*
X71357333Y-61380642D02*
X71309714Y-61428261D01*
X71166857Y-61475880D01*
X71071619Y-61475880D01*
X70928761Y-61428261D01*
X70833523Y-61333023D01*
X70785904Y-61237785D01*
X70738285Y-61047309D01*
X70738285Y-60904452D01*
X70785904Y-60713976D01*
X70833523Y-60618738D01*
X70928761Y-60523500D01*
X71071619Y-60475880D01*
X71166857Y-60475880D01*
X71309714Y-60523500D01*
X71357333Y-60571119D01*
X71833523Y-61475880D02*
X72024000Y-61475880D01*
X72119238Y-61428261D01*
X72166857Y-61380642D01*
X72262095Y-61237785D01*
X72309714Y-61047309D01*
X72309714Y-60666357D01*
X72262095Y-60571119D01*
X72214476Y-60523500D01*
X72119238Y-60475880D01*
X71928761Y-60475880D01*
X71833523Y-60523500D01*
X71785904Y-60571119D01*
X71738285Y-60666357D01*
X71738285Y-60904452D01*
X71785904Y-60999690D01*
X71833523Y-61047309D01*
X71928761Y-61094928D01*
X72119238Y-61094928D01*
X72214476Y-61047309D01*
X72262095Y-60999690D01*
X72309714Y-60904452D01*
X71429642Y-70524642D02*
X71382023Y-70572261D01*
X71239166Y-70619880D01*
X71143928Y-70619880D01*
X71001071Y-70572261D01*
X70905833Y-70477023D01*
X70858214Y-70381785D01*
X70810595Y-70191309D01*
X70810595Y-70048452D01*
X70858214Y-69857976D01*
X70905833Y-69762738D01*
X71001071Y-69667500D01*
X71143928Y-69619880D01*
X71239166Y-69619880D01*
X71382023Y-69667500D01*
X71429642Y-69715119D01*
X72382023Y-70619880D02*
X71810595Y-70619880D01*
X72096309Y-70619880D02*
X72096309Y-69619880D01*
X72001071Y-69762738D01*
X71905833Y-69857976D01*
X71810595Y-69905595D01*
X72715357Y-69619880D02*
X73334404Y-69619880D01*
X73001071Y-70000833D01*
X73143928Y-70000833D01*
X73239166Y-70048452D01*
X73286785Y-70096071D01*
X73334404Y-70191309D01*
X73334404Y-70429404D01*
X73286785Y-70524642D01*
X73239166Y-70572261D01*
X73143928Y-70619880D01*
X72858214Y-70619880D01*
X72762976Y-70572261D01*
X72715357Y-70524642D01*
X73514800Y-78360542D02*
X73481466Y-78408161D01*
X73381466Y-78455780D01*
X73314800Y-78455780D01*
X73214800Y-78408161D01*
X73148133Y-78312923D01*
X73114800Y-78217685D01*
X73081466Y-78027209D01*
X73081466Y-77884352D01*
X73114800Y-77693876D01*
X73148133Y-77598638D01*
X73214800Y-77503400D01*
X73314800Y-77455780D01*
X73381466Y-77455780D01*
X73481466Y-77503400D01*
X73514800Y-77551019D01*
X74181466Y-78455780D02*
X73781466Y-78455780D01*
X73981466Y-78455780D02*
X73981466Y-77455780D01*
X73914800Y-77598638D01*
X73848133Y-77693876D01*
X73781466Y-77741495D01*
X74414800Y-77455780D02*
X74881466Y-77455780D01*
X74581466Y-78455780D01*
X72890142Y-42076642D02*
X72842523Y-42124261D01*
X72699666Y-42171880D01*
X72604428Y-42171880D01*
X72461571Y-42124261D01*
X72366333Y-42029023D01*
X72318714Y-41933785D01*
X72271095Y-41743309D01*
X72271095Y-41600452D01*
X72318714Y-41409976D01*
X72366333Y-41314738D01*
X72461571Y-41219500D01*
X72604428Y-41171880D01*
X72699666Y-41171880D01*
X72842523Y-41219500D01*
X72890142Y-41267119D01*
X73842523Y-42171880D02*
X73271095Y-42171880D01*
X73556809Y-42171880D02*
X73556809Y-41171880D01*
X73461571Y-41314738D01*
X73366333Y-41409976D01*
X73271095Y-41457595D01*
X74223476Y-41267119D02*
X74271095Y-41219500D01*
X74366333Y-41171880D01*
X74604428Y-41171880D01*
X74699666Y-41219500D01*
X74747285Y-41267119D01*
X74794904Y-41362357D01*
X74794904Y-41457595D01*
X74747285Y-41600452D01*
X74175857Y-42171880D01*
X74794904Y-42171880D01*
X72001142Y-38711142D02*
X71953523Y-38758761D01*
X71810666Y-38806380D01*
X71715428Y-38806380D01*
X71572571Y-38758761D01*
X71477333Y-38663523D01*
X71429714Y-38568285D01*
X71382095Y-38377809D01*
X71382095Y-38234952D01*
X71429714Y-38044476D01*
X71477333Y-37949238D01*
X71572571Y-37854000D01*
X71715428Y-37806380D01*
X71810666Y-37806380D01*
X71953523Y-37854000D01*
X72001142Y-37901619D01*
X72953523Y-38806380D02*
X72382095Y-38806380D01*
X72667809Y-38806380D02*
X72667809Y-37806380D01*
X72572571Y-37949238D01*
X72477333Y-38044476D01*
X72382095Y-38092095D01*
X73858285Y-37806380D02*
X73382095Y-37806380D01*
X73334476Y-38282571D01*
X73382095Y-38234952D01*
X73477333Y-38187333D01*
X73715428Y-38187333D01*
X73810666Y-38234952D01*
X73858285Y-38282571D01*
X73905904Y-38377809D01*
X73905904Y-38615904D01*
X73858285Y-38711142D01*
X73810666Y-38758761D01*
X73715428Y-38806380D01*
X73477333Y-38806380D01*
X73382095Y-38758761D01*
X73334476Y-38711142D01*
X63619142Y-42076642D02*
X63571523Y-42124261D01*
X63428666Y-42171880D01*
X63333428Y-42171880D01*
X63190571Y-42124261D01*
X63095333Y-42029023D01*
X63047714Y-41933785D01*
X63000095Y-41743309D01*
X63000095Y-41600452D01*
X63047714Y-41409976D01*
X63095333Y-41314738D01*
X63190571Y-41219500D01*
X63333428Y-41171880D01*
X63428666Y-41171880D01*
X63571523Y-41219500D01*
X63619142Y-41267119D01*
X64571523Y-42171880D02*
X64000095Y-42171880D01*
X64285809Y-42171880D02*
X64285809Y-41171880D01*
X64190571Y-41314738D01*
X64095333Y-41409976D01*
X64000095Y-41457595D01*
X65428666Y-41505214D02*
X65428666Y-42171880D01*
X65190571Y-41124261D02*
X64952476Y-41838547D01*
X65571523Y-41838547D01*
X72199666Y-73048761D02*
X72342523Y-73096380D01*
X72580619Y-73096380D01*
X72675857Y-73048761D01*
X72723476Y-73001142D01*
X72771095Y-72905904D01*
X72771095Y-72810666D01*
X72723476Y-72715428D01*
X72675857Y-72667809D01*
X72580619Y-72620190D01*
X72390142Y-72572571D01*
X72294904Y-72524952D01*
X72247285Y-72477333D01*
X72199666Y-72382095D01*
X72199666Y-72286857D01*
X72247285Y-72191619D01*
X72294904Y-72144000D01*
X72390142Y-72096380D01*
X72628238Y-72096380D01*
X72771095Y-72144000D01*
X73104428Y-72096380D02*
X73342523Y-73096380D01*
X73533000Y-72382095D01*
X73723476Y-73096380D01*
X73961571Y-72096380D01*
X74866333Y-73096380D02*
X74294904Y-73096380D01*
X74580619Y-73096380D02*
X74580619Y-72096380D01*
X74485380Y-72239238D01*
X74390142Y-72334476D01*
X74294904Y-72382095D01*
X63436595Y-73096380D02*
X63436595Y-72429714D01*
X63436595Y-72620190D02*
X63484214Y-72524952D01*
X63531833Y-72477333D01*
X63627071Y-72429714D01*
X63722309Y-72429714D01*
X64008023Y-73048761D02*
X64103261Y-73096380D01*
X64293738Y-73096380D01*
X64388976Y-73048761D01*
X64436595Y-72953523D01*
X64436595Y-72905904D01*
X64388976Y-72810666D01*
X64293738Y-72763047D01*
X64150880Y-72763047D01*
X64055642Y-72715428D01*
X64008023Y-72620190D01*
X64008023Y-72572571D01*
X64055642Y-72477333D01*
X64150880Y-72429714D01*
X64293738Y-72429714D01*
X64388976Y-72477333D01*
X64722309Y-72429714D02*
X65103261Y-72429714D01*
X64865166Y-72096380D02*
X64865166Y-72953523D01*
X64912785Y-73048761D01*
X65008023Y-73096380D01*
X65103261Y-73096380D01*
X73175904Y-82875380D02*
X73175904Y-81875380D01*
X73414000Y-81875380D01*
X73556857Y-81923000D01*
X73652095Y-82018238D01*
X73699714Y-82113476D01*
X73747333Y-82303952D01*
X73747333Y-82446809D01*
X73699714Y-82637285D01*
X73652095Y-82732523D01*
X73556857Y-82827761D01*
X73414000Y-82875380D01*
X73175904Y-82875380D01*
X74699714Y-82875380D02*
X74128285Y-82875380D01*
X74414000Y-82875380D02*
X74414000Y-81875380D01*
X74318761Y-82018238D01*
X74223523Y-82113476D01*
X74128285Y-82161095D01*
X73747333Y-80589380D02*
X73414000Y-80113190D01*
X73175904Y-80589380D02*
X73175904Y-79589380D01*
X73556857Y-79589380D01*
X73652095Y-79637000D01*
X73699714Y-79684619D01*
X73747333Y-79779857D01*
X73747333Y-79922714D01*
X73699714Y-80017952D01*
X73652095Y-80065571D01*
X73556857Y-80113190D01*
X73175904Y-80113190D01*
X74699714Y-80589380D02*
X74128285Y-80589380D01*
X74414000Y-80589380D02*
X74414000Y-79589380D01*
X74318761Y-79732238D01*
X74223523Y-79827476D01*
X74128285Y-79875095D01*
X72604333Y-45696142D02*
X72556714Y-45743761D01*
X72413857Y-45791380D01*
X72318619Y-45791380D01*
X72175761Y-45743761D01*
X72080523Y-45648523D01*
X72032904Y-45553285D01*
X71985285Y-45362809D01*
X71985285Y-45219952D01*
X72032904Y-45029476D01*
X72080523Y-44934238D01*
X72175761Y-44839000D01*
X72318619Y-44791380D01*
X72413857Y-44791380D01*
X72556714Y-44839000D01*
X72604333Y-44886619D01*
X73556714Y-45791380D02*
X72985285Y-45791380D01*
X73271000Y-45791380D02*
X73271000Y-44791380D01*
X73175761Y-44934238D01*
X73080523Y-45029476D01*
X72985285Y-45077095D01*
M02*
