G04 #@! TF.GenerationSoftware,KiCad,Pcbnew,5.1.9+dfsg1-1*
G04 #@! TF.CreationDate,2021-04-12T20:51:15-05:00*
G04 #@! TF.ProjectId,CorePill,436f7265-5069-46c6-9c2e-6b696361645f,1.0.1*
G04 #@! TF.SameCoordinates,Original*
G04 #@! TF.FileFunction,Glue,Top*
G04 #@! TF.FilePolarity,Positive*
%FSLAX46Y46*%
G04 Gerber Fmt 4.6, Leading zero omitted, Abs format (unit mm)*
G04 Created by KiCad (PCBNEW 5.1.9+dfsg1-1) date 2021-04-12 20:51:15*
%MOMM*%
%LPD*%
G01*
G04 APERTURE LIST*
%ADD10C,0.186667*%
%ADD11C,0.133333*%
%ADD12C,0.100000*%
G04 APERTURE END LIST*
D10*
X68823333Y-43053000D02*
G75*
G03*
X68823333Y-43053000I-93333J0D01*
G01*
D11*
X68943333Y-43053000D02*
G75*
G03*
X68943333Y-43053000I-213333J0D01*
G01*
X69063333Y-43053000D02*
G75*
G03*
X69063333Y-43053000I-333333J0D01*
G01*
D12*
X69130000Y-43053000D02*
G75*
G03*
X69130000Y-43053000I-400000J0D01*
G01*
M02*
