G04 #@! TF.GenerationSoftware,KiCad,Pcbnew,5.1.9+dfsg1-1*
G04 #@! TF.CreationDate,2021-04-12T20:51:15-05:00*
G04 #@! TF.ProjectId,CorePill,436f7265-5069-46c6-9c2e-6b696361645f,1.0.1*
G04 #@! TF.SameCoordinates,Original*
G04 #@! TF.FileFunction,Copper,L2,Bot*
G04 #@! TF.FilePolarity,Positive*
%FSLAX46Y46*%
G04 Gerber Fmt 4.6, Leading zero omitted, Abs format (unit mm)*
G04 Created by KiCad (PCBNEW 5.1.9+dfsg1-1) date 2021-04-12 20:51:15*
%MOMM*%
%LPD*%
G01*
G04 APERTURE LIST*
G04 #@! TA.AperFunction,ComponentPad*
%ADD10O,1.700000X1.700000*%
G04 #@! TD*
G04 #@! TA.AperFunction,ComponentPad*
%ADD11R,1.700000X1.700000*%
G04 #@! TD*
G04 #@! TA.AperFunction,ViaPad*
%ADD12C,0.600000*%
G04 #@! TD*
G04 #@! TA.AperFunction,Conductor*
%ADD13C,0.250000*%
G04 #@! TD*
G04 #@! TA.AperFunction,Conductor*
%ADD14C,0.100000*%
G04 #@! TD*
G04 APERTURE END LIST*
G04 #@! TA.AperFunction,SMDPad,CuDef*
G36*
G01*
X73246000Y-58775000D02*
X72296000Y-58775000D01*
G75*
G02*
X72046000Y-58525000I0J250000D01*
G01*
X72046000Y-57850000D01*
G75*
G02*
X72296000Y-57600000I250000J0D01*
G01*
X73246000Y-57600000D01*
G75*
G02*
X73496000Y-57850000I0J-250000D01*
G01*
X73496000Y-58525000D01*
G75*
G02*
X73246000Y-58775000I-250000J0D01*
G01*
G37*
G04 #@! TD.AperFunction*
G04 #@! TA.AperFunction,SMDPad,CuDef*
G36*
G01*
X73246000Y-56700000D02*
X72296000Y-56700000D01*
G75*
G02*
X72046000Y-56450000I0J250000D01*
G01*
X72046000Y-55775000D01*
G75*
G02*
X72296000Y-55525000I250000J0D01*
G01*
X73246000Y-55525000D01*
G75*
G02*
X73496000Y-55775000I0J-250000D01*
G01*
X73496000Y-56450000D01*
G75*
G02*
X73246000Y-56700000I-250000J0D01*
G01*
G37*
G04 #@! TD.AperFunction*
D10*
X70208000Y-64546000D03*
X70208000Y-67086000D03*
X67668000Y-64546000D03*
X67668000Y-67086000D03*
X65128000Y-64546000D03*
D11*
X65128000Y-67086000D03*
D10*
X76350000Y-82418000D03*
X76350000Y-79878000D03*
X76350000Y-77338000D03*
X76350000Y-74798000D03*
X76350000Y-72258000D03*
X76350000Y-69718000D03*
X76350000Y-67178000D03*
X76350000Y-64638000D03*
X76350000Y-62098000D03*
X76350000Y-59558000D03*
X76350000Y-57018000D03*
X76350000Y-54478000D03*
X76350000Y-51938000D03*
X76350000Y-49398000D03*
X76350000Y-46858000D03*
X76350000Y-44318000D03*
X76350000Y-41778000D03*
X76350000Y-39238000D03*
X76350000Y-36698000D03*
D11*
X76350000Y-34158000D03*
D10*
X61110000Y-82418000D03*
X61110000Y-79878000D03*
X61110000Y-77338000D03*
X61110000Y-74798000D03*
X61110000Y-72258000D03*
X61110000Y-69718000D03*
X61110000Y-67178000D03*
X61110000Y-64638000D03*
X61110000Y-62098000D03*
X61110000Y-59558000D03*
X61110000Y-57018000D03*
X61110000Y-54478000D03*
X61110000Y-51938000D03*
X61110000Y-49398000D03*
X61110000Y-46858000D03*
X61110000Y-44318000D03*
X61110000Y-41778000D03*
X61110000Y-39238000D03*
X61110000Y-36698000D03*
D11*
X61110000Y-34158000D03*
D10*
X64920000Y-33807400D03*
X67460000Y-33807400D03*
X70000000Y-33807400D03*
D11*
X72540000Y-33807400D03*
D12*
X65673000Y-48776000D03*
X59573000Y-45626000D03*
X67618000Y-50516000D03*
X69659500Y-46863000D03*
X60048000Y-53151000D03*
X67313009Y-51825990D03*
X64770000Y-75311000D03*
X72771000Y-54229000D03*
X77528000Y-55646000D03*
X72072500Y-54927500D03*
X77598000Y-53246000D03*
X73943284Y-53193542D03*
X67967050Y-48370050D03*
X74239323Y-54612722D03*
X69918000Y-53506000D03*
X69478000Y-55656000D03*
X66929000Y-56642004D03*
X70268000Y-56216000D03*
X58200000Y-55656000D03*
X58200000Y-52836000D03*
X58228000Y-50316000D03*
X66748000Y-52726000D03*
X69778000Y-50666000D03*
X58674000Y-31877000D03*
X58200000Y-35433000D03*
X58200000Y-47896000D03*
X65849500Y-31369000D03*
X68707000Y-31369000D03*
X71691500Y-31369000D03*
X75311000Y-31369000D03*
X62230000Y-31369000D03*
X58200000Y-43053000D03*
X58200000Y-45593000D03*
X58200000Y-38305994D03*
X58120000Y-40616000D03*
X58165998Y-58200000D03*
X58200000Y-65856000D03*
X58200000Y-68126000D03*
X58200000Y-70929500D03*
X58200000Y-73469500D03*
X58200000Y-76216000D03*
X58200000Y-78736000D03*
X58200000Y-81116000D03*
X58200000Y-60736000D03*
X58200000Y-63376000D03*
X65913000Y-54927500D03*
X71247000Y-52705006D03*
X66294000Y-59690004D03*
X65405000Y-61976000D03*
X73152009Y-38607991D03*
X63309500Y-45085000D03*
X69215000Y-59562994D03*
X67691000Y-53276500D03*
X64643000Y-43433998D03*
X74549000Y-48132998D03*
X72961500Y-42672000D03*
X64130500Y-38358500D03*
X64198500Y-41338498D03*
X63373000Y-38354000D03*
X72898000Y-41656000D03*
X69767498Y-62401496D03*
X67310000Y-46863000D03*
X67287972Y-45488028D03*
X66040000Y-45466000D03*
X72157500Y-76559500D03*
X72680000Y-75338500D03*
X73533000Y-82423000D03*
X63881000Y-76216000D03*
X70993000Y-74041000D03*
X69469000Y-74041000D03*
X67945000Y-74041000D03*
X66611500Y-74041000D03*
X69767502Y-68852998D03*
X69722999Y-71564500D03*
X79300000Y-81280000D03*
X79300000Y-78613000D03*
X79300000Y-76073000D03*
X79300000Y-73533000D03*
X79300000Y-68453000D03*
X79300000Y-70993000D03*
X79300000Y-65913000D03*
X79300000Y-63373000D03*
X79300000Y-60833000D03*
X79300000Y-58293000D03*
X79300000Y-50673000D03*
X79300000Y-48006000D03*
X79300000Y-40501999D03*
X79300000Y-37961999D03*
X79300000Y-53201999D03*
X78740000Y-31750000D03*
X79300000Y-35421999D03*
X79300000Y-55614999D03*
X79300000Y-45593000D03*
X79300000Y-43053000D03*
X58547000Y-83693000D03*
X78867000Y-83566000D03*
X68707000Y-83820000D03*
X74549000Y-83820000D03*
X67811021Y-55759979D03*
X70866000Y-48260000D03*
X74041000Y-45466000D03*
X74051000Y-46609000D03*
X74123000Y-56251000D03*
D13*
X62248000Y-45626000D02*
X59573000Y-45626000D01*
X65398000Y-48776000D02*
X62248000Y-45626000D01*
X65673000Y-48776000D02*
X65398000Y-48776000D01*
X67618000Y-50516000D02*
X69659500Y-48474500D01*
X69659500Y-48474500D02*
X69659500Y-46863000D01*
X63423010Y-51825990D02*
X67313009Y-51825990D01*
X62098000Y-53151000D02*
X63423010Y-51825990D01*
X60048000Y-53151000D02*
X62098000Y-53151000D01*
X64257000Y-74798000D02*
X64770000Y-75311000D01*
X61110000Y-74798000D02*
X64257000Y-74798000D01*
X72771000Y-56112500D02*
X72771000Y-54229000D01*
X72463737Y-53603999D02*
X72072500Y-53995236D01*
X73071001Y-53603999D02*
X72463737Y-53603999D01*
X73293672Y-53826670D02*
X73071001Y-53603999D01*
X74337170Y-53826670D02*
X73293672Y-53826670D01*
X75025384Y-54514884D02*
X74337170Y-53826670D01*
X72072500Y-53995236D02*
X72072500Y-54927500D01*
X75025384Y-55022884D02*
X75025384Y-54514884D01*
X75748500Y-55746000D02*
X75025384Y-55022884D01*
X77428000Y-55746000D02*
X75748500Y-55746000D01*
X77528000Y-55646000D02*
X77428000Y-55746000D01*
X77598000Y-53246000D02*
X73995742Y-53246000D01*
X73995742Y-53246000D02*
X73943284Y-53193542D01*
X67542786Y-48370050D02*
X67967050Y-48370050D01*
X62738000Y-43565264D02*
X67542786Y-48370050D01*
X62738000Y-35596000D02*
X62738000Y-43565264D01*
X61110000Y-34158000D02*
X62738000Y-35596000D01*
X74988000Y-55703082D02*
X74239323Y-54954405D01*
X74239323Y-54954405D02*
X74239323Y-54612722D01*
X74988000Y-58196000D02*
X74988000Y-55703082D01*
X76350000Y-59558000D02*
X74988000Y-58196000D01*
X69918000Y-53506000D02*
X69978000Y-53566000D01*
X69978000Y-53566000D02*
X69978000Y-55156000D01*
X69978000Y-55156000D02*
X69478000Y-55656000D01*
X67668000Y-57381004D02*
X66929000Y-56642004D01*
X67668000Y-64546000D02*
X67668000Y-57381004D01*
X69638000Y-56846000D02*
X70268000Y-56216000D01*
X67791000Y-55726000D02*
X68911000Y-56846000D01*
X66978000Y-55726000D02*
X67791000Y-55726000D01*
X69032999Y-65721001D02*
X70208000Y-64546000D01*
X67103999Y-65721001D02*
X69032999Y-65721001D01*
X66303001Y-64920003D02*
X67103999Y-65721001D01*
X66303001Y-62874001D02*
X66303001Y-64920003D01*
X65405000Y-61976000D02*
X66303001Y-62874001D01*
X72973000Y-38601000D02*
X72979991Y-38607991D01*
X74440009Y-38607991D02*
X73152009Y-38607991D01*
X72979991Y-38607991D02*
X73152009Y-38607991D01*
X71183494Y-52641500D02*
X71247000Y-52705006D01*
X66748000Y-52726000D02*
X66832500Y-52641500D01*
X66748000Y-55496000D02*
X66978000Y-55726000D01*
X66748000Y-52726000D02*
X66748000Y-55496000D01*
X69778000Y-52459500D02*
X69596000Y-52641500D01*
X69596000Y-52641500D02*
X71183494Y-52641500D01*
X66832500Y-52641500D02*
X69596000Y-52641500D01*
X69778000Y-50666000D02*
X69778000Y-51553500D01*
X69778000Y-51553500D02*
X69778000Y-52459500D01*
X65786000Y-50038000D02*
X64325500Y-50038000D01*
X66948989Y-51200989D02*
X65786000Y-50038000D01*
X69425489Y-51200989D02*
X66948989Y-51200989D01*
X69778000Y-51553500D02*
X69425489Y-51200989D01*
X76350000Y-36698000D02*
X75316000Y-36698000D01*
X75316000Y-36698000D02*
X74739500Y-37274500D01*
X74739500Y-38308500D02*
X74440009Y-38607991D01*
X74739500Y-37274500D02*
X74739500Y-38308500D01*
X72326500Y-43370506D02*
X72326506Y-43370500D01*
X71247000Y-52705006D02*
X72326500Y-51625506D01*
X64706498Y-43370500D02*
X64643000Y-43433998D01*
X72326500Y-43307000D02*
X72961500Y-42672000D01*
X72326500Y-43370506D02*
X72326500Y-43307000D01*
X64130500Y-34596900D02*
X64920000Y-33807400D01*
X64130500Y-38358500D02*
X64130500Y-34596900D01*
X67287972Y-45488028D02*
X66062028Y-45488028D01*
X66062028Y-45488028D02*
X66040000Y-45466000D01*
X61110000Y-79878000D02*
X61110000Y-82418000D01*
X70208000Y-67086000D02*
X70208000Y-64546000D01*
X59438000Y-79878000D02*
X58200000Y-81116000D01*
X61110000Y-79878000D02*
X59438000Y-79878000D01*
X68911000Y-56846000D02*
X69638000Y-56846000D01*
X64643000Y-44069000D02*
X66040000Y-45466000D01*
X64643000Y-43433998D02*
X64643000Y-44069000D01*
X64198500Y-42989498D02*
X64643000Y-43433998D01*
X64198500Y-41338498D02*
X64198500Y-42989498D01*
X69400030Y-45488028D02*
X67287972Y-45488028D01*
X70866000Y-46953998D02*
X69400030Y-45488028D01*
X70866000Y-48260000D02*
X70866000Y-46953998D01*
X74041000Y-45466000D02*
X72326500Y-45466000D01*
X72326500Y-45466000D02*
X72326500Y-43370506D01*
X72326500Y-51625506D02*
X72326500Y-45466000D01*
X67385002Y-46863000D02*
X67310000Y-46863000D01*
X68592051Y-48070049D02*
X67385002Y-46863000D01*
X68592051Y-48670051D02*
X68592051Y-48070049D01*
X68267051Y-48995051D02*
X68592051Y-48670051D01*
X67219551Y-48995051D02*
X68267051Y-48995051D01*
X63309500Y-45085000D02*
X67219551Y-48995051D01*
X74088000Y-56216000D02*
X74123000Y-56251000D01*
X74123000Y-56251000D02*
X74123000Y-56560000D01*
X74123000Y-56560000D02*
X73533000Y-57150000D01*
X72771000Y-58187500D02*
X72771000Y-57150000D01*
X73533000Y-57150000D02*
X72771000Y-57150000D01*
X70268000Y-56216000D02*
X70376500Y-56216000D01*
X71202000Y-57150000D02*
X70268000Y-56216000D01*
X72771000Y-57150000D02*
X71202000Y-57150000D01*
X79530001Y-84258000D02*
X57930000Y-84258000D01*
X57930000Y-82771372D01*
X59677955Y-82771372D01*
X59722970Y-82919786D01*
X59847515Y-83180740D01*
X60020577Y-83412383D01*
X60235504Y-83605812D01*
X60484038Y-83753594D01*
X60756627Y-83850050D01*
X60985000Y-83731449D01*
X60985000Y-82543000D01*
X61235000Y-82543000D01*
X61235000Y-83731449D01*
X61463373Y-83850050D01*
X61735962Y-83753594D01*
X61984496Y-83605812D01*
X62199423Y-83412383D01*
X62372485Y-83180740D01*
X62497030Y-82919786D01*
X62542045Y-82771372D01*
X62422812Y-82543000D01*
X61235000Y-82543000D01*
X60985000Y-82543000D01*
X59797188Y-82543000D01*
X59677955Y-82771372D01*
X57930000Y-82771372D01*
X57930000Y-80231372D01*
X59677955Y-80231372D01*
X59722970Y-80379786D01*
X59847515Y-80640740D01*
X60020577Y-80872383D01*
X60235504Y-81065812D01*
X60373725Y-81148000D01*
X60235504Y-81230188D01*
X60020577Y-81423617D01*
X59847515Y-81655260D01*
X59722970Y-81916214D01*
X59677955Y-82064628D01*
X59797188Y-82293000D01*
X60985000Y-82293000D01*
X60985000Y-80003000D01*
X61235000Y-80003000D01*
X61235000Y-82293000D01*
X62422812Y-82293000D01*
X62542045Y-82064628D01*
X62497030Y-81916214D01*
X62372485Y-81655260D01*
X62199423Y-81423617D01*
X61984496Y-81230188D01*
X61846275Y-81148000D01*
X61984496Y-81065812D01*
X62199423Y-80872383D01*
X62372485Y-80640740D01*
X62497030Y-80379786D01*
X62542045Y-80231372D01*
X62422812Y-80003000D01*
X61235000Y-80003000D01*
X60985000Y-80003000D01*
X59797188Y-80003000D01*
X59677955Y-80231372D01*
X57930000Y-80231372D01*
X57930000Y-45534895D01*
X58648000Y-45534895D01*
X58648000Y-45717105D01*
X58683547Y-45895813D01*
X58753275Y-46064152D01*
X58854505Y-46215653D01*
X58983347Y-46344495D01*
X59134848Y-46445725D01*
X59303187Y-46515453D01*
X59481895Y-46551000D01*
X59664105Y-46551000D01*
X59667295Y-46550365D01*
X59635000Y-46712725D01*
X59635000Y-47003275D01*
X59691683Y-47288242D01*
X59802872Y-47556675D01*
X59964293Y-47798258D01*
X60169742Y-48003707D01*
X60355759Y-48128000D01*
X60169742Y-48252293D01*
X59964293Y-48457742D01*
X59802872Y-48699325D01*
X59691683Y-48967758D01*
X59635000Y-49252725D01*
X59635000Y-49543275D01*
X59691683Y-49828242D01*
X59802872Y-50096675D01*
X59964293Y-50338258D01*
X60169742Y-50543707D01*
X60355759Y-50668000D01*
X60169742Y-50792293D01*
X59964293Y-50997742D01*
X59802872Y-51239325D01*
X59691683Y-51507758D01*
X59635000Y-51792725D01*
X59635000Y-52083275D01*
X59678660Y-52302772D01*
X59609848Y-52331275D01*
X59458347Y-52432505D01*
X59329505Y-52561347D01*
X59228275Y-52712848D01*
X59158547Y-52881187D01*
X59123000Y-53059895D01*
X59123000Y-53242105D01*
X59158547Y-53420813D01*
X59228275Y-53589152D01*
X59329505Y-53740653D01*
X59458347Y-53869495D01*
X59609848Y-53970725D01*
X59706934Y-54010939D01*
X59691683Y-54047758D01*
X59635000Y-54332725D01*
X59635000Y-54623275D01*
X59691683Y-54908242D01*
X59802872Y-55176675D01*
X59964293Y-55418258D01*
X60169742Y-55623707D01*
X60355759Y-55748000D01*
X60169742Y-55872293D01*
X59964293Y-56077742D01*
X59802872Y-56319325D01*
X59691683Y-56587758D01*
X59635000Y-56872725D01*
X59635000Y-57163275D01*
X59691683Y-57448242D01*
X59802872Y-57716675D01*
X59964293Y-57958258D01*
X60169742Y-58163707D01*
X60355759Y-58288000D01*
X60169742Y-58412293D01*
X59964293Y-58617742D01*
X59802872Y-58859325D01*
X59691683Y-59127758D01*
X59635000Y-59412725D01*
X59635000Y-59703275D01*
X59691683Y-59988242D01*
X59802872Y-60256675D01*
X59964293Y-60498258D01*
X60169742Y-60703707D01*
X60355759Y-60828000D01*
X60169742Y-60952293D01*
X59964293Y-61157742D01*
X59802872Y-61399325D01*
X59691683Y-61667758D01*
X59635000Y-61952725D01*
X59635000Y-62243275D01*
X59691683Y-62528242D01*
X59802872Y-62796675D01*
X59964293Y-63038258D01*
X60169742Y-63243707D01*
X60355759Y-63368000D01*
X60169742Y-63492293D01*
X59964293Y-63697742D01*
X59802872Y-63939325D01*
X59691683Y-64207758D01*
X59635000Y-64492725D01*
X59635000Y-64783275D01*
X59691683Y-65068242D01*
X59802872Y-65336675D01*
X59964293Y-65578258D01*
X60169742Y-65783707D01*
X60355759Y-65908000D01*
X60169742Y-66032293D01*
X59964293Y-66237742D01*
X59802872Y-66479325D01*
X59691683Y-66747758D01*
X59635000Y-67032725D01*
X59635000Y-67323275D01*
X59691683Y-67608242D01*
X59802872Y-67876675D01*
X59964293Y-68118258D01*
X60169742Y-68323707D01*
X60355759Y-68448000D01*
X60169742Y-68572293D01*
X59964293Y-68777742D01*
X59802872Y-69019325D01*
X59691683Y-69287758D01*
X59635000Y-69572725D01*
X59635000Y-69863275D01*
X59691683Y-70148242D01*
X59802872Y-70416675D01*
X59964293Y-70658258D01*
X60169742Y-70863707D01*
X60355759Y-70988000D01*
X60169742Y-71112293D01*
X59964293Y-71317742D01*
X59802872Y-71559325D01*
X59691683Y-71827758D01*
X59635000Y-72112725D01*
X59635000Y-72403275D01*
X59691683Y-72688242D01*
X59802872Y-72956675D01*
X59964293Y-73198258D01*
X60169742Y-73403707D01*
X60355759Y-73528000D01*
X60169742Y-73652293D01*
X59964293Y-73857742D01*
X59802872Y-74099325D01*
X59691683Y-74367758D01*
X59635000Y-74652725D01*
X59635000Y-74943275D01*
X59691683Y-75228242D01*
X59802872Y-75496675D01*
X59964293Y-75738258D01*
X60169742Y-75943707D01*
X60355759Y-76068000D01*
X60169742Y-76192293D01*
X59964293Y-76397742D01*
X59802872Y-76639325D01*
X59691683Y-76907758D01*
X59635000Y-77192725D01*
X59635000Y-77483275D01*
X59691683Y-77768242D01*
X59802872Y-78036675D01*
X59964293Y-78278258D01*
X60169742Y-78483707D01*
X60364219Y-78613652D01*
X60235504Y-78690188D01*
X60020577Y-78883617D01*
X59847515Y-79115260D01*
X59722970Y-79376214D01*
X59677955Y-79524628D01*
X59797188Y-79753000D01*
X60985000Y-79753000D01*
X60985000Y-79733000D01*
X61235000Y-79733000D01*
X61235000Y-79753000D01*
X62422812Y-79753000D01*
X62542045Y-79524628D01*
X62497030Y-79376214D01*
X62372485Y-79115260D01*
X62199423Y-78883617D01*
X61984496Y-78690188D01*
X61855781Y-78613652D01*
X62050258Y-78483707D01*
X62255707Y-78278258D01*
X62417128Y-78036675D01*
X62528317Y-77768242D01*
X62585000Y-77483275D01*
X62585000Y-77192725D01*
X62528317Y-76907758D01*
X62417128Y-76639325D01*
X62255707Y-76397742D01*
X62050258Y-76192293D01*
X61864241Y-76068000D01*
X62050258Y-75943707D01*
X62255707Y-75738258D01*
X62382834Y-75548000D01*
X63874020Y-75548000D01*
X63880547Y-75580813D01*
X63950275Y-75749152D01*
X64051505Y-75900653D01*
X64180347Y-76029495D01*
X64331848Y-76130725D01*
X64500187Y-76200453D01*
X64678895Y-76236000D01*
X64861105Y-76236000D01*
X65039813Y-76200453D01*
X65208152Y-76130725D01*
X65359653Y-76029495D01*
X65488495Y-75900653D01*
X65589725Y-75749152D01*
X65659453Y-75580813D01*
X65695000Y-75402105D01*
X65695000Y-75219895D01*
X65659453Y-75041187D01*
X65589725Y-74872848D01*
X65488495Y-74721347D01*
X65359653Y-74592505D01*
X65208152Y-74491275D01*
X65039813Y-74421547D01*
X64916722Y-74397063D01*
X64813378Y-74293719D01*
X64789895Y-74265105D01*
X64675693Y-74171381D01*
X64545401Y-74101739D01*
X64404026Y-74058853D01*
X64293835Y-74048000D01*
X64293827Y-74048000D01*
X64257000Y-74044373D01*
X64220173Y-74048000D01*
X62382834Y-74048000D01*
X62255707Y-73857742D01*
X62050258Y-73652293D01*
X61864241Y-73528000D01*
X62050258Y-73403707D01*
X62255707Y-73198258D01*
X62417128Y-72956675D01*
X62528317Y-72688242D01*
X62585000Y-72403275D01*
X62585000Y-72112725D01*
X62528317Y-71827758D01*
X62417128Y-71559325D01*
X62255707Y-71317742D01*
X62050258Y-71112293D01*
X61864241Y-70988000D01*
X62050258Y-70863707D01*
X62255707Y-70658258D01*
X62417128Y-70416675D01*
X62528317Y-70148242D01*
X62585000Y-69863275D01*
X62585000Y-69572725D01*
X62528317Y-69287758D01*
X62417128Y-69019325D01*
X62255707Y-68777742D01*
X62050258Y-68572293D01*
X61864241Y-68448000D01*
X62050258Y-68323707D01*
X62255707Y-68118258D01*
X62417128Y-67876675D01*
X62528317Y-67608242D01*
X62585000Y-67323275D01*
X62585000Y-67032725D01*
X62528317Y-66747758D01*
X62417128Y-66479325D01*
X62255707Y-66237742D01*
X62253965Y-66236000D01*
X63649976Y-66236000D01*
X63649976Y-67936000D01*
X63662043Y-68058521D01*
X63697781Y-68176334D01*
X63755817Y-68284911D01*
X63833920Y-68380080D01*
X63929089Y-68458183D01*
X64037666Y-68516219D01*
X64155479Y-68551957D01*
X64278000Y-68564024D01*
X65978000Y-68564024D01*
X66100521Y-68551957D01*
X66218334Y-68516219D01*
X66326911Y-68458183D01*
X66422080Y-68380080D01*
X66500183Y-68284911D01*
X66558219Y-68176334D01*
X66584787Y-68088752D01*
X66727742Y-68231707D01*
X66969325Y-68393128D01*
X67237758Y-68504317D01*
X67522725Y-68561000D01*
X67813275Y-68561000D01*
X68098242Y-68504317D01*
X68366675Y-68393128D01*
X68608258Y-68231707D01*
X68813707Y-68026258D01*
X68943652Y-67831781D01*
X69020188Y-67960496D01*
X69213617Y-68175423D01*
X69445260Y-68348485D01*
X69706214Y-68473030D01*
X69854628Y-68518045D01*
X70083000Y-68398812D01*
X70083000Y-67211000D01*
X70333000Y-67211000D01*
X70333000Y-68398812D01*
X70561372Y-68518045D01*
X70709786Y-68473030D01*
X70970740Y-68348485D01*
X71202383Y-68175423D01*
X71395812Y-67960496D01*
X71543594Y-67711962D01*
X71640050Y-67439373D01*
X71521449Y-67211000D01*
X70333000Y-67211000D01*
X70083000Y-67211000D01*
X70063000Y-67211000D01*
X70063000Y-66961000D01*
X70083000Y-66961000D01*
X70083000Y-64671000D01*
X70333000Y-64671000D01*
X70333000Y-66961000D01*
X71521449Y-66961000D01*
X71640050Y-66732627D01*
X71543594Y-66460038D01*
X71395812Y-66211504D01*
X71202383Y-65996577D01*
X70970740Y-65823515D01*
X70954994Y-65816000D01*
X70970740Y-65808485D01*
X71202383Y-65635423D01*
X71395812Y-65420496D01*
X71543594Y-65171962D01*
X71640050Y-64899373D01*
X71521449Y-64671000D01*
X70333000Y-64671000D01*
X70083000Y-64671000D01*
X70063000Y-64671000D01*
X70063000Y-64421000D01*
X70083000Y-64421000D01*
X70083000Y-63233188D01*
X70333000Y-63233188D01*
X70333000Y-64421000D01*
X71521449Y-64421000D01*
X71640050Y-64192627D01*
X71543594Y-63920038D01*
X71395812Y-63671504D01*
X71202383Y-63456577D01*
X70970740Y-63283515D01*
X70709786Y-63158970D01*
X70561372Y-63113955D01*
X70333000Y-63233188D01*
X70083000Y-63233188D01*
X69854628Y-63113955D01*
X69706214Y-63158970D01*
X69445260Y-63283515D01*
X69213617Y-63456577D01*
X69020188Y-63671504D01*
X68943652Y-63800219D01*
X68813707Y-63605742D01*
X68608258Y-63400293D01*
X68418000Y-63273166D01*
X68418000Y-58775000D01*
X71417976Y-58775000D01*
X71430043Y-58897521D01*
X71465781Y-59015334D01*
X71523817Y-59123911D01*
X71601920Y-59219080D01*
X71697089Y-59297183D01*
X71805666Y-59355219D01*
X71923479Y-59390957D01*
X72046000Y-59403024D01*
X72489750Y-59400000D01*
X72646000Y-59243750D01*
X72646000Y-58312500D01*
X72896000Y-58312500D01*
X72896000Y-59243750D01*
X73052250Y-59400000D01*
X73496000Y-59403024D01*
X73618521Y-59390957D01*
X73736334Y-59355219D01*
X73844911Y-59297183D01*
X73940080Y-59219080D01*
X74018183Y-59123911D01*
X74076219Y-59015334D01*
X74111957Y-58897521D01*
X74124024Y-58775000D01*
X74121000Y-58468750D01*
X73964750Y-58312500D01*
X72896000Y-58312500D01*
X72646000Y-58312500D01*
X71577250Y-58312500D01*
X71421000Y-58468750D01*
X71417976Y-58775000D01*
X68418000Y-58775000D01*
X68418000Y-57417832D01*
X68421627Y-57381004D01*
X68418000Y-57344176D01*
X68418000Y-57344169D01*
X68407147Y-57233978D01*
X68364261Y-57092603D01*
X68294619Y-56962311D01*
X68224376Y-56876720D01*
X68224374Y-56876718D01*
X68200895Y-56848109D01*
X68172286Y-56824630D01*
X67842937Y-56495282D01*
X67818453Y-56372191D01*
X67748725Y-56203852D01*
X67647495Y-56052351D01*
X67518653Y-55923509D01*
X67367152Y-55822279D01*
X67198813Y-55752551D01*
X67020105Y-55717004D01*
X66837895Y-55717004D01*
X66659187Y-55752551D01*
X66490848Y-55822279D01*
X66339347Y-55923509D01*
X66210505Y-56052351D01*
X66109275Y-56203852D01*
X66039547Y-56372191D01*
X66004000Y-56550899D01*
X66004000Y-56733109D01*
X66039547Y-56911817D01*
X66109275Y-57080156D01*
X66210505Y-57231657D01*
X66339347Y-57360499D01*
X66490848Y-57461729D01*
X66659187Y-57531457D01*
X66782278Y-57555941D01*
X66918001Y-57691665D01*
X66918000Y-63273166D01*
X66727742Y-63400293D01*
X66522293Y-63605742D01*
X66398000Y-63791759D01*
X66273707Y-63605742D01*
X66068258Y-63400293D01*
X65826675Y-63238872D01*
X65558242Y-63127683D01*
X65273275Y-63071000D01*
X64982725Y-63071000D01*
X64697758Y-63127683D01*
X64429325Y-63238872D01*
X64187742Y-63400293D01*
X63982293Y-63605742D01*
X63820872Y-63847325D01*
X63709683Y-64115758D01*
X63653000Y-64400725D01*
X63653000Y-64691275D01*
X63709683Y-64976242D01*
X63820872Y-65244675D01*
X63982293Y-65486258D01*
X64125248Y-65629213D01*
X64037666Y-65655781D01*
X63929089Y-65713817D01*
X63833920Y-65791920D01*
X63755817Y-65887089D01*
X63697781Y-65995666D01*
X63662043Y-66113479D01*
X63649976Y-66236000D01*
X62253965Y-66236000D01*
X62050258Y-66032293D01*
X61864241Y-65908000D01*
X62050258Y-65783707D01*
X62255707Y-65578258D01*
X62417128Y-65336675D01*
X62528317Y-65068242D01*
X62585000Y-64783275D01*
X62585000Y-64492725D01*
X62528317Y-64207758D01*
X62417128Y-63939325D01*
X62255707Y-63697742D01*
X62050258Y-63492293D01*
X61864241Y-63368000D01*
X62050258Y-63243707D01*
X62255707Y-63038258D01*
X62417128Y-62796675D01*
X62528317Y-62528242D01*
X62585000Y-62243275D01*
X62585000Y-61952725D01*
X62528317Y-61667758D01*
X62417128Y-61399325D01*
X62255707Y-61157742D01*
X62050258Y-60952293D01*
X61864241Y-60828000D01*
X62050258Y-60703707D01*
X62255707Y-60498258D01*
X62417128Y-60256675D01*
X62528317Y-59988242D01*
X62585000Y-59703275D01*
X62585000Y-59412725D01*
X62528317Y-59127758D01*
X62417128Y-58859325D01*
X62255707Y-58617742D01*
X62050258Y-58412293D01*
X61864241Y-58288000D01*
X62050258Y-58163707D01*
X62255707Y-57958258D01*
X62417128Y-57716675D01*
X62528317Y-57448242D01*
X62585000Y-57163275D01*
X62585000Y-56872725D01*
X62528317Y-56587758D01*
X62417128Y-56319325D01*
X62255707Y-56077742D01*
X62050258Y-55872293D01*
X61864241Y-55748000D01*
X62050258Y-55623707D01*
X62109070Y-55564895D01*
X68553000Y-55564895D01*
X68553000Y-55747105D01*
X68588547Y-55925813D01*
X68658275Y-56094152D01*
X68759505Y-56245653D01*
X68888347Y-56374495D01*
X69039848Y-56475725D01*
X69208187Y-56545453D01*
X69386895Y-56581000D01*
X69569105Y-56581000D01*
X69747813Y-56545453D01*
X69916152Y-56475725D01*
X70067653Y-56374495D01*
X70196495Y-56245653D01*
X70297725Y-56094152D01*
X70367453Y-55925813D01*
X70391937Y-55802722D01*
X70482280Y-55712379D01*
X70510895Y-55688895D01*
X70604619Y-55574693D01*
X70674261Y-55444401D01*
X70717147Y-55303026D01*
X70728000Y-55192835D01*
X70728000Y-55192828D01*
X70731627Y-55156000D01*
X70728000Y-55119172D01*
X70728000Y-54836395D01*
X71147500Y-54836395D01*
X71147500Y-55018605D01*
X71183047Y-55197313D01*
X71252775Y-55365652D01*
X71354005Y-55517153D01*
X71436176Y-55599324D01*
X71434847Y-55603706D01*
X71417976Y-55775000D01*
X71417976Y-56450000D01*
X71434847Y-56621294D01*
X71484812Y-56786005D01*
X71565950Y-56937804D01*
X71675143Y-57070857D01*
X71690356Y-57083342D01*
X71601920Y-57155920D01*
X71523817Y-57251089D01*
X71465781Y-57359666D01*
X71430043Y-57477479D01*
X71417976Y-57600000D01*
X71421000Y-57906250D01*
X71577250Y-58062500D01*
X72646000Y-58062500D01*
X72646000Y-58042500D01*
X72896000Y-58042500D01*
X72896000Y-58062500D01*
X73964750Y-58062500D01*
X74121000Y-57906250D01*
X74124024Y-57600000D01*
X74111957Y-57477479D01*
X74076219Y-57359666D01*
X74018183Y-57251089D01*
X73940080Y-57155920D01*
X73851644Y-57083342D01*
X73866857Y-57070857D01*
X73976050Y-56937804D01*
X74057188Y-56786005D01*
X74107153Y-56621294D01*
X74124024Y-56450000D01*
X74124024Y-55899766D01*
X74238001Y-56013743D01*
X74238000Y-58159172D01*
X74234373Y-58196000D01*
X74238000Y-58232827D01*
X74238000Y-58232834D01*
X74248853Y-58343025D01*
X74291739Y-58484400D01*
X74361381Y-58614692D01*
X74455105Y-58728895D01*
X74483719Y-58752378D01*
X74919641Y-59188300D01*
X74875000Y-59412725D01*
X74875000Y-59703275D01*
X74931683Y-59988242D01*
X75042872Y-60256675D01*
X75204293Y-60498258D01*
X75409742Y-60703707D01*
X75595759Y-60828000D01*
X75409742Y-60952293D01*
X75204293Y-61157742D01*
X75042872Y-61399325D01*
X74931683Y-61667758D01*
X74875000Y-61952725D01*
X74875000Y-62243275D01*
X74931683Y-62528242D01*
X75042872Y-62796675D01*
X75204293Y-63038258D01*
X75409742Y-63243707D01*
X75595759Y-63368000D01*
X75409742Y-63492293D01*
X75204293Y-63697742D01*
X75042872Y-63939325D01*
X74931683Y-64207758D01*
X74875000Y-64492725D01*
X74875000Y-64783275D01*
X74931683Y-65068242D01*
X75042872Y-65336675D01*
X75204293Y-65578258D01*
X75409742Y-65783707D01*
X75595759Y-65908000D01*
X75409742Y-66032293D01*
X75204293Y-66237742D01*
X75042872Y-66479325D01*
X74931683Y-66747758D01*
X74875000Y-67032725D01*
X74875000Y-67323275D01*
X74931683Y-67608242D01*
X75042872Y-67876675D01*
X75204293Y-68118258D01*
X75409742Y-68323707D01*
X75595759Y-68448000D01*
X75409742Y-68572293D01*
X75204293Y-68777742D01*
X75042872Y-69019325D01*
X74931683Y-69287758D01*
X74875000Y-69572725D01*
X74875000Y-69863275D01*
X74931683Y-70148242D01*
X75042872Y-70416675D01*
X75204293Y-70658258D01*
X75409742Y-70863707D01*
X75595759Y-70988000D01*
X75409742Y-71112293D01*
X75204293Y-71317742D01*
X75042872Y-71559325D01*
X74931683Y-71827758D01*
X74875000Y-72112725D01*
X74875000Y-72403275D01*
X74931683Y-72688242D01*
X75042872Y-72956675D01*
X75204293Y-73198258D01*
X75409742Y-73403707D01*
X75595759Y-73528000D01*
X75409742Y-73652293D01*
X75204293Y-73857742D01*
X75042872Y-74099325D01*
X74931683Y-74367758D01*
X74875000Y-74652725D01*
X74875000Y-74943275D01*
X74931683Y-75228242D01*
X75042872Y-75496675D01*
X75204293Y-75738258D01*
X75409742Y-75943707D01*
X75595759Y-76068000D01*
X75409742Y-76192293D01*
X75204293Y-76397742D01*
X75042872Y-76639325D01*
X74931683Y-76907758D01*
X74875000Y-77192725D01*
X74875000Y-77483275D01*
X74931683Y-77768242D01*
X75042872Y-78036675D01*
X75204293Y-78278258D01*
X75409742Y-78483707D01*
X75595759Y-78608000D01*
X75409742Y-78732293D01*
X75204293Y-78937742D01*
X75042872Y-79179325D01*
X74931683Y-79447758D01*
X74875000Y-79732725D01*
X74875000Y-80023275D01*
X74931683Y-80308242D01*
X75042872Y-80576675D01*
X75204293Y-80818258D01*
X75409742Y-81023707D01*
X75595759Y-81148000D01*
X75409742Y-81272293D01*
X75204293Y-81477742D01*
X75042872Y-81719325D01*
X74931683Y-81987758D01*
X74875000Y-82272725D01*
X74875000Y-82563275D01*
X74931683Y-82848242D01*
X75042872Y-83116675D01*
X75204293Y-83358258D01*
X75409742Y-83563707D01*
X75651325Y-83725128D01*
X75919758Y-83836317D01*
X76204725Y-83893000D01*
X76495275Y-83893000D01*
X76780242Y-83836317D01*
X77048675Y-83725128D01*
X77290258Y-83563707D01*
X77495707Y-83358258D01*
X77657128Y-83116675D01*
X77768317Y-82848242D01*
X77825000Y-82563275D01*
X77825000Y-82272725D01*
X77768317Y-81987758D01*
X77657128Y-81719325D01*
X77495707Y-81477742D01*
X77290258Y-81272293D01*
X77104241Y-81148000D01*
X77290258Y-81023707D01*
X77495707Y-80818258D01*
X77657128Y-80576675D01*
X77768317Y-80308242D01*
X77825000Y-80023275D01*
X77825000Y-79732725D01*
X77768317Y-79447758D01*
X77657128Y-79179325D01*
X77495707Y-78937742D01*
X77290258Y-78732293D01*
X77104241Y-78608000D01*
X77290258Y-78483707D01*
X77495707Y-78278258D01*
X77657128Y-78036675D01*
X77768317Y-77768242D01*
X77825000Y-77483275D01*
X77825000Y-77192725D01*
X77768317Y-76907758D01*
X77657128Y-76639325D01*
X77495707Y-76397742D01*
X77290258Y-76192293D01*
X77104241Y-76068000D01*
X77290258Y-75943707D01*
X77495707Y-75738258D01*
X77657128Y-75496675D01*
X77768317Y-75228242D01*
X77825000Y-74943275D01*
X77825000Y-74652725D01*
X77768317Y-74367758D01*
X77657128Y-74099325D01*
X77495707Y-73857742D01*
X77290258Y-73652293D01*
X77104241Y-73528000D01*
X77290258Y-73403707D01*
X77495707Y-73198258D01*
X77657128Y-72956675D01*
X77768317Y-72688242D01*
X77825000Y-72403275D01*
X77825000Y-72112725D01*
X77768317Y-71827758D01*
X77657128Y-71559325D01*
X77495707Y-71317742D01*
X77290258Y-71112293D01*
X77104241Y-70988000D01*
X77290258Y-70863707D01*
X77495707Y-70658258D01*
X77657128Y-70416675D01*
X77768317Y-70148242D01*
X77825000Y-69863275D01*
X77825000Y-69572725D01*
X77768317Y-69287758D01*
X77657128Y-69019325D01*
X77495707Y-68777742D01*
X77290258Y-68572293D01*
X77104241Y-68448000D01*
X77290258Y-68323707D01*
X77495707Y-68118258D01*
X77657128Y-67876675D01*
X77768317Y-67608242D01*
X77825000Y-67323275D01*
X77825000Y-67032725D01*
X77768317Y-66747758D01*
X77657128Y-66479325D01*
X77495707Y-66237742D01*
X77290258Y-66032293D01*
X77104241Y-65908000D01*
X77290258Y-65783707D01*
X77495707Y-65578258D01*
X77657128Y-65336675D01*
X77768317Y-65068242D01*
X77825000Y-64783275D01*
X77825000Y-64492725D01*
X77768317Y-64207758D01*
X77657128Y-63939325D01*
X77495707Y-63697742D01*
X77290258Y-63492293D01*
X77104241Y-63368000D01*
X77290258Y-63243707D01*
X77495707Y-63038258D01*
X77657128Y-62796675D01*
X77768317Y-62528242D01*
X77825000Y-62243275D01*
X77825000Y-61952725D01*
X77768317Y-61667758D01*
X77657128Y-61399325D01*
X77495707Y-61157742D01*
X77290258Y-60952293D01*
X77104241Y-60828000D01*
X77290258Y-60703707D01*
X77495707Y-60498258D01*
X77657128Y-60256675D01*
X77768317Y-59988242D01*
X77825000Y-59703275D01*
X77825000Y-59412725D01*
X77768317Y-59127758D01*
X77657128Y-58859325D01*
X77495707Y-58617742D01*
X77290258Y-58412293D01*
X77104241Y-58288000D01*
X77290258Y-58163707D01*
X77495707Y-57958258D01*
X77657128Y-57716675D01*
X77768317Y-57448242D01*
X77825000Y-57163275D01*
X77825000Y-56872725D01*
X77768317Y-56587758D01*
X77750546Y-56544855D01*
X77797813Y-56535453D01*
X77966152Y-56465725D01*
X78117653Y-56364495D01*
X78246495Y-56235653D01*
X78347725Y-56084152D01*
X78417453Y-55915813D01*
X78453000Y-55737105D01*
X78453000Y-55554895D01*
X78417453Y-55376187D01*
X78347725Y-55207848D01*
X78246495Y-55056347D01*
X78117653Y-54927505D01*
X77966152Y-54826275D01*
X77798439Y-54756806D01*
X77825000Y-54623275D01*
X77825000Y-54332725D01*
X77788883Y-54151153D01*
X77867813Y-54135453D01*
X78036152Y-54065725D01*
X78187653Y-53964495D01*
X78316495Y-53835653D01*
X78417725Y-53684152D01*
X78487453Y-53515813D01*
X78523000Y-53337105D01*
X78523000Y-53154895D01*
X78487453Y-52976187D01*
X78417725Y-52807848D01*
X78316495Y-52656347D01*
X78187653Y-52527505D01*
X78036152Y-52426275D01*
X77867813Y-52356547D01*
X77774342Y-52337954D01*
X77825000Y-52083275D01*
X77825000Y-51792725D01*
X77768317Y-51507758D01*
X77657128Y-51239325D01*
X77495707Y-50997742D01*
X77290258Y-50792293D01*
X77104241Y-50668000D01*
X77290258Y-50543707D01*
X77495707Y-50338258D01*
X77657128Y-50096675D01*
X77768317Y-49828242D01*
X77825000Y-49543275D01*
X77825000Y-49252725D01*
X77768317Y-48967758D01*
X77657128Y-48699325D01*
X77495707Y-48457742D01*
X77290258Y-48252293D01*
X77104241Y-48128000D01*
X77290258Y-48003707D01*
X77495707Y-47798258D01*
X77657128Y-47556675D01*
X77768317Y-47288242D01*
X77825000Y-47003275D01*
X77825000Y-46712725D01*
X77768317Y-46427758D01*
X77657128Y-46159325D01*
X77495707Y-45917742D01*
X77290258Y-45712293D01*
X77104241Y-45588000D01*
X77290258Y-45463707D01*
X77495707Y-45258258D01*
X77657128Y-45016675D01*
X77768317Y-44748242D01*
X77825000Y-44463275D01*
X77825000Y-44172725D01*
X77768317Y-43887758D01*
X77657128Y-43619325D01*
X77495707Y-43377742D01*
X77290258Y-43172293D01*
X77104241Y-43048000D01*
X77290258Y-42923707D01*
X77495707Y-42718258D01*
X77657128Y-42476675D01*
X77768317Y-42208242D01*
X77825000Y-41923275D01*
X77825000Y-41632725D01*
X77768317Y-41347758D01*
X77657128Y-41079325D01*
X77495707Y-40837742D01*
X77290258Y-40632293D01*
X77104241Y-40508000D01*
X77290258Y-40383707D01*
X77495707Y-40178258D01*
X77657128Y-39936675D01*
X77768317Y-39668242D01*
X77825000Y-39383275D01*
X77825000Y-39092725D01*
X77768317Y-38807758D01*
X77657128Y-38539325D01*
X77495707Y-38297742D01*
X77290258Y-38092293D01*
X77095781Y-37962348D01*
X77224496Y-37885812D01*
X77439423Y-37692383D01*
X77612485Y-37460740D01*
X77737030Y-37199786D01*
X77782045Y-37051372D01*
X77662812Y-36823000D01*
X76475000Y-36823000D01*
X76475000Y-36843000D01*
X76225000Y-36843000D01*
X76225000Y-36823000D01*
X75037188Y-36823000D01*
X74917955Y-37051372D01*
X74962970Y-37199786D01*
X75087515Y-37460740D01*
X75260577Y-37692383D01*
X75475504Y-37885812D01*
X75604219Y-37962348D01*
X75409742Y-38092293D01*
X75204293Y-38297742D01*
X75042872Y-38539325D01*
X74931683Y-38807758D01*
X74875000Y-39092725D01*
X74875000Y-39383275D01*
X74931683Y-39668242D01*
X75042872Y-39936675D01*
X75204293Y-40178258D01*
X75409742Y-40383707D01*
X75595759Y-40508000D01*
X75409742Y-40632293D01*
X75204293Y-40837742D01*
X75042872Y-41079325D01*
X74931683Y-41347758D01*
X74875000Y-41632725D01*
X74875000Y-41923275D01*
X74931683Y-42208242D01*
X75042872Y-42476675D01*
X75204293Y-42718258D01*
X75409742Y-42923707D01*
X75595759Y-43048000D01*
X75409742Y-43172293D01*
X75204293Y-43377742D01*
X75042872Y-43619325D01*
X74931683Y-43887758D01*
X74875000Y-44172725D01*
X74875000Y-44463275D01*
X74931683Y-44748242D01*
X75042872Y-45016675D01*
X75204293Y-45258258D01*
X75409742Y-45463707D01*
X75595759Y-45588000D01*
X75409742Y-45712293D01*
X75204293Y-45917742D01*
X75042872Y-46159325D01*
X74931683Y-46427758D01*
X74875000Y-46712725D01*
X74875000Y-47003275D01*
X74931683Y-47288242D01*
X75042872Y-47556675D01*
X75204293Y-47798258D01*
X75409742Y-48003707D01*
X75595759Y-48128000D01*
X75409742Y-48252293D01*
X75204293Y-48457742D01*
X75042872Y-48699325D01*
X74931683Y-48967758D01*
X74875000Y-49252725D01*
X74875000Y-49543275D01*
X74931683Y-49828242D01*
X75042872Y-50096675D01*
X75204293Y-50338258D01*
X75409742Y-50543707D01*
X75595759Y-50668000D01*
X75409742Y-50792293D01*
X75204293Y-50997742D01*
X75042872Y-51239325D01*
X74931683Y-51507758D01*
X74875000Y-51792725D01*
X74875000Y-52083275D01*
X74931683Y-52368242D01*
X74984602Y-52496000D01*
X74553890Y-52496000D01*
X74532937Y-52475047D01*
X74381436Y-52373817D01*
X74213097Y-52304089D01*
X74034389Y-52268542D01*
X73852179Y-52268542D01*
X73673471Y-52304089D01*
X73505132Y-52373817D01*
X73353631Y-52475047D01*
X73224789Y-52603889D01*
X73123559Y-52755390D01*
X73083698Y-52851623D01*
X73071001Y-52850372D01*
X73034174Y-52853999D01*
X72500565Y-52853999D01*
X72463737Y-52850372D01*
X72426909Y-52853999D01*
X72426902Y-52853999D01*
X72316711Y-52864852D01*
X72175336Y-52907738D01*
X72045044Y-52977380D01*
X71930842Y-53071104D01*
X71907358Y-53099719D01*
X71568220Y-53438857D01*
X71539605Y-53462341D01*
X71445881Y-53576544D01*
X71376239Y-53706836D01*
X71333353Y-53848211D01*
X71322500Y-53958402D01*
X71322500Y-53958409D01*
X71318873Y-53995236D01*
X71322500Y-54032064D01*
X71322500Y-54384997D01*
X71252775Y-54489348D01*
X71183047Y-54657687D01*
X71147500Y-54836395D01*
X70728000Y-54836395D01*
X70728000Y-53958706D01*
X70737725Y-53944152D01*
X70807453Y-53775813D01*
X70843000Y-53597105D01*
X70843000Y-53414895D01*
X70807453Y-53236187D01*
X70737725Y-53067848D01*
X70636495Y-52916347D01*
X70507653Y-52787505D01*
X70356152Y-52686275D01*
X70187813Y-52616547D01*
X70009105Y-52581000D01*
X69826895Y-52581000D01*
X69648187Y-52616547D01*
X69479848Y-52686275D01*
X69328347Y-52787505D01*
X69199505Y-52916347D01*
X69098275Y-53067848D01*
X69028547Y-53236187D01*
X68993000Y-53414895D01*
X68993000Y-53597105D01*
X69028547Y-53775813D01*
X69098275Y-53944152D01*
X69199505Y-54095653D01*
X69228000Y-54124148D01*
X69228001Y-54762606D01*
X69208187Y-54766547D01*
X69039848Y-54836275D01*
X68888347Y-54937505D01*
X68759505Y-55066347D01*
X68658275Y-55217848D01*
X68588547Y-55386187D01*
X68553000Y-55564895D01*
X62109070Y-55564895D01*
X62255707Y-55418258D01*
X62417128Y-55176675D01*
X62528317Y-54908242D01*
X62585000Y-54623275D01*
X62585000Y-54332725D01*
X62528317Y-54047758D01*
X62434597Y-53821500D01*
X62516693Y-53777619D01*
X62630895Y-53683895D01*
X62654378Y-53655281D01*
X63733670Y-52575990D01*
X66770506Y-52575990D01*
X66874857Y-52645715D01*
X67043196Y-52715443D01*
X67221904Y-52750990D01*
X67404114Y-52750990D01*
X67582822Y-52715443D01*
X67751161Y-52645715D01*
X67902662Y-52544485D01*
X68031504Y-52415643D01*
X68132734Y-52264142D01*
X68202462Y-52095803D01*
X68238009Y-51917095D01*
X68238009Y-51734885D01*
X68202462Y-51556177D01*
X68132734Y-51387838D01*
X68085023Y-51316434D01*
X68207653Y-51234495D01*
X68336495Y-51105653D01*
X68437725Y-50954152D01*
X68507453Y-50785813D01*
X68531937Y-50662722D01*
X70163787Y-49030873D01*
X70192395Y-49007395D01*
X70286119Y-48893193D01*
X70355761Y-48762901D01*
X70398647Y-48621526D01*
X70409500Y-48511335D01*
X70409500Y-48511328D01*
X70413127Y-48474500D01*
X70409500Y-48437673D01*
X70409500Y-47405503D01*
X70479225Y-47301152D01*
X70548953Y-47132813D01*
X70584500Y-46954105D01*
X70584500Y-46771895D01*
X70548953Y-46593187D01*
X70479225Y-46424848D01*
X70377995Y-46273347D01*
X70249153Y-46144505D01*
X70097652Y-46043275D01*
X69929313Y-45973547D01*
X69750605Y-45938000D01*
X69568395Y-45938000D01*
X69389687Y-45973547D01*
X69221348Y-46043275D01*
X69069847Y-46144505D01*
X68941005Y-46273347D01*
X68839775Y-46424848D01*
X68770047Y-46593187D01*
X68734500Y-46771895D01*
X68734500Y-46954105D01*
X68770047Y-47132813D01*
X68839775Y-47301152D01*
X68909501Y-47405504D01*
X68909500Y-48163840D01*
X68875848Y-48197492D01*
X68856503Y-48100237D01*
X68786775Y-47931898D01*
X68685545Y-47780397D01*
X68556703Y-47651555D01*
X68405202Y-47550325D01*
X68236863Y-47480597D01*
X68058155Y-47445050D01*
X67875945Y-47445050D01*
X67711213Y-47477817D01*
X63488000Y-43254605D01*
X63488000Y-35609555D01*
X63490184Y-35549386D01*
X63482113Y-35499391D01*
X63477147Y-35448974D01*
X63470363Y-35426609D01*
X63466638Y-35403538D01*
X63448965Y-35356072D01*
X63434261Y-35307599D01*
X63423242Y-35286984D01*
X63415089Y-35265086D01*
X63388500Y-35221986D01*
X63364619Y-35177307D01*
X63349792Y-35159240D01*
X63337522Y-35139351D01*
X63303023Y-35102253D01*
X63270895Y-35063105D01*
X63224356Y-35024912D01*
X62588024Y-34462845D01*
X62588024Y-34160773D01*
X63487950Y-34160773D01*
X63584406Y-34433362D01*
X63732188Y-34681896D01*
X63925617Y-34896823D01*
X64157260Y-35069885D01*
X64418214Y-35194430D01*
X64566628Y-35239445D01*
X64795000Y-35120212D01*
X64795000Y-33932400D01*
X63606551Y-33932400D01*
X63487950Y-34160773D01*
X62588024Y-34160773D01*
X62588024Y-33454027D01*
X63487950Y-33454027D01*
X63606551Y-33682400D01*
X64795000Y-33682400D01*
X64795000Y-32494588D01*
X65045000Y-32494588D01*
X65045000Y-33682400D01*
X65065000Y-33682400D01*
X65065000Y-33932400D01*
X65045000Y-33932400D01*
X65045000Y-35120212D01*
X65273372Y-35239445D01*
X65421786Y-35194430D01*
X65682740Y-35069885D01*
X65914383Y-34896823D01*
X66107812Y-34681896D01*
X66184348Y-34553181D01*
X66314293Y-34747658D01*
X66519742Y-34953107D01*
X66761325Y-35114528D01*
X67029758Y-35225717D01*
X67314725Y-35282400D01*
X67605275Y-35282400D01*
X67890242Y-35225717D01*
X68158675Y-35114528D01*
X68400258Y-34953107D01*
X68605707Y-34747658D01*
X68730000Y-34561641D01*
X68854293Y-34747658D01*
X69059742Y-34953107D01*
X69301325Y-35114528D01*
X69569758Y-35225717D01*
X69854725Y-35282400D01*
X70145275Y-35282400D01*
X70430242Y-35225717D01*
X70698675Y-35114528D01*
X70940258Y-34953107D01*
X71083213Y-34810152D01*
X71109781Y-34897734D01*
X71167817Y-35006311D01*
X71245920Y-35101480D01*
X71341089Y-35179583D01*
X71449666Y-35237619D01*
X71567479Y-35273357D01*
X71690000Y-35285424D01*
X73390000Y-35285424D01*
X73512521Y-35273357D01*
X73630334Y-35237619D01*
X73738911Y-35179583D01*
X73834080Y-35101480D01*
X73912183Y-35006311D01*
X73970219Y-34897734D01*
X74005957Y-34779921D01*
X74018024Y-34657400D01*
X74018024Y-33308000D01*
X74871976Y-33308000D01*
X74871976Y-35008000D01*
X74884043Y-35130521D01*
X74919781Y-35248334D01*
X74977817Y-35356911D01*
X75055920Y-35452080D01*
X75151089Y-35530183D01*
X75259666Y-35588219D01*
X75356247Y-35617516D01*
X75260577Y-35703617D01*
X75087515Y-35935260D01*
X74962970Y-36196214D01*
X74917955Y-36344628D01*
X75037188Y-36573000D01*
X76225000Y-36573000D01*
X76225000Y-36553000D01*
X76475000Y-36553000D01*
X76475000Y-36573000D01*
X77662812Y-36573000D01*
X77782045Y-36344628D01*
X77737030Y-36196214D01*
X77612485Y-35935260D01*
X77439423Y-35703617D01*
X77343753Y-35617516D01*
X77440334Y-35588219D01*
X77548911Y-35530183D01*
X77644080Y-35452080D01*
X77722183Y-35356911D01*
X77780219Y-35248334D01*
X77815957Y-35130521D01*
X77828024Y-35008000D01*
X77828024Y-33308000D01*
X77815957Y-33185479D01*
X77780219Y-33067666D01*
X77722183Y-32959089D01*
X77644080Y-32863920D01*
X77548911Y-32785817D01*
X77440334Y-32727781D01*
X77322521Y-32692043D01*
X77200000Y-32679976D01*
X75500000Y-32679976D01*
X75377479Y-32692043D01*
X75259666Y-32727781D01*
X75151089Y-32785817D01*
X75055920Y-32863920D01*
X74977817Y-32959089D01*
X74919781Y-33067666D01*
X74884043Y-33185479D01*
X74871976Y-33308000D01*
X74018024Y-33308000D01*
X74018024Y-32957400D01*
X74005957Y-32834879D01*
X73970219Y-32717066D01*
X73912183Y-32608489D01*
X73834080Y-32513320D01*
X73738911Y-32435217D01*
X73630334Y-32377181D01*
X73512521Y-32341443D01*
X73390000Y-32329376D01*
X71690000Y-32329376D01*
X71567479Y-32341443D01*
X71449666Y-32377181D01*
X71341089Y-32435217D01*
X71245920Y-32513320D01*
X71167817Y-32608489D01*
X71109781Y-32717066D01*
X71083213Y-32804648D01*
X70940258Y-32661693D01*
X70698675Y-32500272D01*
X70430242Y-32389083D01*
X70145275Y-32332400D01*
X69854725Y-32332400D01*
X69569758Y-32389083D01*
X69301325Y-32500272D01*
X69059742Y-32661693D01*
X68854293Y-32867142D01*
X68730000Y-33053159D01*
X68605707Y-32867142D01*
X68400258Y-32661693D01*
X68158675Y-32500272D01*
X67890242Y-32389083D01*
X67605275Y-32332400D01*
X67314725Y-32332400D01*
X67029758Y-32389083D01*
X66761325Y-32500272D01*
X66519742Y-32661693D01*
X66314293Y-32867142D01*
X66184348Y-33061619D01*
X66107812Y-32932904D01*
X65914383Y-32717977D01*
X65682740Y-32544915D01*
X65421786Y-32420370D01*
X65273372Y-32375355D01*
X65045000Y-32494588D01*
X64795000Y-32494588D01*
X64566628Y-32375355D01*
X64418214Y-32420370D01*
X64157260Y-32544915D01*
X63925617Y-32717977D01*
X63732188Y-32932904D01*
X63584406Y-33181438D01*
X63487950Y-33454027D01*
X62588024Y-33454027D01*
X62588024Y-33308000D01*
X62575957Y-33185479D01*
X62540219Y-33067666D01*
X62482183Y-32959089D01*
X62404080Y-32863920D01*
X62308911Y-32785817D01*
X62200334Y-32727781D01*
X62082521Y-32692043D01*
X61960000Y-32679976D01*
X60260000Y-32679976D01*
X60137479Y-32692043D01*
X60019666Y-32727781D01*
X59911089Y-32785817D01*
X59815920Y-32863920D01*
X59737817Y-32959089D01*
X59679781Y-33067666D01*
X59644043Y-33185479D01*
X59631976Y-33308000D01*
X59631976Y-35008000D01*
X59644043Y-35130521D01*
X59679781Y-35248334D01*
X59737817Y-35356911D01*
X59815920Y-35452080D01*
X59911089Y-35530183D01*
X60019666Y-35588219D01*
X60107248Y-35614787D01*
X59964293Y-35757742D01*
X59802872Y-35999325D01*
X59691683Y-36267758D01*
X59635000Y-36552725D01*
X59635000Y-36843275D01*
X59691683Y-37128242D01*
X59802872Y-37396675D01*
X59964293Y-37638258D01*
X60169742Y-37843707D01*
X60355759Y-37968000D01*
X60169742Y-38092293D01*
X59964293Y-38297742D01*
X59802872Y-38539325D01*
X59691683Y-38807758D01*
X59635000Y-39092725D01*
X59635000Y-39383275D01*
X59691683Y-39668242D01*
X59802872Y-39936675D01*
X59964293Y-40178258D01*
X60169742Y-40383707D01*
X60355759Y-40508000D01*
X60169742Y-40632293D01*
X59964293Y-40837742D01*
X59802872Y-41079325D01*
X59691683Y-41347758D01*
X59635000Y-41632725D01*
X59635000Y-41923275D01*
X59691683Y-42208242D01*
X59802872Y-42476675D01*
X59964293Y-42718258D01*
X60169742Y-42923707D01*
X60355759Y-43048000D01*
X60169742Y-43172293D01*
X59964293Y-43377742D01*
X59802872Y-43619325D01*
X59691683Y-43887758D01*
X59635000Y-44172725D01*
X59635000Y-44463275D01*
X59683035Y-44704765D01*
X59664105Y-44701000D01*
X59481895Y-44701000D01*
X59303187Y-44736547D01*
X59134848Y-44806275D01*
X58983347Y-44907505D01*
X58854505Y-45036347D01*
X58753275Y-45187848D01*
X58683547Y-45356187D01*
X58648000Y-45534895D01*
X57930000Y-45534895D01*
X57930000Y-31048000D01*
X79530000Y-31048000D01*
X79530001Y-84258000D01*
G04 #@! TA.AperFunction,Conductor*
D14*
G36*
X79530001Y-84258000D02*
G01*
X57930000Y-84258000D01*
X57930000Y-82771372D01*
X59677955Y-82771372D01*
X59722970Y-82919786D01*
X59847515Y-83180740D01*
X60020577Y-83412383D01*
X60235504Y-83605812D01*
X60484038Y-83753594D01*
X60756627Y-83850050D01*
X60985000Y-83731449D01*
X60985000Y-82543000D01*
X61235000Y-82543000D01*
X61235000Y-83731449D01*
X61463373Y-83850050D01*
X61735962Y-83753594D01*
X61984496Y-83605812D01*
X62199423Y-83412383D01*
X62372485Y-83180740D01*
X62497030Y-82919786D01*
X62542045Y-82771372D01*
X62422812Y-82543000D01*
X61235000Y-82543000D01*
X60985000Y-82543000D01*
X59797188Y-82543000D01*
X59677955Y-82771372D01*
X57930000Y-82771372D01*
X57930000Y-80231372D01*
X59677955Y-80231372D01*
X59722970Y-80379786D01*
X59847515Y-80640740D01*
X60020577Y-80872383D01*
X60235504Y-81065812D01*
X60373725Y-81148000D01*
X60235504Y-81230188D01*
X60020577Y-81423617D01*
X59847515Y-81655260D01*
X59722970Y-81916214D01*
X59677955Y-82064628D01*
X59797188Y-82293000D01*
X60985000Y-82293000D01*
X60985000Y-80003000D01*
X61235000Y-80003000D01*
X61235000Y-82293000D01*
X62422812Y-82293000D01*
X62542045Y-82064628D01*
X62497030Y-81916214D01*
X62372485Y-81655260D01*
X62199423Y-81423617D01*
X61984496Y-81230188D01*
X61846275Y-81148000D01*
X61984496Y-81065812D01*
X62199423Y-80872383D01*
X62372485Y-80640740D01*
X62497030Y-80379786D01*
X62542045Y-80231372D01*
X62422812Y-80003000D01*
X61235000Y-80003000D01*
X60985000Y-80003000D01*
X59797188Y-80003000D01*
X59677955Y-80231372D01*
X57930000Y-80231372D01*
X57930000Y-45534895D01*
X58648000Y-45534895D01*
X58648000Y-45717105D01*
X58683547Y-45895813D01*
X58753275Y-46064152D01*
X58854505Y-46215653D01*
X58983347Y-46344495D01*
X59134848Y-46445725D01*
X59303187Y-46515453D01*
X59481895Y-46551000D01*
X59664105Y-46551000D01*
X59667295Y-46550365D01*
X59635000Y-46712725D01*
X59635000Y-47003275D01*
X59691683Y-47288242D01*
X59802872Y-47556675D01*
X59964293Y-47798258D01*
X60169742Y-48003707D01*
X60355759Y-48128000D01*
X60169742Y-48252293D01*
X59964293Y-48457742D01*
X59802872Y-48699325D01*
X59691683Y-48967758D01*
X59635000Y-49252725D01*
X59635000Y-49543275D01*
X59691683Y-49828242D01*
X59802872Y-50096675D01*
X59964293Y-50338258D01*
X60169742Y-50543707D01*
X60355759Y-50668000D01*
X60169742Y-50792293D01*
X59964293Y-50997742D01*
X59802872Y-51239325D01*
X59691683Y-51507758D01*
X59635000Y-51792725D01*
X59635000Y-52083275D01*
X59678660Y-52302772D01*
X59609848Y-52331275D01*
X59458347Y-52432505D01*
X59329505Y-52561347D01*
X59228275Y-52712848D01*
X59158547Y-52881187D01*
X59123000Y-53059895D01*
X59123000Y-53242105D01*
X59158547Y-53420813D01*
X59228275Y-53589152D01*
X59329505Y-53740653D01*
X59458347Y-53869495D01*
X59609848Y-53970725D01*
X59706934Y-54010939D01*
X59691683Y-54047758D01*
X59635000Y-54332725D01*
X59635000Y-54623275D01*
X59691683Y-54908242D01*
X59802872Y-55176675D01*
X59964293Y-55418258D01*
X60169742Y-55623707D01*
X60355759Y-55748000D01*
X60169742Y-55872293D01*
X59964293Y-56077742D01*
X59802872Y-56319325D01*
X59691683Y-56587758D01*
X59635000Y-56872725D01*
X59635000Y-57163275D01*
X59691683Y-57448242D01*
X59802872Y-57716675D01*
X59964293Y-57958258D01*
X60169742Y-58163707D01*
X60355759Y-58288000D01*
X60169742Y-58412293D01*
X59964293Y-58617742D01*
X59802872Y-58859325D01*
X59691683Y-59127758D01*
X59635000Y-59412725D01*
X59635000Y-59703275D01*
X59691683Y-59988242D01*
X59802872Y-60256675D01*
X59964293Y-60498258D01*
X60169742Y-60703707D01*
X60355759Y-60828000D01*
X60169742Y-60952293D01*
X59964293Y-61157742D01*
X59802872Y-61399325D01*
X59691683Y-61667758D01*
X59635000Y-61952725D01*
X59635000Y-62243275D01*
X59691683Y-62528242D01*
X59802872Y-62796675D01*
X59964293Y-63038258D01*
X60169742Y-63243707D01*
X60355759Y-63368000D01*
X60169742Y-63492293D01*
X59964293Y-63697742D01*
X59802872Y-63939325D01*
X59691683Y-64207758D01*
X59635000Y-64492725D01*
X59635000Y-64783275D01*
X59691683Y-65068242D01*
X59802872Y-65336675D01*
X59964293Y-65578258D01*
X60169742Y-65783707D01*
X60355759Y-65908000D01*
X60169742Y-66032293D01*
X59964293Y-66237742D01*
X59802872Y-66479325D01*
X59691683Y-66747758D01*
X59635000Y-67032725D01*
X59635000Y-67323275D01*
X59691683Y-67608242D01*
X59802872Y-67876675D01*
X59964293Y-68118258D01*
X60169742Y-68323707D01*
X60355759Y-68448000D01*
X60169742Y-68572293D01*
X59964293Y-68777742D01*
X59802872Y-69019325D01*
X59691683Y-69287758D01*
X59635000Y-69572725D01*
X59635000Y-69863275D01*
X59691683Y-70148242D01*
X59802872Y-70416675D01*
X59964293Y-70658258D01*
X60169742Y-70863707D01*
X60355759Y-70988000D01*
X60169742Y-71112293D01*
X59964293Y-71317742D01*
X59802872Y-71559325D01*
X59691683Y-71827758D01*
X59635000Y-72112725D01*
X59635000Y-72403275D01*
X59691683Y-72688242D01*
X59802872Y-72956675D01*
X59964293Y-73198258D01*
X60169742Y-73403707D01*
X60355759Y-73528000D01*
X60169742Y-73652293D01*
X59964293Y-73857742D01*
X59802872Y-74099325D01*
X59691683Y-74367758D01*
X59635000Y-74652725D01*
X59635000Y-74943275D01*
X59691683Y-75228242D01*
X59802872Y-75496675D01*
X59964293Y-75738258D01*
X60169742Y-75943707D01*
X60355759Y-76068000D01*
X60169742Y-76192293D01*
X59964293Y-76397742D01*
X59802872Y-76639325D01*
X59691683Y-76907758D01*
X59635000Y-77192725D01*
X59635000Y-77483275D01*
X59691683Y-77768242D01*
X59802872Y-78036675D01*
X59964293Y-78278258D01*
X60169742Y-78483707D01*
X60364219Y-78613652D01*
X60235504Y-78690188D01*
X60020577Y-78883617D01*
X59847515Y-79115260D01*
X59722970Y-79376214D01*
X59677955Y-79524628D01*
X59797188Y-79753000D01*
X60985000Y-79753000D01*
X60985000Y-79733000D01*
X61235000Y-79733000D01*
X61235000Y-79753000D01*
X62422812Y-79753000D01*
X62542045Y-79524628D01*
X62497030Y-79376214D01*
X62372485Y-79115260D01*
X62199423Y-78883617D01*
X61984496Y-78690188D01*
X61855781Y-78613652D01*
X62050258Y-78483707D01*
X62255707Y-78278258D01*
X62417128Y-78036675D01*
X62528317Y-77768242D01*
X62585000Y-77483275D01*
X62585000Y-77192725D01*
X62528317Y-76907758D01*
X62417128Y-76639325D01*
X62255707Y-76397742D01*
X62050258Y-76192293D01*
X61864241Y-76068000D01*
X62050258Y-75943707D01*
X62255707Y-75738258D01*
X62382834Y-75548000D01*
X63874020Y-75548000D01*
X63880547Y-75580813D01*
X63950275Y-75749152D01*
X64051505Y-75900653D01*
X64180347Y-76029495D01*
X64331848Y-76130725D01*
X64500187Y-76200453D01*
X64678895Y-76236000D01*
X64861105Y-76236000D01*
X65039813Y-76200453D01*
X65208152Y-76130725D01*
X65359653Y-76029495D01*
X65488495Y-75900653D01*
X65589725Y-75749152D01*
X65659453Y-75580813D01*
X65695000Y-75402105D01*
X65695000Y-75219895D01*
X65659453Y-75041187D01*
X65589725Y-74872848D01*
X65488495Y-74721347D01*
X65359653Y-74592505D01*
X65208152Y-74491275D01*
X65039813Y-74421547D01*
X64916722Y-74397063D01*
X64813378Y-74293719D01*
X64789895Y-74265105D01*
X64675693Y-74171381D01*
X64545401Y-74101739D01*
X64404026Y-74058853D01*
X64293835Y-74048000D01*
X64293827Y-74048000D01*
X64257000Y-74044373D01*
X64220173Y-74048000D01*
X62382834Y-74048000D01*
X62255707Y-73857742D01*
X62050258Y-73652293D01*
X61864241Y-73528000D01*
X62050258Y-73403707D01*
X62255707Y-73198258D01*
X62417128Y-72956675D01*
X62528317Y-72688242D01*
X62585000Y-72403275D01*
X62585000Y-72112725D01*
X62528317Y-71827758D01*
X62417128Y-71559325D01*
X62255707Y-71317742D01*
X62050258Y-71112293D01*
X61864241Y-70988000D01*
X62050258Y-70863707D01*
X62255707Y-70658258D01*
X62417128Y-70416675D01*
X62528317Y-70148242D01*
X62585000Y-69863275D01*
X62585000Y-69572725D01*
X62528317Y-69287758D01*
X62417128Y-69019325D01*
X62255707Y-68777742D01*
X62050258Y-68572293D01*
X61864241Y-68448000D01*
X62050258Y-68323707D01*
X62255707Y-68118258D01*
X62417128Y-67876675D01*
X62528317Y-67608242D01*
X62585000Y-67323275D01*
X62585000Y-67032725D01*
X62528317Y-66747758D01*
X62417128Y-66479325D01*
X62255707Y-66237742D01*
X62253965Y-66236000D01*
X63649976Y-66236000D01*
X63649976Y-67936000D01*
X63662043Y-68058521D01*
X63697781Y-68176334D01*
X63755817Y-68284911D01*
X63833920Y-68380080D01*
X63929089Y-68458183D01*
X64037666Y-68516219D01*
X64155479Y-68551957D01*
X64278000Y-68564024D01*
X65978000Y-68564024D01*
X66100521Y-68551957D01*
X66218334Y-68516219D01*
X66326911Y-68458183D01*
X66422080Y-68380080D01*
X66500183Y-68284911D01*
X66558219Y-68176334D01*
X66584787Y-68088752D01*
X66727742Y-68231707D01*
X66969325Y-68393128D01*
X67237758Y-68504317D01*
X67522725Y-68561000D01*
X67813275Y-68561000D01*
X68098242Y-68504317D01*
X68366675Y-68393128D01*
X68608258Y-68231707D01*
X68813707Y-68026258D01*
X68943652Y-67831781D01*
X69020188Y-67960496D01*
X69213617Y-68175423D01*
X69445260Y-68348485D01*
X69706214Y-68473030D01*
X69854628Y-68518045D01*
X70083000Y-68398812D01*
X70083000Y-67211000D01*
X70333000Y-67211000D01*
X70333000Y-68398812D01*
X70561372Y-68518045D01*
X70709786Y-68473030D01*
X70970740Y-68348485D01*
X71202383Y-68175423D01*
X71395812Y-67960496D01*
X71543594Y-67711962D01*
X71640050Y-67439373D01*
X71521449Y-67211000D01*
X70333000Y-67211000D01*
X70083000Y-67211000D01*
X70063000Y-67211000D01*
X70063000Y-66961000D01*
X70083000Y-66961000D01*
X70083000Y-64671000D01*
X70333000Y-64671000D01*
X70333000Y-66961000D01*
X71521449Y-66961000D01*
X71640050Y-66732627D01*
X71543594Y-66460038D01*
X71395812Y-66211504D01*
X71202383Y-65996577D01*
X70970740Y-65823515D01*
X70954994Y-65816000D01*
X70970740Y-65808485D01*
X71202383Y-65635423D01*
X71395812Y-65420496D01*
X71543594Y-65171962D01*
X71640050Y-64899373D01*
X71521449Y-64671000D01*
X70333000Y-64671000D01*
X70083000Y-64671000D01*
X70063000Y-64671000D01*
X70063000Y-64421000D01*
X70083000Y-64421000D01*
X70083000Y-63233188D01*
X70333000Y-63233188D01*
X70333000Y-64421000D01*
X71521449Y-64421000D01*
X71640050Y-64192627D01*
X71543594Y-63920038D01*
X71395812Y-63671504D01*
X71202383Y-63456577D01*
X70970740Y-63283515D01*
X70709786Y-63158970D01*
X70561372Y-63113955D01*
X70333000Y-63233188D01*
X70083000Y-63233188D01*
X69854628Y-63113955D01*
X69706214Y-63158970D01*
X69445260Y-63283515D01*
X69213617Y-63456577D01*
X69020188Y-63671504D01*
X68943652Y-63800219D01*
X68813707Y-63605742D01*
X68608258Y-63400293D01*
X68418000Y-63273166D01*
X68418000Y-58775000D01*
X71417976Y-58775000D01*
X71430043Y-58897521D01*
X71465781Y-59015334D01*
X71523817Y-59123911D01*
X71601920Y-59219080D01*
X71697089Y-59297183D01*
X71805666Y-59355219D01*
X71923479Y-59390957D01*
X72046000Y-59403024D01*
X72489750Y-59400000D01*
X72646000Y-59243750D01*
X72646000Y-58312500D01*
X72896000Y-58312500D01*
X72896000Y-59243750D01*
X73052250Y-59400000D01*
X73496000Y-59403024D01*
X73618521Y-59390957D01*
X73736334Y-59355219D01*
X73844911Y-59297183D01*
X73940080Y-59219080D01*
X74018183Y-59123911D01*
X74076219Y-59015334D01*
X74111957Y-58897521D01*
X74124024Y-58775000D01*
X74121000Y-58468750D01*
X73964750Y-58312500D01*
X72896000Y-58312500D01*
X72646000Y-58312500D01*
X71577250Y-58312500D01*
X71421000Y-58468750D01*
X71417976Y-58775000D01*
X68418000Y-58775000D01*
X68418000Y-57417832D01*
X68421627Y-57381004D01*
X68418000Y-57344176D01*
X68418000Y-57344169D01*
X68407147Y-57233978D01*
X68364261Y-57092603D01*
X68294619Y-56962311D01*
X68224376Y-56876720D01*
X68224374Y-56876718D01*
X68200895Y-56848109D01*
X68172286Y-56824630D01*
X67842937Y-56495282D01*
X67818453Y-56372191D01*
X67748725Y-56203852D01*
X67647495Y-56052351D01*
X67518653Y-55923509D01*
X67367152Y-55822279D01*
X67198813Y-55752551D01*
X67020105Y-55717004D01*
X66837895Y-55717004D01*
X66659187Y-55752551D01*
X66490848Y-55822279D01*
X66339347Y-55923509D01*
X66210505Y-56052351D01*
X66109275Y-56203852D01*
X66039547Y-56372191D01*
X66004000Y-56550899D01*
X66004000Y-56733109D01*
X66039547Y-56911817D01*
X66109275Y-57080156D01*
X66210505Y-57231657D01*
X66339347Y-57360499D01*
X66490848Y-57461729D01*
X66659187Y-57531457D01*
X66782278Y-57555941D01*
X66918001Y-57691665D01*
X66918000Y-63273166D01*
X66727742Y-63400293D01*
X66522293Y-63605742D01*
X66398000Y-63791759D01*
X66273707Y-63605742D01*
X66068258Y-63400293D01*
X65826675Y-63238872D01*
X65558242Y-63127683D01*
X65273275Y-63071000D01*
X64982725Y-63071000D01*
X64697758Y-63127683D01*
X64429325Y-63238872D01*
X64187742Y-63400293D01*
X63982293Y-63605742D01*
X63820872Y-63847325D01*
X63709683Y-64115758D01*
X63653000Y-64400725D01*
X63653000Y-64691275D01*
X63709683Y-64976242D01*
X63820872Y-65244675D01*
X63982293Y-65486258D01*
X64125248Y-65629213D01*
X64037666Y-65655781D01*
X63929089Y-65713817D01*
X63833920Y-65791920D01*
X63755817Y-65887089D01*
X63697781Y-65995666D01*
X63662043Y-66113479D01*
X63649976Y-66236000D01*
X62253965Y-66236000D01*
X62050258Y-66032293D01*
X61864241Y-65908000D01*
X62050258Y-65783707D01*
X62255707Y-65578258D01*
X62417128Y-65336675D01*
X62528317Y-65068242D01*
X62585000Y-64783275D01*
X62585000Y-64492725D01*
X62528317Y-64207758D01*
X62417128Y-63939325D01*
X62255707Y-63697742D01*
X62050258Y-63492293D01*
X61864241Y-63368000D01*
X62050258Y-63243707D01*
X62255707Y-63038258D01*
X62417128Y-62796675D01*
X62528317Y-62528242D01*
X62585000Y-62243275D01*
X62585000Y-61952725D01*
X62528317Y-61667758D01*
X62417128Y-61399325D01*
X62255707Y-61157742D01*
X62050258Y-60952293D01*
X61864241Y-60828000D01*
X62050258Y-60703707D01*
X62255707Y-60498258D01*
X62417128Y-60256675D01*
X62528317Y-59988242D01*
X62585000Y-59703275D01*
X62585000Y-59412725D01*
X62528317Y-59127758D01*
X62417128Y-58859325D01*
X62255707Y-58617742D01*
X62050258Y-58412293D01*
X61864241Y-58288000D01*
X62050258Y-58163707D01*
X62255707Y-57958258D01*
X62417128Y-57716675D01*
X62528317Y-57448242D01*
X62585000Y-57163275D01*
X62585000Y-56872725D01*
X62528317Y-56587758D01*
X62417128Y-56319325D01*
X62255707Y-56077742D01*
X62050258Y-55872293D01*
X61864241Y-55748000D01*
X62050258Y-55623707D01*
X62109070Y-55564895D01*
X68553000Y-55564895D01*
X68553000Y-55747105D01*
X68588547Y-55925813D01*
X68658275Y-56094152D01*
X68759505Y-56245653D01*
X68888347Y-56374495D01*
X69039848Y-56475725D01*
X69208187Y-56545453D01*
X69386895Y-56581000D01*
X69569105Y-56581000D01*
X69747813Y-56545453D01*
X69916152Y-56475725D01*
X70067653Y-56374495D01*
X70196495Y-56245653D01*
X70297725Y-56094152D01*
X70367453Y-55925813D01*
X70391937Y-55802722D01*
X70482280Y-55712379D01*
X70510895Y-55688895D01*
X70604619Y-55574693D01*
X70674261Y-55444401D01*
X70717147Y-55303026D01*
X70728000Y-55192835D01*
X70728000Y-55192828D01*
X70731627Y-55156000D01*
X70728000Y-55119172D01*
X70728000Y-54836395D01*
X71147500Y-54836395D01*
X71147500Y-55018605D01*
X71183047Y-55197313D01*
X71252775Y-55365652D01*
X71354005Y-55517153D01*
X71436176Y-55599324D01*
X71434847Y-55603706D01*
X71417976Y-55775000D01*
X71417976Y-56450000D01*
X71434847Y-56621294D01*
X71484812Y-56786005D01*
X71565950Y-56937804D01*
X71675143Y-57070857D01*
X71690356Y-57083342D01*
X71601920Y-57155920D01*
X71523817Y-57251089D01*
X71465781Y-57359666D01*
X71430043Y-57477479D01*
X71417976Y-57600000D01*
X71421000Y-57906250D01*
X71577250Y-58062500D01*
X72646000Y-58062500D01*
X72646000Y-58042500D01*
X72896000Y-58042500D01*
X72896000Y-58062500D01*
X73964750Y-58062500D01*
X74121000Y-57906250D01*
X74124024Y-57600000D01*
X74111957Y-57477479D01*
X74076219Y-57359666D01*
X74018183Y-57251089D01*
X73940080Y-57155920D01*
X73851644Y-57083342D01*
X73866857Y-57070857D01*
X73976050Y-56937804D01*
X74057188Y-56786005D01*
X74107153Y-56621294D01*
X74124024Y-56450000D01*
X74124024Y-55899766D01*
X74238001Y-56013743D01*
X74238000Y-58159172D01*
X74234373Y-58196000D01*
X74238000Y-58232827D01*
X74238000Y-58232834D01*
X74248853Y-58343025D01*
X74291739Y-58484400D01*
X74361381Y-58614692D01*
X74455105Y-58728895D01*
X74483719Y-58752378D01*
X74919641Y-59188300D01*
X74875000Y-59412725D01*
X74875000Y-59703275D01*
X74931683Y-59988242D01*
X75042872Y-60256675D01*
X75204293Y-60498258D01*
X75409742Y-60703707D01*
X75595759Y-60828000D01*
X75409742Y-60952293D01*
X75204293Y-61157742D01*
X75042872Y-61399325D01*
X74931683Y-61667758D01*
X74875000Y-61952725D01*
X74875000Y-62243275D01*
X74931683Y-62528242D01*
X75042872Y-62796675D01*
X75204293Y-63038258D01*
X75409742Y-63243707D01*
X75595759Y-63368000D01*
X75409742Y-63492293D01*
X75204293Y-63697742D01*
X75042872Y-63939325D01*
X74931683Y-64207758D01*
X74875000Y-64492725D01*
X74875000Y-64783275D01*
X74931683Y-65068242D01*
X75042872Y-65336675D01*
X75204293Y-65578258D01*
X75409742Y-65783707D01*
X75595759Y-65908000D01*
X75409742Y-66032293D01*
X75204293Y-66237742D01*
X75042872Y-66479325D01*
X74931683Y-66747758D01*
X74875000Y-67032725D01*
X74875000Y-67323275D01*
X74931683Y-67608242D01*
X75042872Y-67876675D01*
X75204293Y-68118258D01*
X75409742Y-68323707D01*
X75595759Y-68448000D01*
X75409742Y-68572293D01*
X75204293Y-68777742D01*
X75042872Y-69019325D01*
X74931683Y-69287758D01*
X74875000Y-69572725D01*
X74875000Y-69863275D01*
X74931683Y-70148242D01*
X75042872Y-70416675D01*
X75204293Y-70658258D01*
X75409742Y-70863707D01*
X75595759Y-70988000D01*
X75409742Y-71112293D01*
X75204293Y-71317742D01*
X75042872Y-71559325D01*
X74931683Y-71827758D01*
X74875000Y-72112725D01*
X74875000Y-72403275D01*
X74931683Y-72688242D01*
X75042872Y-72956675D01*
X75204293Y-73198258D01*
X75409742Y-73403707D01*
X75595759Y-73528000D01*
X75409742Y-73652293D01*
X75204293Y-73857742D01*
X75042872Y-74099325D01*
X74931683Y-74367758D01*
X74875000Y-74652725D01*
X74875000Y-74943275D01*
X74931683Y-75228242D01*
X75042872Y-75496675D01*
X75204293Y-75738258D01*
X75409742Y-75943707D01*
X75595759Y-76068000D01*
X75409742Y-76192293D01*
X75204293Y-76397742D01*
X75042872Y-76639325D01*
X74931683Y-76907758D01*
X74875000Y-77192725D01*
X74875000Y-77483275D01*
X74931683Y-77768242D01*
X75042872Y-78036675D01*
X75204293Y-78278258D01*
X75409742Y-78483707D01*
X75595759Y-78608000D01*
X75409742Y-78732293D01*
X75204293Y-78937742D01*
X75042872Y-79179325D01*
X74931683Y-79447758D01*
X74875000Y-79732725D01*
X74875000Y-80023275D01*
X74931683Y-80308242D01*
X75042872Y-80576675D01*
X75204293Y-80818258D01*
X75409742Y-81023707D01*
X75595759Y-81148000D01*
X75409742Y-81272293D01*
X75204293Y-81477742D01*
X75042872Y-81719325D01*
X74931683Y-81987758D01*
X74875000Y-82272725D01*
X74875000Y-82563275D01*
X74931683Y-82848242D01*
X75042872Y-83116675D01*
X75204293Y-83358258D01*
X75409742Y-83563707D01*
X75651325Y-83725128D01*
X75919758Y-83836317D01*
X76204725Y-83893000D01*
X76495275Y-83893000D01*
X76780242Y-83836317D01*
X77048675Y-83725128D01*
X77290258Y-83563707D01*
X77495707Y-83358258D01*
X77657128Y-83116675D01*
X77768317Y-82848242D01*
X77825000Y-82563275D01*
X77825000Y-82272725D01*
X77768317Y-81987758D01*
X77657128Y-81719325D01*
X77495707Y-81477742D01*
X77290258Y-81272293D01*
X77104241Y-81148000D01*
X77290258Y-81023707D01*
X77495707Y-80818258D01*
X77657128Y-80576675D01*
X77768317Y-80308242D01*
X77825000Y-80023275D01*
X77825000Y-79732725D01*
X77768317Y-79447758D01*
X77657128Y-79179325D01*
X77495707Y-78937742D01*
X77290258Y-78732293D01*
X77104241Y-78608000D01*
X77290258Y-78483707D01*
X77495707Y-78278258D01*
X77657128Y-78036675D01*
X77768317Y-77768242D01*
X77825000Y-77483275D01*
X77825000Y-77192725D01*
X77768317Y-76907758D01*
X77657128Y-76639325D01*
X77495707Y-76397742D01*
X77290258Y-76192293D01*
X77104241Y-76068000D01*
X77290258Y-75943707D01*
X77495707Y-75738258D01*
X77657128Y-75496675D01*
X77768317Y-75228242D01*
X77825000Y-74943275D01*
X77825000Y-74652725D01*
X77768317Y-74367758D01*
X77657128Y-74099325D01*
X77495707Y-73857742D01*
X77290258Y-73652293D01*
X77104241Y-73528000D01*
X77290258Y-73403707D01*
X77495707Y-73198258D01*
X77657128Y-72956675D01*
X77768317Y-72688242D01*
X77825000Y-72403275D01*
X77825000Y-72112725D01*
X77768317Y-71827758D01*
X77657128Y-71559325D01*
X77495707Y-71317742D01*
X77290258Y-71112293D01*
X77104241Y-70988000D01*
X77290258Y-70863707D01*
X77495707Y-70658258D01*
X77657128Y-70416675D01*
X77768317Y-70148242D01*
X77825000Y-69863275D01*
X77825000Y-69572725D01*
X77768317Y-69287758D01*
X77657128Y-69019325D01*
X77495707Y-68777742D01*
X77290258Y-68572293D01*
X77104241Y-68448000D01*
X77290258Y-68323707D01*
X77495707Y-68118258D01*
X77657128Y-67876675D01*
X77768317Y-67608242D01*
X77825000Y-67323275D01*
X77825000Y-67032725D01*
X77768317Y-66747758D01*
X77657128Y-66479325D01*
X77495707Y-66237742D01*
X77290258Y-66032293D01*
X77104241Y-65908000D01*
X77290258Y-65783707D01*
X77495707Y-65578258D01*
X77657128Y-65336675D01*
X77768317Y-65068242D01*
X77825000Y-64783275D01*
X77825000Y-64492725D01*
X77768317Y-64207758D01*
X77657128Y-63939325D01*
X77495707Y-63697742D01*
X77290258Y-63492293D01*
X77104241Y-63368000D01*
X77290258Y-63243707D01*
X77495707Y-63038258D01*
X77657128Y-62796675D01*
X77768317Y-62528242D01*
X77825000Y-62243275D01*
X77825000Y-61952725D01*
X77768317Y-61667758D01*
X77657128Y-61399325D01*
X77495707Y-61157742D01*
X77290258Y-60952293D01*
X77104241Y-60828000D01*
X77290258Y-60703707D01*
X77495707Y-60498258D01*
X77657128Y-60256675D01*
X77768317Y-59988242D01*
X77825000Y-59703275D01*
X77825000Y-59412725D01*
X77768317Y-59127758D01*
X77657128Y-58859325D01*
X77495707Y-58617742D01*
X77290258Y-58412293D01*
X77104241Y-58288000D01*
X77290258Y-58163707D01*
X77495707Y-57958258D01*
X77657128Y-57716675D01*
X77768317Y-57448242D01*
X77825000Y-57163275D01*
X77825000Y-56872725D01*
X77768317Y-56587758D01*
X77750546Y-56544855D01*
X77797813Y-56535453D01*
X77966152Y-56465725D01*
X78117653Y-56364495D01*
X78246495Y-56235653D01*
X78347725Y-56084152D01*
X78417453Y-55915813D01*
X78453000Y-55737105D01*
X78453000Y-55554895D01*
X78417453Y-55376187D01*
X78347725Y-55207848D01*
X78246495Y-55056347D01*
X78117653Y-54927505D01*
X77966152Y-54826275D01*
X77798439Y-54756806D01*
X77825000Y-54623275D01*
X77825000Y-54332725D01*
X77788883Y-54151153D01*
X77867813Y-54135453D01*
X78036152Y-54065725D01*
X78187653Y-53964495D01*
X78316495Y-53835653D01*
X78417725Y-53684152D01*
X78487453Y-53515813D01*
X78523000Y-53337105D01*
X78523000Y-53154895D01*
X78487453Y-52976187D01*
X78417725Y-52807848D01*
X78316495Y-52656347D01*
X78187653Y-52527505D01*
X78036152Y-52426275D01*
X77867813Y-52356547D01*
X77774342Y-52337954D01*
X77825000Y-52083275D01*
X77825000Y-51792725D01*
X77768317Y-51507758D01*
X77657128Y-51239325D01*
X77495707Y-50997742D01*
X77290258Y-50792293D01*
X77104241Y-50668000D01*
X77290258Y-50543707D01*
X77495707Y-50338258D01*
X77657128Y-50096675D01*
X77768317Y-49828242D01*
X77825000Y-49543275D01*
X77825000Y-49252725D01*
X77768317Y-48967758D01*
X77657128Y-48699325D01*
X77495707Y-48457742D01*
X77290258Y-48252293D01*
X77104241Y-48128000D01*
X77290258Y-48003707D01*
X77495707Y-47798258D01*
X77657128Y-47556675D01*
X77768317Y-47288242D01*
X77825000Y-47003275D01*
X77825000Y-46712725D01*
X77768317Y-46427758D01*
X77657128Y-46159325D01*
X77495707Y-45917742D01*
X77290258Y-45712293D01*
X77104241Y-45588000D01*
X77290258Y-45463707D01*
X77495707Y-45258258D01*
X77657128Y-45016675D01*
X77768317Y-44748242D01*
X77825000Y-44463275D01*
X77825000Y-44172725D01*
X77768317Y-43887758D01*
X77657128Y-43619325D01*
X77495707Y-43377742D01*
X77290258Y-43172293D01*
X77104241Y-43048000D01*
X77290258Y-42923707D01*
X77495707Y-42718258D01*
X77657128Y-42476675D01*
X77768317Y-42208242D01*
X77825000Y-41923275D01*
X77825000Y-41632725D01*
X77768317Y-41347758D01*
X77657128Y-41079325D01*
X77495707Y-40837742D01*
X77290258Y-40632293D01*
X77104241Y-40508000D01*
X77290258Y-40383707D01*
X77495707Y-40178258D01*
X77657128Y-39936675D01*
X77768317Y-39668242D01*
X77825000Y-39383275D01*
X77825000Y-39092725D01*
X77768317Y-38807758D01*
X77657128Y-38539325D01*
X77495707Y-38297742D01*
X77290258Y-38092293D01*
X77095781Y-37962348D01*
X77224496Y-37885812D01*
X77439423Y-37692383D01*
X77612485Y-37460740D01*
X77737030Y-37199786D01*
X77782045Y-37051372D01*
X77662812Y-36823000D01*
X76475000Y-36823000D01*
X76475000Y-36843000D01*
X76225000Y-36843000D01*
X76225000Y-36823000D01*
X75037188Y-36823000D01*
X74917955Y-37051372D01*
X74962970Y-37199786D01*
X75087515Y-37460740D01*
X75260577Y-37692383D01*
X75475504Y-37885812D01*
X75604219Y-37962348D01*
X75409742Y-38092293D01*
X75204293Y-38297742D01*
X75042872Y-38539325D01*
X74931683Y-38807758D01*
X74875000Y-39092725D01*
X74875000Y-39383275D01*
X74931683Y-39668242D01*
X75042872Y-39936675D01*
X75204293Y-40178258D01*
X75409742Y-40383707D01*
X75595759Y-40508000D01*
X75409742Y-40632293D01*
X75204293Y-40837742D01*
X75042872Y-41079325D01*
X74931683Y-41347758D01*
X74875000Y-41632725D01*
X74875000Y-41923275D01*
X74931683Y-42208242D01*
X75042872Y-42476675D01*
X75204293Y-42718258D01*
X75409742Y-42923707D01*
X75595759Y-43048000D01*
X75409742Y-43172293D01*
X75204293Y-43377742D01*
X75042872Y-43619325D01*
X74931683Y-43887758D01*
X74875000Y-44172725D01*
X74875000Y-44463275D01*
X74931683Y-44748242D01*
X75042872Y-45016675D01*
X75204293Y-45258258D01*
X75409742Y-45463707D01*
X75595759Y-45588000D01*
X75409742Y-45712293D01*
X75204293Y-45917742D01*
X75042872Y-46159325D01*
X74931683Y-46427758D01*
X74875000Y-46712725D01*
X74875000Y-47003275D01*
X74931683Y-47288242D01*
X75042872Y-47556675D01*
X75204293Y-47798258D01*
X75409742Y-48003707D01*
X75595759Y-48128000D01*
X75409742Y-48252293D01*
X75204293Y-48457742D01*
X75042872Y-48699325D01*
X74931683Y-48967758D01*
X74875000Y-49252725D01*
X74875000Y-49543275D01*
X74931683Y-49828242D01*
X75042872Y-50096675D01*
X75204293Y-50338258D01*
X75409742Y-50543707D01*
X75595759Y-50668000D01*
X75409742Y-50792293D01*
X75204293Y-50997742D01*
X75042872Y-51239325D01*
X74931683Y-51507758D01*
X74875000Y-51792725D01*
X74875000Y-52083275D01*
X74931683Y-52368242D01*
X74984602Y-52496000D01*
X74553890Y-52496000D01*
X74532937Y-52475047D01*
X74381436Y-52373817D01*
X74213097Y-52304089D01*
X74034389Y-52268542D01*
X73852179Y-52268542D01*
X73673471Y-52304089D01*
X73505132Y-52373817D01*
X73353631Y-52475047D01*
X73224789Y-52603889D01*
X73123559Y-52755390D01*
X73083698Y-52851623D01*
X73071001Y-52850372D01*
X73034174Y-52853999D01*
X72500565Y-52853999D01*
X72463737Y-52850372D01*
X72426909Y-52853999D01*
X72426902Y-52853999D01*
X72316711Y-52864852D01*
X72175336Y-52907738D01*
X72045044Y-52977380D01*
X71930842Y-53071104D01*
X71907358Y-53099719D01*
X71568220Y-53438857D01*
X71539605Y-53462341D01*
X71445881Y-53576544D01*
X71376239Y-53706836D01*
X71333353Y-53848211D01*
X71322500Y-53958402D01*
X71322500Y-53958409D01*
X71318873Y-53995236D01*
X71322500Y-54032064D01*
X71322500Y-54384997D01*
X71252775Y-54489348D01*
X71183047Y-54657687D01*
X71147500Y-54836395D01*
X70728000Y-54836395D01*
X70728000Y-53958706D01*
X70737725Y-53944152D01*
X70807453Y-53775813D01*
X70843000Y-53597105D01*
X70843000Y-53414895D01*
X70807453Y-53236187D01*
X70737725Y-53067848D01*
X70636495Y-52916347D01*
X70507653Y-52787505D01*
X70356152Y-52686275D01*
X70187813Y-52616547D01*
X70009105Y-52581000D01*
X69826895Y-52581000D01*
X69648187Y-52616547D01*
X69479848Y-52686275D01*
X69328347Y-52787505D01*
X69199505Y-52916347D01*
X69098275Y-53067848D01*
X69028547Y-53236187D01*
X68993000Y-53414895D01*
X68993000Y-53597105D01*
X69028547Y-53775813D01*
X69098275Y-53944152D01*
X69199505Y-54095653D01*
X69228000Y-54124148D01*
X69228001Y-54762606D01*
X69208187Y-54766547D01*
X69039848Y-54836275D01*
X68888347Y-54937505D01*
X68759505Y-55066347D01*
X68658275Y-55217848D01*
X68588547Y-55386187D01*
X68553000Y-55564895D01*
X62109070Y-55564895D01*
X62255707Y-55418258D01*
X62417128Y-55176675D01*
X62528317Y-54908242D01*
X62585000Y-54623275D01*
X62585000Y-54332725D01*
X62528317Y-54047758D01*
X62434597Y-53821500D01*
X62516693Y-53777619D01*
X62630895Y-53683895D01*
X62654378Y-53655281D01*
X63733670Y-52575990D01*
X66770506Y-52575990D01*
X66874857Y-52645715D01*
X67043196Y-52715443D01*
X67221904Y-52750990D01*
X67404114Y-52750990D01*
X67582822Y-52715443D01*
X67751161Y-52645715D01*
X67902662Y-52544485D01*
X68031504Y-52415643D01*
X68132734Y-52264142D01*
X68202462Y-52095803D01*
X68238009Y-51917095D01*
X68238009Y-51734885D01*
X68202462Y-51556177D01*
X68132734Y-51387838D01*
X68085023Y-51316434D01*
X68207653Y-51234495D01*
X68336495Y-51105653D01*
X68437725Y-50954152D01*
X68507453Y-50785813D01*
X68531937Y-50662722D01*
X70163787Y-49030873D01*
X70192395Y-49007395D01*
X70286119Y-48893193D01*
X70355761Y-48762901D01*
X70398647Y-48621526D01*
X70409500Y-48511335D01*
X70409500Y-48511328D01*
X70413127Y-48474500D01*
X70409500Y-48437673D01*
X70409500Y-47405503D01*
X70479225Y-47301152D01*
X70548953Y-47132813D01*
X70584500Y-46954105D01*
X70584500Y-46771895D01*
X70548953Y-46593187D01*
X70479225Y-46424848D01*
X70377995Y-46273347D01*
X70249153Y-46144505D01*
X70097652Y-46043275D01*
X69929313Y-45973547D01*
X69750605Y-45938000D01*
X69568395Y-45938000D01*
X69389687Y-45973547D01*
X69221348Y-46043275D01*
X69069847Y-46144505D01*
X68941005Y-46273347D01*
X68839775Y-46424848D01*
X68770047Y-46593187D01*
X68734500Y-46771895D01*
X68734500Y-46954105D01*
X68770047Y-47132813D01*
X68839775Y-47301152D01*
X68909501Y-47405504D01*
X68909500Y-48163840D01*
X68875848Y-48197492D01*
X68856503Y-48100237D01*
X68786775Y-47931898D01*
X68685545Y-47780397D01*
X68556703Y-47651555D01*
X68405202Y-47550325D01*
X68236863Y-47480597D01*
X68058155Y-47445050D01*
X67875945Y-47445050D01*
X67711213Y-47477817D01*
X63488000Y-43254605D01*
X63488000Y-35609555D01*
X63490184Y-35549386D01*
X63482113Y-35499391D01*
X63477147Y-35448974D01*
X63470363Y-35426609D01*
X63466638Y-35403538D01*
X63448965Y-35356072D01*
X63434261Y-35307599D01*
X63423242Y-35286984D01*
X63415089Y-35265086D01*
X63388500Y-35221986D01*
X63364619Y-35177307D01*
X63349792Y-35159240D01*
X63337522Y-35139351D01*
X63303023Y-35102253D01*
X63270895Y-35063105D01*
X63224356Y-35024912D01*
X62588024Y-34462845D01*
X62588024Y-34160773D01*
X63487950Y-34160773D01*
X63584406Y-34433362D01*
X63732188Y-34681896D01*
X63925617Y-34896823D01*
X64157260Y-35069885D01*
X64418214Y-35194430D01*
X64566628Y-35239445D01*
X64795000Y-35120212D01*
X64795000Y-33932400D01*
X63606551Y-33932400D01*
X63487950Y-34160773D01*
X62588024Y-34160773D01*
X62588024Y-33454027D01*
X63487950Y-33454027D01*
X63606551Y-33682400D01*
X64795000Y-33682400D01*
X64795000Y-32494588D01*
X65045000Y-32494588D01*
X65045000Y-33682400D01*
X65065000Y-33682400D01*
X65065000Y-33932400D01*
X65045000Y-33932400D01*
X65045000Y-35120212D01*
X65273372Y-35239445D01*
X65421786Y-35194430D01*
X65682740Y-35069885D01*
X65914383Y-34896823D01*
X66107812Y-34681896D01*
X66184348Y-34553181D01*
X66314293Y-34747658D01*
X66519742Y-34953107D01*
X66761325Y-35114528D01*
X67029758Y-35225717D01*
X67314725Y-35282400D01*
X67605275Y-35282400D01*
X67890242Y-35225717D01*
X68158675Y-35114528D01*
X68400258Y-34953107D01*
X68605707Y-34747658D01*
X68730000Y-34561641D01*
X68854293Y-34747658D01*
X69059742Y-34953107D01*
X69301325Y-35114528D01*
X69569758Y-35225717D01*
X69854725Y-35282400D01*
X70145275Y-35282400D01*
X70430242Y-35225717D01*
X70698675Y-35114528D01*
X70940258Y-34953107D01*
X71083213Y-34810152D01*
X71109781Y-34897734D01*
X71167817Y-35006311D01*
X71245920Y-35101480D01*
X71341089Y-35179583D01*
X71449666Y-35237619D01*
X71567479Y-35273357D01*
X71690000Y-35285424D01*
X73390000Y-35285424D01*
X73512521Y-35273357D01*
X73630334Y-35237619D01*
X73738911Y-35179583D01*
X73834080Y-35101480D01*
X73912183Y-35006311D01*
X73970219Y-34897734D01*
X74005957Y-34779921D01*
X74018024Y-34657400D01*
X74018024Y-33308000D01*
X74871976Y-33308000D01*
X74871976Y-35008000D01*
X74884043Y-35130521D01*
X74919781Y-35248334D01*
X74977817Y-35356911D01*
X75055920Y-35452080D01*
X75151089Y-35530183D01*
X75259666Y-35588219D01*
X75356247Y-35617516D01*
X75260577Y-35703617D01*
X75087515Y-35935260D01*
X74962970Y-36196214D01*
X74917955Y-36344628D01*
X75037188Y-36573000D01*
X76225000Y-36573000D01*
X76225000Y-36553000D01*
X76475000Y-36553000D01*
X76475000Y-36573000D01*
X77662812Y-36573000D01*
X77782045Y-36344628D01*
X77737030Y-36196214D01*
X77612485Y-35935260D01*
X77439423Y-35703617D01*
X77343753Y-35617516D01*
X77440334Y-35588219D01*
X77548911Y-35530183D01*
X77644080Y-35452080D01*
X77722183Y-35356911D01*
X77780219Y-35248334D01*
X77815957Y-35130521D01*
X77828024Y-35008000D01*
X77828024Y-33308000D01*
X77815957Y-33185479D01*
X77780219Y-33067666D01*
X77722183Y-32959089D01*
X77644080Y-32863920D01*
X77548911Y-32785817D01*
X77440334Y-32727781D01*
X77322521Y-32692043D01*
X77200000Y-32679976D01*
X75500000Y-32679976D01*
X75377479Y-32692043D01*
X75259666Y-32727781D01*
X75151089Y-32785817D01*
X75055920Y-32863920D01*
X74977817Y-32959089D01*
X74919781Y-33067666D01*
X74884043Y-33185479D01*
X74871976Y-33308000D01*
X74018024Y-33308000D01*
X74018024Y-32957400D01*
X74005957Y-32834879D01*
X73970219Y-32717066D01*
X73912183Y-32608489D01*
X73834080Y-32513320D01*
X73738911Y-32435217D01*
X73630334Y-32377181D01*
X73512521Y-32341443D01*
X73390000Y-32329376D01*
X71690000Y-32329376D01*
X71567479Y-32341443D01*
X71449666Y-32377181D01*
X71341089Y-32435217D01*
X71245920Y-32513320D01*
X71167817Y-32608489D01*
X71109781Y-32717066D01*
X71083213Y-32804648D01*
X70940258Y-32661693D01*
X70698675Y-32500272D01*
X70430242Y-32389083D01*
X70145275Y-32332400D01*
X69854725Y-32332400D01*
X69569758Y-32389083D01*
X69301325Y-32500272D01*
X69059742Y-32661693D01*
X68854293Y-32867142D01*
X68730000Y-33053159D01*
X68605707Y-32867142D01*
X68400258Y-32661693D01*
X68158675Y-32500272D01*
X67890242Y-32389083D01*
X67605275Y-32332400D01*
X67314725Y-32332400D01*
X67029758Y-32389083D01*
X66761325Y-32500272D01*
X66519742Y-32661693D01*
X66314293Y-32867142D01*
X66184348Y-33061619D01*
X66107812Y-32932904D01*
X65914383Y-32717977D01*
X65682740Y-32544915D01*
X65421786Y-32420370D01*
X65273372Y-32375355D01*
X65045000Y-32494588D01*
X64795000Y-32494588D01*
X64566628Y-32375355D01*
X64418214Y-32420370D01*
X64157260Y-32544915D01*
X63925617Y-32717977D01*
X63732188Y-32932904D01*
X63584406Y-33181438D01*
X63487950Y-33454027D01*
X62588024Y-33454027D01*
X62588024Y-33308000D01*
X62575957Y-33185479D01*
X62540219Y-33067666D01*
X62482183Y-32959089D01*
X62404080Y-32863920D01*
X62308911Y-32785817D01*
X62200334Y-32727781D01*
X62082521Y-32692043D01*
X61960000Y-32679976D01*
X60260000Y-32679976D01*
X60137479Y-32692043D01*
X60019666Y-32727781D01*
X59911089Y-32785817D01*
X59815920Y-32863920D01*
X59737817Y-32959089D01*
X59679781Y-33067666D01*
X59644043Y-33185479D01*
X59631976Y-33308000D01*
X59631976Y-35008000D01*
X59644043Y-35130521D01*
X59679781Y-35248334D01*
X59737817Y-35356911D01*
X59815920Y-35452080D01*
X59911089Y-35530183D01*
X60019666Y-35588219D01*
X60107248Y-35614787D01*
X59964293Y-35757742D01*
X59802872Y-35999325D01*
X59691683Y-36267758D01*
X59635000Y-36552725D01*
X59635000Y-36843275D01*
X59691683Y-37128242D01*
X59802872Y-37396675D01*
X59964293Y-37638258D01*
X60169742Y-37843707D01*
X60355759Y-37968000D01*
X60169742Y-38092293D01*
X59964293Y-38297742D01*
X59802872Y-38539325D01*
X59691683Y-38807758D01*
X59635000Y-39092725D01*
X59635000Y-39383275D01*
X59691683Y-39668242D01*
X59802872Y-39936675D01*
X59964293Y-40178258D01*
X60169742Y-40383707D01*
X60355759Y-40508000D01*
X60169742Y-40632293D01*
X59964293Y-40837742D01*
X59802872Y-41079325D01*
X59691683Y-41347758D01*
X59635000Y-41632725D01*
X59635000Y-41923275D01*
X59691683Y-42208242D01*
X59802872Y-42476675D01*
X59964293Y-42718258D01*
X60169742Y-42923707D01*
X60355759Y-43048000D01*
X60169742Y-43172293D01*
X59964293Y-43377742D01*
X59802872Y-43619325D01*
X59691683Y-43887758D01*
X59635000Y-44172725D01*
X59635000Y-44463275D01*
X59683035Y-44704765D01*
X59664105Y-44701000D01*
X59481895Y-44701000D01*
X59303187Y-44736547D01*
X59134848Y-44806275D01*
X58983347Y-44907505D01*
X58854505Y-45036347D01*
X58753275Y-45187848D01*
X58683547Y-45356187D01*
X58648000Y-45534895D01*
X57930000Y-45534895D01*
X57930000Y-31048000D01*
X79530000Y-31048000D01*
X79530001Y-84258000D01*
G37*
G04 #@! TD.AperFunction*
D13*
X64841626Y-49280286D02*
X64865105Y-49308895D01*
X64979307Y-49402619D01*
X65005438Y-49416586D01*
X65083347Y-49494495D01*
X65234848Y-49595725D01*
X65403187Y-49665453D01*
X65581895Y-49701000D01*
X65764105Y-49701000D01*
X65942813Y-49665453D01*
X66111152Y-49595725D01*
X66262653Y-49494495D01*
X66391495Y-49365653D01*
X66492725Y-49214152D01*
X66562453Y-49045813D01*
X66598000Y-48867105D01*
X66598000Y-48684895D01*
X66562453Y-48506187D01*
X66522990Y-48410913D01*
X66986412Y-48874336D01*
X67009891Y-48902945D01*
X67124093Y-48996669D01*
X67254385Y-49066311D01*
X67395760Y-49109197D01*
X67410474Y-49110646D01*
X67528898Y-49189775D01*
X67697237Y-49259503D01*
X67794492Y-49278848D01*
X67471278Y-49602063D01*
X67348187Y-49626547D01*
X67179848Y-49696275D01*
X67028347Y-49797505D01*
X66899505Y-49926347D01*
X66798275Y-50077848D01*
X66728547Y-50246187D01*
X66693000Y-50424895D01*
X66693000Y-50607105D01*
X66728547Y-50785813D01*
X66798275Y-50954152D01*
X66845986Y-51025556D01*
X66770506Y-51075990D01*
X63459837Y-51075990D01*
X63423009Y-51072363D01*
X63386182Y-51075990D01*
X63386175Y-51075990D01*
X63275984Y-51086843D01*
X63134609Y-51129729D01*
X63004317Y-51199371D01*
X62890115Y-51293095D01*
X62866636Y-51321704D01*
X62553579Y-51634761D01*
X62528317Y-51507758D01*
X62417128Y-51239325D01*
X62255707Y-50997742D01*
X62050258Y-50792293D01*
X61864241Y-50668000D01*
X62050258Y-50543707D01*
X62255707Y-50338258D01*
X62417128Y-50096675D01*
X62528317Y-49828242D01*
X62585000Y-49543275D01*
X62585000Y-49252725D01*
X62528317Y-48967758D01*
X62417128Y-48699325D01*
X62255707Y-48457742D01*
X62050258Y-48252293D01*
X61864241Y-48128000D01*
X62050258Y-48003707D01*
X62255707Y-47798258D01*
X62417128Y-47556675D01*
X62528317Y-47288242D01*
X62581618Y-47020277D01*
X64841626Y-49280286D01*
G04 #@! TA.AperFunction,Conductor*
D14*
G36*
X64841626Y-49280286D02*
G01*
X64865105Y-49308895D01*
X64979307Y-49402619D01*
X65005438Y-49416586D01*
X65083347Y-49494495D01*
X65234848Y-49595725D01*
X65403187Y-49665453D01*
X65581895Y-49701000D01*
X65764105Y-49701000D01*
X65942813Y-49665453D01*
X66111152Y-49595725D01*
X66262653Y-49494495D01*
X66391495Y-49365653D01*
X66492725Y-49214152D01*
X66562453Y-49045813D01*
X66598000Y-48867105D01*
X66598000Y-48684895D01*
X66562453Y-48506187D01*
X66522990Y-48410913D01*
X66986412Y-48874336D01*
X67009891Y-48902945D01*
X67124093Y-48996669D01*
X67254385Y-49066311D01*
X67395760Y-49109197D01*
X67410474Y-49110646D01*
X67528898Y-49189775D01*
X67697237Y-49259503D01*
X67794492Y-49278848D01*
X67471278Y-49602063D01*
X67348187Y-49626547D01*
X67179848Y-49696275D01*
X67028347Y-49797505D01*
X66899505Y-49926347D01*
X66798275Y-50077848D01*
X66728547Y-50246187D01*
X66693000Y-50424895D01*
X66693000Y-50607105D01*
X66728547Y-50785813D01*
X66798275Y-50954152D01*
X66845986Y-51025556D01*
X66770506Y-51075990D01*
X63459837Y-51075990D01*
X63423009Y-51072363D01*
X63386182Y-51075990D01*
X63386175Y-51075990D01*
X63275984Y-51086843D01*
X63134609Y-51129729D01*
X63004317Y-51199371D01*
X62890115Y-51293095D01*
X62866636Y-51321704D01*
X62553579Y-51634761D01*
X62528317Y-51507758D01*
X62417128Y-51239325D01*
X62255707Y-50997742D01*
X62050258Y-50792293D01*
X61864241Y-50668000D01*
X62050258Y-50543707D01*
X62255707Y-50338258D01*
X62417128Y-50096675D01*
X62528317Y-49828242D01*
X62585000Y-49543275D01*
X62585000Y-49252725D01*
X62528317Y-48967758D01*
X62417128Y-48699325D01*
X62255707Y-48457742D01*
X62050258Y-48252293D01*
X61864241Y-48128000D01*
X62050258Y-48003707D01*
X62255707Y-47798258D01*
X62417128Y-47556675D01*
X62528317Y-47288242D01*
X62581618Y-47020277D01*
X64841626Y-49280286D01*
G37*
G04 #@! TD.AperFunction*
D13*
X66038087Y-47926010D02*
X65942813Y-47886547D01*
X65764105Y-47851000D01*
X65581895Y-47851000D01*
X65541663Y-47859003D01*
X62804379Y-45121720D01*
X62780895Y-45093105D01*
X62666693Y-44999381D01*
X62536401Y-44929739D01*
X62462432Y-44907301D01*
X62528317Y-44748242D01*
X62583399Y-44471322D01*
X66038087Y-47926010D01*
G04 #@! TA.AperFunction,Conductor*
D14*
G36*
X66038087Y-47926010D02*
G01*
X65942813Y-47886547D01*
X65764105Y-47851000D01*
X65581895Y-47851000D01*
X65541663Y-47859003D01*
X62804379Y-45121720D01*
X62780895Y-45093105D01*
X62666693Y-44999381D01*
X62536401Y-44929739D01*
X62462432Y-44907301D01*
X62528317Y-44748242D01*
X62583399Y-44471322D01*
X66038087Y-47926010D01*
G37*
G04 #@! TD.AperFunction*
D13*
X69020188Y-65420496D02*
X69213617Y-65635423D01*
X69445260Y-65808485D01*
X69461006Y-65816000D01*
X69445260Y-65823515D01*
X69213617Y-65996577D01*
X69020188Y-66211504D01*
X68943652Y-66340219D01*
X68813707Y-66145742D01*
X68608258Y-65940293D01*
X68422241Y-65816000D01*
X68608258Y-65691707D01*
X68813707Y-65486258D01*
X68943652Y-65291781D01*
X69020188Y-65420496D01*
G04 #@! TA.AperFunction,Conductor*
D14*
G36*
X69020188Y-65420496D02*
G01*
X69213617Y-65635423D01*
X69445260Y-65808485D01*
X69461006Y-65816000D01*
X69445260Y-65823515D01*
X69213617Y-65996577D01*
X69020188Y-66211504D01*
X68943652Y-66340219D01*
X68813707Y-66145742D01*
X68608258Y-65940293D01*
X68422241Y-65816000D01*
X68608258Y-65691707D01*
X68813707Y-65486258D01*
X68943652Y-65291781D01*
X69020188Y-65420496D01*
G37*
G04 #@! TD.AperFunction*
M02*
